PWD /home/supriya/Documents/QT_NOTE
INPUT /etc/texmf/web2c/texmf.cnf
INPUT /usr/share/texmf/web2c/texmf.cnf
INPUT /usr/share/texlive/texmf-dist/web2c/texmf.cnf
INPUT /var/lib/texmf/web2c/pdftex/latex.fmt
INPUT ANA-TOPQ-2019-03-INT1.tex
OUTPUT ANA-TOPQ-2019-03-INT1.log
INPUT latex/atlasdoc.cls
INPUT latex/atlasdoc.cls
INPUT /usr/share/texlive/texmf-dist/tex/latex/base/ifthen.sty
INPUT /usr/share/texlive/texmf-dist/tex/latex/base/ifthen.sty
INPUT /usr/share/texlive/texmf-dist/tex/latex/oberdiek/kvoptions.sty
INPUT /usr/share/texlive/texmf-dist/tex/latex/oberdiek/kvoptions.sty
INPUT /usr/share/texlive/texmf-dist/tex/latex/graphics/keyval.sty
INPUT /usr/share/texlive/texmf-dist/tex/latex/graphics/keyval.sty
INPUT /usr/share/texlive/texmf-dist/tex/generic/oberdiek/ltxcmds.sty
INPUT /usr/share/texlive/texmf-dist/tex/generic/oberdiek/ltxcmds.sty
INPUT /usr/share/texlive/texmf-dist/tex/generic/oberdiek/kvsetkeys.sty
INPUT /usr/share/texlive/texmf-dist/tex/generic/oberdiek/kvsetkeys.sty
INPUT /usr/share/texlive/texmf-dist/tex/generic/oberdiek/infwarerr.sty
INPUT /usr/share/texlive/texmf-dist/tex/generic/oberdiek/infwarerr.sty
INPUT /usr/share/texlive/texmf-dist/tex/generic/oberdiek/etexcmds.sty
INPUT /usr/share/texlive/texmf-dist/tex/generic/oberdiek/etexcmds.sty
INPUT /usr/share/texlive/texmf-dist/tex/generic/oberdiek/ifluatex.sty
INPUT /usr/share/texlive/texmf-dist/tex/generic/oberdiek/ifluatex.sty
INPUT /usr/share/texlive/texmf-dist/tex/latex/koma-script/scrartcl.cls
INPUT /usr/share/texlive/texmf-dist/tex/latex/koma-script/scrartcl.cls
INPUT /usr/share/texlive/texmf-dist/tex/latex/koma-script/scrkbase.sty
INPUT /usr/share/texlive/texmf-dist/tex/latex/koma-script/scrkbase.sty
INPUT /usr/share/texlive/texmf-dist/tex/latex/koma-script/scrbase.sty
INPUT /usr/share/texlive/texmf-dist/tex/latex/koma-script/scrbase.sty
INPUT /usr/share/texlive/texmf-dist/tex/latex/koma-script/scrlfile.sty
INPUT /usr/share/texlive/texmf-dist/tex/latex/koma-script/scrlfile.sty
INPUT /usr/share/texlive/texmf-dist/tex/latex/koma-script/tocbasic.sty
INPUT /usr/share/texlive/texmf-dist/tex/latex/koma-script/tocbasic.sty
INPUT /usr/share/texlive/texmf-dist/tex/latex/koma-script/scrsize11pt.clo
INPUT /usr/share/texlive/texmf-dist/tex/latex/koma-script/scrsize11pt.clo
INPUT /usr/share/texlive/texmf-dist/fonts/map/fontname/texfonts.map
INPUT /usr/share/texlive/texmf-dist/fonts/tfm/public/cm/cmr10.tfm
INPUT /usr/share/texlive/texmf-dist/tex/latex/koma-script/typearea.sty
INPUT /usr/share/texlive/texmf-dist/tex/latex/koma-script/typearea.sty
INPUT /usr/share/texlive/texmf-dist/tex/latex/graphics/graphicx.sty
INPUT /usr/share/texlive/texmf-dist/tex/latex/graphics/graphicx.sty
INPUT /usr/share/texlive/texmf-dist/tex/latex/graphics/graphics.sty
INPUT /usr/share/texlive/texmf-dist/tex/latex/graphics/graphics.sty
INPUT /usr/share/texlive/texmf-dist/tex/latex/graphics/trig.sty
INPUT /usr/share/texlive/texmf-dist/tex/latex/graphics/trig.sty
INPUT /usr/share/texlive/texmf-dist/tex/latex/latexconfig/graphics.cfg
INPUT /usr/share/texlive/texmf-dist/tex/latex/latexconfig/graphics.cfg
INPUT /usr/share/texlive/texmf-dist/tex/latex/graphics/dvips.def
INPUT /usr/share/texlive/texmf-dist/tex/latex/graphics/dvips.def
INPUT /usr/share/texlive/texmf-dist/tex/latex/xcolor/xcolor.sty
INPUT /usr/share/texlive/texmf-dist/tex/latex/xcolor/xcolor.sty
INPUT /usr/share/texlive/texmf-dist/tex/latex/latexconfig/color.cfg
INPUT /usr/share/texlive/texmf-dist/tex/latex/latexconfig/color.cfg
INPUT /usr/share/texlive/texmf-dist/tex/generic/babel/babel.sty
INPUT /usr/share/texlive/texmf-dist/tex/generic/babel/babel.sty
INPUT /usr/share/texlive/texmf-dist/tex/generic/babel-english/english.ldf
INPUT /usr/share/texlive/texmf-dist/tex/generic/babel-english/english.ldf
INPUT /usr/share/texlive/texmf-dist/tex/generic/babel/babel.def
INPUT /usr/share/texlive/texmf-dist/tex/latex/hyperref/hyperref.sty
INPUT /usr/share/texlive/texmf-dist/tex/latex/hyperref/hyperref.sty
INPUT /usr/share/texlive/texmf-dist/tex/generic/oberdiek/hobsub-hyperref.sty
INPUT /usr/share/texlive/texmf-dist/tex/generic/oberdiek/hobsub-hyperref.sty
INPUT /usr/share/texlive/texmf-dist/tex/generic/oberdiek/hobsub-hyperref.sty
INPUT /usr/share/texlive/texmf-dist/tex/generic/oberdiek/hobsub-generic.sty
INPUT /usr/share/texlive/texmf-dist/tex/generic/oberdiek/hobsub-generic.sty
INPUT /usr/share/texlive/texmf-dist/tex/generic/ifxetex/ifxetex.sty
INPUT /usr/share/texlive/texmf-dist/tex/generic/ifxetex/ifxetex.sty
INPUT /usr/share/texlive/texmf-dist/tex/latex/oberdiek/auxhook.sty
INPUT /usr/share/texlive/texmf-dist/tex/latex/oberdiek/auxhook.sty
INPUT /usr/share/texlive/texmf-dist/tex/latex/hyperref/pd1enc.def
INPUT /usr/share/texlive/texmf-dist/tex/latex/hyperref/pd1enc.def
INPUT /usr/share/texlive/texmf-dist/tex/latex/latexconfig/hyperref.cfg
INPUT /usr/share/texlive/texmf-dist/tex/latex/latexconfig/hyperref.cfg
INPUT /usr/share/texlive/texmf-dist/tex/latex/url/url.sty
INPUT /usr/share/texlive/texmf-dist/tex/latex/url/url.sty
INPUT /usr/share/texlive/texmf-dist/tex/latex/hyperref/hdvips.def
INPUT /usr/share/texlive/texmf-dist/tex/latex/hyperref/hdvips.def
INPUT /usr/share/texlive/texmf-dist/tex/latex/hyperref/pdfmark.def
INPUT /usr/share/texlive/texmf-dist/tex/latex/hyperref/pdfmark.def
INPUT /usr/share/texlive/texmf-dist/tex/latex/oberdiek/rerunfilecheck.sty
INPUT /usr/share/texlive/texmf-dist/tex/latex/oberdiek/rerunfilecheck.sty
INPUT /usr/share/texlive/texmf-dist/tex/latex/newtx/newtxtext.sty
INPUT /usr/share/texlive/texmf-dist/tex/latex/newtx/newtxtext.sty
INPUT /usr/share/texlive/texmf-dist/tex/latex/fontaxes/fontaxes.sty
INPUT /usr/share/texlive/texmf-dist/tex/latex/fontaxes/fontaxes.sty
INPUT /usr/share/texlive/texmf-dist/tex/latex/xkeyval/xkeyval.sty
INPUT /usr/share/texlive/texmf-dist/tex/latex/xkeyval/xkeyval.sty
INPUT /usr/share/texlive/texmf-dist/tex/generic/xkeyval/xkeyval.tex
INPUT /usr/share/texlive/texmf-dist/tex/generic/xkeyval/xkvutils.tex
INPUT /usr/share/texlive/texmf-dist/tex/latex/etoolbox/etoolbox.sty
INPUT /usr/share/texlive/texmf-dist/tex/latex/etoolbox/etoolbox.sty
INPUT /usr/share/texlive/texmf-dist/tex/latex/base/fontenc.sty
INPUT /usr/share/texlive/texmf-dist/tex/latex/base/fontenc.sty
INPUT /usr/share/texlive/texmf-dist/tex/latex/base/t1enc.def
INPUT /usr/share/texlive/texmf-dist/tex/latex/base/t1enc.def
INPUT /usr/share/texlive/texmf-dist/fonts/tfm/jknappen/ec/ecrm1095.tfm
INPUT /usr/share/texlive/texmf-dist/tex/latex/base/textcomp.sty
INPUT /usr/share/texlive/texmf-dist/tex/latex/base/textcomp.sty
INPUT /usr/share/texlive/texmf-dist/tex/latex/base/ts1enc.def
INPUT /usr/share/texlive/texmf-dist/tex/latex/base/ts1enc.def
INPUT /usr/share/texlive/texmf-dist/tex/latex/newtx/t1ntxtlf.fd
INPUT /usr/share/texlive/texmf-dist/tex/latex/newtx/t1ntxtlf.fd
INPUT /usr/share/texlive/texmf-dist/fonts/tfm/public/newtx/ntx-Regular-tlf-t1.tfm
INPUT /usr/share/texlive/texmf-dist/tex/latex/newtx/newtxmath.sty
INPUT /usr/share/texlive/texmf-dist/tex/latex/newtx/newtxmath.sty
INPUT /usr/share/texlive/texmf-dist/tex/latex/amsmath/amsmath.sty
INPUT /usr/share/texlive/texmf-dist/tex/latex/amsmath/amsmath.sty
INPUT /usr/share/texlive/texmf-dist/tex/latex/amsmath/amstext.sty
INPUT /usr/share/texlive/texmf-dist/tex/latex/amsmath/amstext.sty
INPUT /usr/share/texlive/texmf-dist/tex/latex/amsmath/amsgen.sty
INPUT /usr/share/texlive/texmf-dist/tex/latex/amsmath/amsgen.sty
INPUT /usr/share/texlive/texmf-dist/tex/latex/amsmath/amsbsy.sty
INPUT /usr/share/texlive/texmf-dist/tex/latex/amsmath/amsbsy.sty
INPUT /usr/share/texlive/texmf-dist/tex/latex/amsmath/amsopn.sty
INPUT /usr/share/texlive/texmf-dist/tex/latex/amsmath/amsopn.sty
INPUT /usr/share/texlive/texmf-dist/tex/generic/kastrup/binhex.tex
INPUT /usr/share/texlive/texmf-dist/tex/generic/kastrup/binhex.tex
INPUT /usr/share/texlive/texmf-dist/tex/latex/lineno/lineno.sty
INPUT /usr/share/texlive/texmf-dist/tex/latex/lineno/lineno.sty
INPUT latex/atlaspackage.sty
INPUT latex/atlaspackage.sty
INPUT /usr/share/texlive/texmf-dist/tex/latex/base/inputenc.sty
INPUT /usr/share/texlive/texmf-dist/tex/latex/base/inputenc.sty
INPUT /usr/share/texlive/texmf-dist/tex/latex/base/utf8.def
INPUT /usr/share/texlive/texmf-dist/tex/latex/base/utf8.def
INPUT /usr/share/texlive/texmf-dist/tex/latex/base/t1enc.dfu
INPUT /usr/share/texlive/texmf-dist/tex/latex/base/t1enc.dfu
INPUT /usr/share/texlive/texmf-dist/tex/latex/base/ot1enc.dfu
INPUT /usr/share/texlive/texmf-dist/tex/latex/base/ot1enc.dfu
INPUT /usr/share/texlive/texmf-dist/tex/latex/base/omsenc.dfu
INPUT /usr/share/texlive/texmf-dist/tex/latex/base/omsenc.dfu
INPUT /usr/share/texlive/texmf-dist/tex/latex/base/ts1enc.dfu
INPUT /usr/share/texlive/texmf-dist/tex/latex/base/ts1enc.dfu
INPUT /usr/share/texlive/texmf-dist/tex/latex/microtype/microtype.sty
INPUT /usr/share/texlive/texmf-dist/tex/latex/microtype/microtype.sty
INPUT /usr/share/texlive/texmf-dist/tex/latex/microtype/microtype-pdftex.def
INPUT /usr/share/texlive/texmf-dist/tex/latex/microtype/microtype-pdftex.def
INPUT /usr/share/texlive/texmf-dist/tex/latex/microtype/microtype.cfg
INPUT /usr/share/texlive/texmf-dist/tex/latex/microtype/microtype.cfg
INPUT /usr/share/texlive/texmf-dist/tex/latex/microtype/microtype.cfg
INPUT /usr/share/texlive/texmf-dist/tex/latex/placeins/placeins.sty
INPUT /usr/share/texlive/texmf-dist/tex/latex/placeins/placeins.sty
INPUT /usr/share/texlive/texmf-dist/tex/latex/csquotes/csquotes.sty
INPUT /usr/share/texlive/texmf-dist/tex/latex/csquotes/csquotes.sty
INPUT /usr/share/texlive/texmf-dist/tex/latex/csquotes/csquotes.def
INPUT /usr/share/texlive/texmf-dist/tex/latex/csquotes/csquotes.def
INPUT /usr/share/texlive/texmf-dist/tex/latex/csquotes/csquotes.cfg
INPUT /usr/share/texlive/texmf-dist/tex/latex/csquotes/csquotes.cfg
INPUT /usr/share/texlive/texmf-dist/tex/latex/booktabs/booktabs.sty
INPUT /usr/share/texlive/texmf-dist/tex/latex/booktabs/booktabs.sty
INPUT /usr/share/texlive/texmf-dist/tex/latex/subfig/subfig.sty
INPUT /usr/share/texlive/texmf-dist/tex/latex/subfig/subfig.sty
INPUT /usr/share/texlive/texmf-dist/tex/latex/caption/caption.sty
INPUT /usr/share/texlive/texmf-dist/tex/latex/caption/caption.sty
INPUT /usr/share/texlive/texmf-dist/tex/latex/caption/caption3.sty
INPUT /usr/share/texlive/texmf-dist/tex/latex/caption/caption3.sty
INPUT /usr/share/texlive/texmf-dist/tex/latex/tocloft/tocloft.sty
INPUT /usr/share/texlive/texmf-dist/tex/latex/tocloft/tocloft.sty
INPUT /usr/share/texlive/texmf-dist/tex/latex/siunitx/siunitx.sty
INPUT /usr/share/texlive/texmf-dist/tex/latex/siunitx/siunitx.sty
INPUT /usr/share/texlive/texmf-dist/tex/latex/l3kernel/expl3.sty
INPUT /usr/share/texlive/texmf-dist/tex/latex/l3kernel/expl3.sty
INPUT /usr/share/texlive/texmf-dist/tex/latex/l3kernel/expl3-code.tex
INPUT /usr/share/texlive/texmf-dist/tex/latex/l3kernel/expl3-code.tex
INPUT /usr/share/texlive/texmf-dist/tex/generic/unicode-data/UnicodeData.txt
INPUT /usr/share/texlive/texmf-dist/tex/generic/unicode-data/CaseFolding.txt
INPUT /usr/share/texlive/texmf-dist/tex/generic/unicode-data/SpecialCasing.txt
INPUT /usr/share/texlive/texmf-dist/tex/latex/l3kernel/l3dvips.def
INPUT /usr/share/texlive/texmf-dist/tex/latex/l3kernel/l3dvips.def
INPUT /usr/share/texlive/texmf-dist/tex/latex/l3packages/xparse/xparse.sty
INPUT /usr/share/texlive/texmf-dist/tex/latex/l3packages/xparse/xparse.sty
INPUT /usr/share/texlive/texmf-dist/tex/latex/tools/array.sty
INPUT /usr/share/texlive/texmf-dist/tex/latex/tools/array.sty
INPUT /usr/share/texlive/texmf-dist/tex/latex/l3packages/l3keys2e/l3keys2e.sty
INPUT /usr/share/texlive/texmf-dist/tex/latex/l3packages/l3keys2e/l3keys2e.sty
INPUT /usr/share/texlive/texmf-dist/tex/latex/beamer/translator/translator.sty
INPUT /usr/share/texlive/texmf-dist/tex/latex/beamer/translator/translator.sty
INPUT /usr/share/texlive/texmf-dist/tex/latex/beamer/translator/translator.sty
INPUT /usr/share/texlive/texmf-dist/tex/latex/beamer/translator/translator-language-mappings.tex
INPUT /usr/share/texlive/texmf-dist/tex/latex/beamer/translator/translator-language-mappings.tex
INPUT /usr/share/texlive/texmf-dist/tex/latex/biblatex/biblatex.sty
INPUT /usr/share/texlive/texmf-dist/tex/latex/biblatex/biblatex.sty
INPUT /usr/share/texlive/texmf-dist/tex/latex/biblatex/biblatex_.sty
INPUT /usr/share/texlive/texmf-dist/tex/latex/biblatex/biblatex_.sty
INPUT /usr/share/texlive/texmf-dist/tex/latex/logreq/logreq.sty
INPUT /usr/share/texlive/texmf-dist/tex/latex/logreq/logreq.sty
INPUT /usr/share/texlive/texmf-dist/tex/latex/logreq/logreq.def
INPUT /usr/share/texlive/texmf-dist/tex/latex/logreq/logreq.def
INPUT /usr/share/texlive/texmf-dist/tex/latex/biblatex/blx-dm.def
INPUT /usr/share/texlive/texmf-dist/tex/latex/biblatex/blx-dm.def
INPUT /usr/share/texlive/texmf-dist/tex/latex/biblatex/blx-compat.def
INPUT /usr/share/texlive/texmf-dist/tex/latex/biblatex/blx-compat.def
INPUT /usr/share/texlive/texmf-dist/tex/latex/biblatex/biblatex_.def
INPUT /usr/share/texlive/texmf-dist/tex/latex/biblatex/biblatex_.def
INPUT /usr/share/texlive/texmf-dist/tex/latex/biblatex/bbx/numeric-comp.bbx
INPUT /usr/share/texlive/texmf-dist/tex/latex/biblatex/bbx/numeric-comp.bbx
INPUT /usr/share/texlive/texmf-dist/tex/latex/biblatex/bbx/numeric.bbx
INPUT /usr/share/texlive/texmf-dist/tex/latex/biblatex/bbx/numeric.bbx
INPUT /usr/share/texlive/texmf-dist/tex/latex/biblatex/bbx/standard.bbx
INPUT /usr/share/texlive/texmf-dist/tex/latex/biblatex/bbx/standard.bbx
INPUT /usr/share/texlive/texmf-dist/tex/latex/biblatex/cbx/numeric-comp.cbx
INPUT /usr/share/texlive/texmf-dist/tex/latex/biblatex/cbx/numeric-comp.cbx
INPUT /usr/share/texlive/texmf-dist/tex/latex/biblatex/biblatex.cfg
INPUT /usr/share/texlive/texmf-dist/tex/latex/biblatex/biblatex.cfg
INPUT latex/atlasbiblatex.sty
INPUT latex/atlasbiblatex.sty
INPUT /usr/share/texlive/texmf-dist/tex/latex/biblatex/lbx/english.lbx
INPUT /usr/share/texlive/texmf-dist/tex/latex/biblatex/lbx/american.lbx
INPUT /usr/share/texlive/texmf-dist/tex/latex/biblatex/lbx/british.lbx
INPUT /usr/share/texlive/texmf-dist/tex/latex/biblatex/lbx/UKenglish.lbx
INPUT /usr/share/texlive/texmf-dist/tex/latex/biblatex/lbx/USenglish.lbx
INPUT /usr/share/texlive/texmf-dist/tex/latex/biblatex/lbx/ngerman.lbx
INPUT latex/atlascontribute.sty
INPUT latex/atlascontribute.sty
INPUT /usr/share/texlive/texmf-dist/tex/latex/preprint/authblk.sty
INPUT /usr/share/texlive/texmf-dist/tex/latex/preprint/authblk.sty
INPUT latex/atlasphysics.sty
INPUT latex/atlasphysics.sty
INPUT /usr/share/texlive/texmf-dist/tex/latex/tools/xspace.sty
INPUT /usr/share/texlive/texmf-dist/tex/latex/tools/xspace.sty
INPUT latex/atlasjournal.sty
INPUT latex/atlasjournal.sty
INPUT latex/atlasmisc.sty
INPUT latex/atlasmisc.sty
INPUT latex/atlasparticle.sty
INPUT latex/atlasparticle.sty
INPUT latex/atlasunit.sty
INPUT latex/atlasunit.sty
INPUT latex/atlasxref.sty
INPUT latex/atlasxref.sty
INPUT ANA-TOPQ-2019-03-INT1-defs.sty
INPUT ANA-TOPQ-2019-03-INT1-defs.sty
INPUT ANA-TOPQ-2019-03-INT1-metadata.tex
INPUT ANA-TOPQ-2019-03-INT1-metadata.tex
INPUT /usr/share/texlive/texmf-dist/tex/latex/biblatex/lbx/UKenglish.lbx
INPUT /usr/share/texlive/texmf-dist/tex/latex/biblatex/lbx/UKenglish.lbx
INPUT /usr/share/texlive/texmf-dist/tex/latex/biblatex/lbx/british.lbx
INPUT /usr/share/texlive/texmf-dist/tex/latex/biblatex/lbx/british.lbx
INPUT /usr/share/texlive/texmf-dist/tex/latex/biblatex/lbx/english.lbx
INPUT /usr/share/texlive/texmf-dist/tex/latex/biblatex/lbx/english.lbx
INPUT ANA-TOPQ-2019-03-INT1.aux
INPUT ANA-TOPQ-2019-03-INT1.aux
INPUT sections/introduction.aux
INPUT sections/introduction.aux
INPUT sections/technical.aux
INPUT sections/technical.aux
INPUT sections/samples.aux
INPUT sections/samples.aux
INPUT sections/ip_pv.aux
INPUT sections/ip_pv.aux
INPUT sections/ip_bs.aux
INPUT sections/ip_bs.aux
INPUT sections/conclusion.aux
INPUT sections/conclusion.aux
OUTPUT ANA-TOPQ-2019-03-INT1.aux
INPUT /usr/share/texlive/texmf-dist/tex/latex/newtx/omlntxmi.fd
INPUT /usr/share/texlive/texmf-dist/tex/latex/newtx/omlntxmi.fd
INPUT /usr/share/texlive/texmf-dist/tex/latex/newtx/omsntxsy.fd
INPUT /usr/share/texlive/texmf-dist/tex/latex/newtx/omsntxsy.fd
INPUT /usr/share/texlive/texmf-dist/tex/latex/newtx/untxexa.fd
INPUT /usr/share/texlive/texmf-dist/tex/latex/newtx/untxexa.fd
INPUT /usr/share/texlive/texmf-dist/tex/latex/base/ts1cmr.fd
INPUT /usr/share/texlive/texmf-dist/tex/latex/base/ts1cmr.fd
INPUT /usr/share/texlive/texmf-dist/tex/latex/hyperref/nameref.sty
INPUT /usr/share/texlive/texmf-dist/tex/latex/hyperref/nameref.sty
INPUT /usr/share/texlive/texmf-dist/tex/generic/oberdiek/gettitlestring.sty
INPUT /usr/share/texlive/texmf-dist/tex/generic/oberdiek/gettitlestring.sty
INPUT ANA-TOPQ-2019-03-INT1.out
INPUT ANA-TOPQ-2019-03-INT1.out
INPUT ANA-TOPQ-2019-03-INT1.out
INPUT ANA-TOPQ-2019-03-INT1.out
INPUT ./ANA-TOPQ-2019-03-INT1.out
INPUT ./ANA-TOPQ-2019-03-INT1.out
OUTPUT ANA-TOPQ-2019-03-INT1.out
INPUT /usr/share/texlive/texmf-dist/tex/latex/koma-script/scrlayer-scrpage.sty
INPUT /usr/share/texlive/texmf-dist/tex/latex/koma-script/scrlayer-scrpage.sty
INPUT /usr/share/texlive/texmf-dist/tex/latex/koma-script/scrlayer.sty
INPUT /usr/share/texlive/texmf-dist/tex/latex/koma-script/scrlayer.sty
INPUT /usr/share/texlive/texmf-dist/tex/latex/beamer/translator/dicts/translator-basic-dictionary/translator-basic-dictionary-English.dict
INPUT /usr/share/texlive/texmf-dist/tex/latex/beamer/translator/dicts/translator-basic-dictionary/translator-basic-dictionary-English.dict
INPUT /usr/share/texlive/texmf-dist/tex/latex/siunitx/siunitx-abbreviations.cfg
INPUT /usr/share/texlive/texmf-dist/tex/latex/siunitx/siunitx-abbreviations.cfg
OUTPUT ANA-TOPQ-2019-03-INT1.bcf
INPUT ANA-TOPQ-2019-03-INT1.bbl
INPUT ANA-TOPQ-2019-03-INT1.bbl
INPUT ANA-TOPQ-2019-03-INT1.bbl
INPUT /usr/share/texlive/texmf-dist/tex/latex/newtx/ot1ntxtlf.fd
INPUT /usr/share/texlive/texmf-dist/tex/latex/newtx/ot1ntxtlf.fd
INPUT /usr/share/texlive/texmf-dist/fonts/tfm/public/newtx/ntx-Regular-tlf-ot1.tfm
INPUT /usr/share/texlive/texmf-dist/fonts/tfm/public/newtx/ntx-Regular-tlf-ot1.tfm
INPUT /usr/share/texlive/texmf-dist/fonts/tfm/public/newtx/ntx-Regular-tlf-ot1.tfm
INPUT /usr/share/texlive/texmf-dist/fonts/tfm/public/newtx/ntxmi.tfm
INPUT /usr/share/texlive/texmf-dist/fonts/tfm/public/newtx/ntxmi7.tfm
INPUT /usr/share/texlive/texmf-dist/fonts/tfm/public/newtx/ntxmi5.tfm
INPUT /usr/share/texlive/texmf-dist/fonts/tfm/public/newtx/ntxsy.tfm
INPUT /usr/share/texlive/texmf-dist/fonts/tfm/public/newtx/ntxsy7.tfm
INPUT /usr/share/texlive/texmf-dist/fonts/tfm/public/newtx/ntxsy5.tfm
INPUT /usr/share/texlive/texmf-dist/fonts/tfm/public/newtx/ntxexx.tfm
INPUT /usr/share/texlive/texmf-dist/fonts/tfm/public/newtx/ntxexx.tfm
INPUT /usr/share/texlive/texmf-dist/fonts/tfm/public/newtx/ntxexx.tfm
INPUT /usr/share/texlive/texmf-dist/tex/latex/newtx/untxmia.fd
INPUT /usr/share/texlive/texmf-dist/tex/latex/newtx/untxmia.fd
INPUT /usr/share/texlive/texmf-dist/fonts/tfm/public/newtx/ntxmia.tfm
INPUT /usr/share/texlive/texmf-dist/fonts/tfm/public/newtx/ntxmia.tfm
INPUT /usr/share/texlive/texmf-dist/fonts/tfm/public/newtx/ntxmia.tfm
INPUT /usr/share/texlive/texmf-dist/tex/latex/newtx/untxsym.fd
INPUT /usr/share/texlive/texmf-dist/tex/latex/newtx/untxsym.fd
INPUT /usr/share/texlive/texmf-dist/fonts/tfm/public/newtx/ntxsym.tfm
INPUT /usr/share/texlive/texmf-dist/fonts/tfm/public/newtx/ntxsym.tfm
INPUT /usr/share/texlive/texmf-dist/fonts/tfm/public/newtx/ntxsym.tfm
INPUT /usr/share/texlive/texmf-dist/tex/latex/newtx/untxsyc.fd
INPUT /usr/share/texlive/texmf-dist/tex/latex/newtx/untxsyc.fd
INPUT /usr/share/texlive/texmf-dist/fonts/tfm/public/newtx/ntxsyc.tfm
INPUT /usr/share/texlive/texmf-dist/fonts/tfm/public/newtx/ntxsyc.tfm
INPUT /usr/share/texlive/texmf-dist/fonts/tfm/public/newtx/ntxsyc.tfm
INPUT /usr/share/texlive/texmf-dist/fonts/tfm/public/newtx/ntxexa.tfm
INPUT /usr/share/texlive/texmf-dist/fonts/tfm/public/newtx/ntxexa.tfm
INPUT /usr/share/texlive/texmf-dist/fonts/tfm/public/newtx/ntxexa.tfm
INPUT /usr/share/texmf/tex/latex/tex-gyre/t1qhv.fd
INPUT /usr/share/texmf/tex/latex/tex-gyre/t1qhv.fd
INPUT /usr/share/texmf/fonts/tfm/public/tex-gyre/ec-qhvr.tfm
INPUT /usr/share/texmf/fonts/tfm/public/tex-gyre/ec-qhvr.tfm
INPUT /usr/share/texmf/fonts/tfm/public/tex-gyre/ec-qhvr.tfm
INPUT /usr/share/texlive/texmf-dist/tex/latex/newtx/t1ntxtt.fd
INPUT /usr/share/texlive/texmf-dist/tex/latex/newtx/t1ntxtt.fd
INPUT /usr/share/texlive/texmf-dist/fonts/tfm/public/txfonts/t1xtt.tfm
INPUT /usr/share/texlive/texmf-dist/fonts/tfm/public/txfonts/t1xtt.tfm
INPUT /usr/share/texlive/texmf-dist/fonts/tfm/public/txfonts/t1xtt.tfm
INPUT /usr/share/texmf/fonts/tfm/public/tex-gyre/ec-qhvr.tfm
INPUT /usr/share/texmf/fonts/tfm/public/tex-gyre/ec-qhvb.tfm
INPUT /usr/share/texmf/fonts/tfm/public/tex-gyre/ec-qhvb.tfm
INPUT /usr/share/texlive/texmf-dist/fonts/tfm/public/newtx/ntx-Regular-tlf-t1.tfm
INPUT /usr/share/texlive/texmf-dist/fonts/tfm/public/newtx/ntx-Regular-tlf-t1.tfm
INPUT /usr/share/texmf/fonts/tfm/public/tex-gyre/ec-qhvr.tfm
INPUT /usr/share/texlive/texmf-dist/fonts/tfm/public/newtx/ntx-Bold-tlf-t1.tfm
INPUT /usr/share/texlive/texmf-dist/fonts/tfm/public/newtx/ntx-Bold-tlf-t1.tfm
INPUT /usr/share/texlive/texmf-dist/fonts/tfm/public/newtx/ntx-Regular-tlf-t1.tfm
INPUT /usr/share/texlive/texmf-dist/fonts/tfm/public/newtx/ntx-Regular-tlf-t1.tfm
INPUT /usr/share/texlive/texmf-dist/tex/latex/newtx/ts1ntxtlf.fd
INPUT /usr/share/texlive/texmf-dist/tex/latex/newtx/ts1ntxtlf.fd
INPUT /usr/share/texmf/fonts/tfm/public/tex-gyre/ts1-qtmr.tfm
OUTPUT ANA-TOPQ-2019-03-INT1.dvi
INPUT /usr/share/texmf/fonts/tfm/public/tex-gyre/ec-qhvr.tfm
INPUT /usr/share/texmf/fonts/tfm/public/tex-gyre/ec-qhvb.tfm
INPUT /usr/share/texlive/texmf-dist/fonts/tfm/public/newtx/ntx-Bold-tlf-t1.tfm
INPUT ANA-TOPQ-2019-03-INT1.toc
INPUT ANA-TOPQ-2019-03-INT1.toc
INPUT /usr/share/texlive/texmf-dist/fonts/tfm/public/newtx/ntx-Bold-tlf-ot1.tfm
INPUT /usr/share/texlive/texmf-dist/fonts/tfm/public/newtx/ntx-Bold-tlf-ot1.tfm
INPUT /usr/share/texlive/texmf-dist/fonts/tfm/public/newtx/ntx-Bold-tlf-ot1.tfm
INPUT /usr/share/texlive/texmf-dist/fonts/tfm/public/newtx/ntxbmi.tfm
INPUT /usr/share/texlive/texmf-dist/fonts/tfm/public/newtx/ntxbmi7.tfm
INPUT /usr/share/texlive/texmf-dist/fonts/tfm/public/newtx/ntxbmi5.tfm
INPUT /usr/share/texlive/texmf-dist/fonts/tfm/public/newtx/ntxbsy.tfm
INPUT /usr/share/texlive/texmf-dist/fonts/tfm/public/newtx/ntxbsy7.tfm
INPUT /usr/share/texlive/texmf-dist/fonts/tfm/public/newtx/ntxbsy5.tfm
INPUT /usr/share/texlive/texmf-dist/fonts/tfm/public/newtx/ntxbexx.tfm
INPUT /usr/share/texlive/texmf-dist/fonts/tfm/public/newtx/ntxbexx.tfm
INPUT /usr/share/texlive/texmf-dist/fonts/tfm/public/newtx/ntxbexx.tfm
INPUT /usr/share/texlive/texmf-dist/fonts/tfm/public/newtx/ntxbmia.tfm
INPUT /usr/share/texlive/texmf-dist/fonts/tfm/public/newtx/ntxbmia.tfm
INPUT /usr/share/texlive/texmf-dist/fonts/tfm/public/newtx/ntxbmia.tfm
INPUT /usr/share/texlive/texmf-dist/fonts/tfm/public/newtx/ntxbsym.tfm
INPUT /usr/share/texlive/texmf-dist/fonts/tfm/public/newtx/ntxbsym.tfm
INPUT /usr/share/texlive/texmf-dist/fonts/tfm/public/newtx/ntxbsym.tfm
INPUT /usr/share/texlive/texmf-dist/fonts/tfm/public/newtx/ntxbsyc.tfm
INPUT /usr/share/texlive/texmf-dist/fonts/tfm/public/newtx/ntxbsyc.tfm
INPUT /usr/share/texlive/texmf-dist/fonts/tfm/public/newtx/ntxbsyc.tfm
INPUT /usr/share/texlive/texmf-dist/fonts/tfm/public/newtx/ntxbexa.tfm
INPUT /usr/share/texlive/texmf-dist/fonts/tfm/public/newtx/ntxbexa.tfm
INPUT /usr/share/texlive/texmf-dist/fonts/tfm/public/newtx/ntxbexa.tfm
INPUT /usr/share/texlive/texmf-dist/fonts/tfm/public/newtx/ntx-Bold-tlf-t1.tfm
INPUT /usr/share/texlive/texmf-dist/fonts/tfm/public/newtx/ntx-Regular-tlf-t1.tfm
INPUT /usr/share/texlive/texmf-dist/fonts/tfm/public/newtx/ntx-Bold-tlf-ot1.tfm
INPUT /usr/share/texlive/texmf-dist/fonts/tfm/public/newtx/ntx-Bold-tlf-ot1.tfm
INPUT /usr/share/texlive/texmf-dist/fonts/tfm/public/newtx/ntx-Bold-tlf-ot1.tfm
INPUT /usr/share/texlive/texmf-dist/fonts/tfm/public/newtx/ntxbmi.tfm
INPUT /usr/share/texlive/texmf-dist/fonts/tfm/public/newtx/ntxbmi.tfm
INPUT /usr/share/texlive/texmf-dist/fonts/tfm/public/newtx/ntxbmi7.tfm
INPUT /usr/share/texlive/texmf-dist/fonts/tfm/public/newtx/ntxbsy.tfm
INPUT /usr/share/texlive/texmf-dist/fonts/tfm/public/newtx/ntxbsy.tfm
INPUT /usr/share/texlive/texmf-dist/fonts/tfm/public/newtx/ntxbsy7.tfm
INPUT /usr/share/texlive/texmf-dist/fonts/tfm/public/newtx/ntxbexx.tfm
INPUT /usr/share/texlive/texmf-dist/fonts/tfm/public/newtx/ntxbexx.tfm
INPUT /usr/share/texlive/texmf-dist/fonts/tfm/public/newtx/ntxbexx.tfm
INPUT /usr/share/texlive/texmf-dist/fonts/tfm/public/newtx/ntxbmia.tfm
INPUT /usr/share/texlive/texmf-dist/fonts/tfm/public/newtx/ntxbmia.tfm
INPUT /usr/share/texlive/texmf-dist/fonts/tfm/public/newtx/ntxbmia.tfm
INPUT /usr/share/texlive/texmf-dist/fonts/tfm/public/newtx/ntxbsym.tfm
INPUT /usr/share/texlive/texmf-dist/fonts/tfm/public/newtx/ntxbsym.tfm
INPUT /usr/share/texlive/texmf-dist/fonts/tfm/public/newtx/ntxbsym.tfm
INPUT /usr/share/texlive/texmf-dist/fonts/tfm/public/newtx/ntxbsyc.tfm
INPUT /usr/share/texlive/texmf-dist/fonts/tfm/public/newtx/ntxbsyc.tfm
INPUT /usr/share/texlive/texmf-dist/fonts/tfm/public/newtx/ntxbsyc.tfm
INPUT /usr/share/texlive/texmf-dist/fonts/tfm/public/newtx/ntxbexa.tfm
INPUT /usr/share/texlive/texmf-dist/fonts/tfm/public/newtx/ntxbexa.tfm
INPUT /usr/share/texlive/texmf-dist/fonts/tfm/public/newtx/ntxbexa.tfm
OUTPUT ANA-TOPQ-2019-03-INT1.toc
OUTPUT sections/introduction.aux
INPUT sections/introduction.tex
INPUT sections/introduction.tex
OUTPUT sections/technical.aux
INPUT sections/technical.tex
INPUT sections/technical.tex
INPUT logos/../logos/figures/tech/TailFitting_8to9GeV.pdf
INPUT logos/../logos/figures/tech/TailFitting_8to9GeV.pdf
OUTPUT sections/samples.aux
INPUT sections/samples.tex
INPUT sections/samples.tex
OUTPUT sections/ip_pv.aux
INPUT sections/ip_pv.tex
INPUT sections/ip_pv.tex
INPUT logos/figures/IP_PV/ImpactPar.png
INPUT logos/figures/IP_PV/ImpactPar.png
INPUT /usr/share/texlive/texmf-dist/fonts/tfm/public/newtx/ntx-Bold-tlf-t1.tfm
INPUT /usr/share/texlive/texmf-dist/fonts/tfm/public/newtx/ntx-Regular-tlf-ot1.tfm
INPUT /usr/share/texlive/texmf-dist/fonts/tfm/public/newtx/ntx-Regular-tlf-ot1.tfm
INPUT /usr/share/texlive/texmf-dist/fonts/tfm/public/newtx/ntx-Regular-tlf-ot1.tfm
INPUT /usr/share/texlive/texmf-dist/fonts/tfm/public/newtx/ntxmi.tfm
INPUT /usr/share/texlive/texmf-dist/fonts/tfm/public/newtx/ntxmi7.tfm
INPUT /usr/share/texlive/texmf-dist/fonts/tfm/public/newtx/ntxmi5.tfm
INPUT /usr/share/texlive/texmf-dist/fonts/tfm/public/newtx/ntxsy.tfm
INPUT /usr/share/texlive/texmf-dist/fonts/tfm/public/newtx/ntxsy7.tfm
INPUT /usr/share/texlive/texmf-dist/fonts/tfm/public/newtx/ntxsy5.tfm
INPUT /usr/share/texlive/texmf-dist/fonts/tfm/public/newtx/ntxexx.tfm
INPUT /usr/share/texlive/texmf-dist/fonts/tfm/public/newtx/ntxexx.tfm
INPUT /usr/share/texlive/texmf-dist/fonts/tfm/public/newtx/ntxexx.tfm
INPUT /usr/share/texmf/fonts/tfm/public/tex-gyre/ec-qhvr.tfm
INPUT /usr/share/texmf/fonts/tfm/public/tex-gyre/ec-qhvr.tfm
INPUT /usr/share/texmf/fonts/tfm/public/tex-gyre/ec-qhvr.tfm
INPUT /usr/share/texlive/texmf-dist/fonts/tfm/public/txfonts/t1xtt.tfm
INPUT /usr/share/texlive/texmf-dist/fonts/tfm/public/txfonts/t1xtt.tfm
INPUT /usr/share/texlive/texmf-dist/fonts/tfm/public/txfonts/t1xtt.tfm
INPUT /usr/share/texlive/texmf-dist/fonts/tfm/public/newtx/ntxmia.tfm
INPUT /usr/share/texlive/texmf-dist/fonts/tfm/public/newtx/ntxmia.tfm
INPUT /usr/share/texlive/texmf-dist/fonts/tfm/public/newtx/ntxmia.tfm
INPUT /usr/share/texlive/texmf-dist/fonts/tfm/public/newtx/ntxsym.tfm
INPUT /usr/share/texlive/texmf-dist/fonts/tfm/public/newtx/ntxsym.tfm
INPUT /usr/share/texlive/texmf-dist/fonts/tfm/public/newtx/ntxsym.tfm
INPUT /usr/share/texlive/texmf-dist/fonts/tfm/public/newtx/ntxsyc.tfm
INPUT /usr/share/texlive/texmf-dist/fonts/tfm/public/newtx/ntxsyc.tfm
INPUT /usr/share/texlive/texmf-dist/fonts/tfm/public/newtx/ntxsyc.tfm
INPUT /usr/share/texlive/texmf-dist/fonts/tfm/public/newtx/ntxexa.tfm
INPUT /usr/share/texlive/texmf-dist/fonts/tfm/public/newtx/ntxexa.tfm
INPUT /usr/share/texlive/texmf-dist/fonts/tfm/public/newtx/ntxexa.tfm
INPUT logos/figures/IP_PV/d0_example_plot1.png
INPUT logos/figures/IP_PV/d0_example_plot1.png
INPUT logos/figures/IP_PV/IP_1.png
INPUT logos/figures/IP_PV/IP_1.png
INPUT logos/figures/IP_PV/IP_2.png
INPUT logos/figures/IP_PV/IP_2.png
INPUT logos/figures/IP_PV/d0_example_plot1.png
INPUT logos/figures/IP_PV/d0_example_plot1.png
OUTPUT sections/ip_bs.aux
INPUT sections/ip_bs.tex
INPUT sections/ip_bs.tex
OUTPUT sections/conclusion.aux
INPUT sections/conclusion.tex
INPUT sections/conclusion.tex
INPUT /usr/share/texlive/texmf-dist/fonts/tfm/public/newtx/ntx-Bold-tlf-t1.tfm
INPUT /usr/share/texlive/texmf-dist/fonts/tfm/public/newtx/ntx-Bold-tlf-t1.tfm
INPUT /usr/share/texlive/texmf-dist/fonts/tfm/public/newtx/ntx-Regular-tlf-t1.tfm
INPUT ANA-TOPQ-2019-03-INT1.aux
INPUT sections/introduction.aux
INPUT sections/introduction.aux
INPUT sections/technical.aux
INPUT sections/technical.aux
INPUT sections/samples.aux
INPUT sections/samples.aux
INPUT sections/ip_pv.aux
INPUT sections/ip_pv.aux
INPUT sections/ip_bs.aux
INPUT sections/ip_bs.aux
INPUT sections/conclusion.aux
INPUT sections/conclusion.aux
INPUT ./ANA-TOPQ-2019-03-INT1.out
INPUT ./ANA-TOPQ-2019-03-INT1.out
INPUT ANA-TOPQ-2019-03-INT1.run.xml
OUTPUT ANA-TOPQ-2019-03-INT1.run.xml
