[0] Config.pm:340> INFO - This is Biber 2.4
[0] Config.pm:343> INFO - Logfile is 'IPRes_IntNote.blg'
[52] biber:287> INFO - === Fr Feb 19, 2021, 10:34:13
[153] Biber.pm:348> INFO - Reading 'IPRes_IntNote.bcf'
[311] Biber.pm:742> INFO - Found 21 citekeys in bib section 0
[320] Biber.pm:3151> INFO - Processing section 0
[374] Biber.pm:3308> INFO - Looking for bibtex format file 'bib/note.bib' for section 0
[425] bibtex.pm:1113> INFO - Decoding LaTeX character macros into UTF-8
[475] bibtex.pm:974> INFO - Found BibTeX data source 'bib/note.bib'
[815] UCollate.pm:65> INFO - Overriding locale 'en-UK' defaults 'variable = shifted' with 'variable = non-ignorable'
[816] UCollate.pm:65> INFO - Overriding locale 'en-UK' defaults 'normalization = NFD' with 'normalization = prenormalized'
[816] Biber.pm:3028> INFO - Sorting list 'none/global' of type 'entry' with scheme 'none' and locale 'en-UK'
[816] Biber.pm:3032> INFO - No sort tailoring available for locale 'en-UK'
[840] bbl.pm:519> INFO - Writing 'IPRes_IntNote.bbl' with encoding 'UTF-8'
[931] bbl.pm:615> INFO - Output to IPRes_IntNote.bbl
