\relax 
\providecommand\hyper@newdestlabel[2]{}
\providecommand\HyperFirstAtBeginDocument{\AtBeginDocument}
\HyperFirstAtBeginDocument{\ifx\hyper@anchor\@undefined
\global\let\oldcontentsline\contentsline
\gdef\contentsline#1#2#3#4{\oldcontentsline{#1}{#2}{#3}}
\global\let\oldnewlabel\newlabel
\gdef\newlabel#1#2{\newlabelxx{#1}#2}
\gdef\newlabelxx#1#2#3#4#5#6{\oldnewlabel{#1}{{#2}{#3}}}
\AtEndDocument{\ifx\hyper@anchor\@undefined
\let\contentsline\oldcontentsline
\let\newlabel\oldnewlabel
\fi}
\fi}
\global\let\hyper@last\relax 
\gdef\HyperFirstAtBeginDocument#1{#1}
\providecommand\HyField@AuxAddToFields[1]{}
\providecommand\HyField@AuxAddToCoFields[2]{}
\abx@aux@sortscheme{none}
\abx@aux@sortnamekeyscheme{global}
\@writefile{toc}{\boolfalse {citerequest}\boolfalse {citetracker}\boolfalse {pagetracker}\boolfalse {backtracker}\relax }
\@writefile{lof}{\boolfalse {citerequest}\boolfalse {citetracker}\boolfalse {pagetracker}\boolfalse {backtracker}\relax }
\@writefile{lot}{\boolfalse {citerequest}\boolfalse {citetracker}\boolfalse {pagetracker}\boolfalse {backtracker}\relax }
\select@language{UKenglish}
\@writefile{toc}{\defcounter {refsection}{0}\relax }\@writefile{toc}{\select@language{UKenglish}}
\@writefile{lof}{\defcounter {refsection}{0}\relax }\@writefile{lof}{\select@language{UKenglish}}
\@writefile{lot}{\defcounter {refsection}{0}\relax }\@writefile{lot}{\select@language{UKenglish}}
\@input{sections/introduction.aux}
\@input{sections/theory.aux}
\abx@aux@cite{ATL-PHYS-PUB-2015-022}
\abx@aux@cite{PhysRevD.98.030001}
\abx@aux@cite{Gupta:1279627}
\abx@aux@cite{ATLAS-CONF-2018-006}
\abx@aux@cite{ATLAS-CONF-2010-070}
\abx@aux@cite{ATLAS-CONF-2010-069}
\@input{sections/technical.aux}
\abx@aux@cite{ATL-PHYS-PUB-2016-012}
\abx@aux@cite{ATL-PHYS-PUB-2015-018}
\abx@aux@cite{ATL-PHYS-PUB-2015-006}
\abx@aux@cite{collaboration_2014}
\abx@aux@cite{BORISOV1996181}
\@input{sections/samples.aux}
\abx@aux@cite{Steerenberg:2299299}
\abx@aux@cite{Jimenez:2018ufb}
\abx@aux@cite{Sj_strand_2008}
\abx@aux@cite{ATL-PHYS-PUB-2014-021}
\abx@aux@cite{Ball_2013}
\abx@aux@cite{AGOSTINELLI2003250}
\@input{sections/ip_pv.aux}
\abx@aux@cite{ATLAS-CONF-2014-047}
\abx@aux@cite{Aad:2724037}
\abx@aux@cite{BACKHAUS201665}
\abx@aux@cite{Rodina:2630663}
\@input{sections/ip_bs.aux}
\@input{sections/conclusion.aux}
\@writefile{toc}{\contentsline {part}{Appendices}{48}{part*.46}}
