<?xml version="1.0" standalone="no"?>
<svg width="567.429" height="520.185" viewBox="0 0 567.429 520.185" xmlns="http://www.w3.org/2000/svg" shape-rendering="crispEdges">
<title>
/home/supriya/NAF_MOUNTED/CTIDEefficiency/macros/IPanalysis/final/jetpTmorethan300/JetWiseReweighted_Tailfitting/data16/TailFitting_(8,9)GeV.svg
</title>
<desc>
Creator: ROOT Version 6.18/04
CreationDate: Wed Dec  9 12:09:49 2020</desc>
<defs>
</defs>
<rect x="0.5" y="0" width="566.929" height="519.685" fill="white"/>
<rect x="91.2087" y="25.9843" width="447.874" height="410.551" fill="white"/>
<rect x="91.2087" y="25.9843" width="447.874" height="410.551" fill="none" stroke="black"/>
<rect x="91.2087" y="25.9843" width="447.874" height="410.551" fill="white"/>
<rect x="91.2087" y="25.9843" width="447.874" height="410.551" fill="none" stroke="black"/>
<path d="M92.6819,395.687v -4.78347" fill="none" stroke="#006666" stroke-width="2"/>
<path d="M92.6819,390.904v -4.38733" fill="none" stroke="#006666" stroke-width="2"/>
<path d="M91.2087,390.904h 1.47327" fill="none" stroke="#006666" stroke-width="2"/>
<path d="M92.6819,390.904h 1.47327" fill="none" stroke="#006666" stroke-width="2"/>
<g stroke="black" stroke-width="2" fill="none">
<line x1="91.6819" y1="390.904" x2="92.6819" y2="390.904"/>
</g>
<path d="M95.6285,389.788v -4.5281" fill="none" stroke="#006666" stroke-width="2"/>
<path d="M95.6285,385.26v -4.17157" fill="none" stroke="#006666" stroke-width="2"/>
<path d="M94.1552,385.26h 1.47327" fill="none" stroke="#006666" stroke-width="2"/>
<path d="M95.6285,385.26h 1.47327" fill="none" stroke="#006666" stroke-width="2"/>
<g stroke="black" stroke-width="2" fill="none">
<line x1="94.6285" y1="385.26" x2="95.6285" y2="385.26"/>
</g>
<path d="M98.575,399.723v -4.94083" fill="none" stroke="#006666" stroke-width="2"/>
<path d="M98.575,394.782v -4.51933" fill="none" stroke="#006666" stroke-width="2"/>
<path d="M97.1017,394.782h 1.47327" fill="none" stroke="#006666" stroke-width="2"/>
<path d="M98.575,394.782h 1.47327" fill="none" stroke="#006666" stroke-width="2"/>
<g stroke="black" stroke-width="2" fill="none">
<line x1="97.575" y1="394.782" x2="98.575" y2="394.782"/>
</g>
<path d="M101.522,378.889v -4.09233" fill="none" stroke="#006666" stroke-width="2"/>
<path d="M101.522,374.797v -3.79893" fill="none" stroke="#006666" stroke-width="2"/>
<path d="M100.048,374.797h 1.47327" fill="none" stroke="#006666" stroke-width="2"/>
<path d="M101.522,374.797h 1.47327" fill="none" stroke="#006666" stroke-width="2"/>
<g stroke="black" stroke-width="2" fill="none">
<line x1="100.522" y1="374.797" x2="101.522" y2="374.797"/>
</g>
<path d="M104.468,379.575v -4.09927" fill="none" stroke="#006666" stroke-width="2"/>
<path d="M104.468,375.476v -3.80491" fill="none" stroke="#006666" stroke-width="2"/>
<path d="M102.995,375.476h 1.47327" fill="none" stroke="#006666" stroke-width="2"/>
<path d="M104.468,375.476h 1.47327" fill="none" stroke="#006666" stroke-width="2"/>
<g stroke="black" stroke-width="2" fill="none">
<line x1="103.468" y1="375.476" x2="104.468" y2="375.476"/>
</g>
<path d="M107.415,371.783v -3.81731" fill="none" stroke="#006666" stroke-width="2"/>
<path d="M107.415,367.966v -3.56079" fill="none" stroke="#006666" stroke-width="2"/>
<path d="M105.941,367.966h 1.47327" fill="none" stroke="#006666" stroke-width="2"/>
<path d="M107.415,367.966h 1.47327" fill="none" stroke="#006666" stroke-width="2"/>
<g stroke="black" stroke-width="2" fill="none">
<line x1="106.415" y1="367.966" x2="107.415" y2="367.966"/>
</g>
<path d="M110.361,366.81v -3.64432" fill="none" stroke="#006666" stroke-width="2"/>
<path d="M110.361,363.166v -3.40982" fill="none" stroke="#006666" stroke-width="2"/>
<path d="M108.888,363.166h 1.47327" fill="none" stroke="#006666" stroke-width="2"/>
<path d="M110.361,363.166h 1.47327" fill="none" stroke="#006666" stroke-width="2"/>
<g stroke="black" stroke-width="2" fill="none">
<line x1="109.361" y1="363.166" x2="110.361" y2="363.166"/>
</g>
<path d="M113.308,369.044v -3.71493" fill="none" stroke="#006666" stroke-width="2"/>
<path d="M113.308,365.329v -3.47156" fill="none" stroke="#006666" stroke-width="2"/>
<path d="M111.834,365.329h 1.47327" fill="none" stroke="#006666" stroke-width="2"/>
<path d="M113.308,365.329h 1.47327" fill="none" stroke="#006666" stroke-width="2"/>
<g stroke="black" stroke-width="2" fill="none">
<line x1="112.308" y1="365.329" x2="113.308" y2="365.329"/>
</g>
<path d="M116.254,369.454v -3.73457" fill="none" stroke="#006666" stroke-width="2"/>
<path d="M116.254,365.72v -3.4887" fill="none" stroke="#006666" stroke-width="2"/>
<path d="M114.781,365.72h 1.47327" fill="none" stroke="#006666" stroke-width="2"/>
<path d="M116.254,365.72h 1.47327" fill="none" stroke="#006666" stroke-width="2"/>
<g stroke="black" stroke-width="2" fill="none">
<line x1="115.254" y1="365.72" x2="116.254" y2="365.72"/>
</g>
<path d="M119.201,353.906v -3.22743" fill="none" stroke="#006666" stroke-width="2"/>
<path d="M119.201,350.678v -3.04216" fill="none" stroke="#006666" stroke-width="2"/>
<path d="M117.728,350.678h 1.47327" fill="none" stroke="#006666" stroke-width="2"/>
<path d="M119.201,350.678h 1.47327" fill="none" stroke="#006666" stroke-width="2"/>
<g stroke="black" stroke-width="2" fill="none">
<line x1="118.201" y1="350.678" x2="119.201" y2="350.678"/>
</g>
<path d="M122.147,353.34v -3.21056" fill="none" stroke="#006666" stroke-width="2"/>
<path d="M122.147,350.129v -3.02717" fill="none" stroke="#006666" stroke-width="2"/>
<path d="M120.674,350.129h 1.47327" fill="none" stroke="#006666" stroke-width="2"/>
<path d="M122.147,350.129h 1.47327" fill="none" stroke="#006666" stroke-width="2"/>
<g stroke="black" stroke-width="2" fill="none">
<line x1="121.147" y1="350.129" x2="122.147" y2="350.129"/>
</g>
<path d="M125.094,352.727v -3.20618" fill="none" stroke="#006666" stroke-width="2"/>
<path d="M125.094,349.521v -3.02327" fill="none" stroke="#006666" stroke-width="2"/>
<path d="M123.621,349.521h 1.47327" fill="none" stroke="#006666" stroke-width="2"/>
<path d="M125.094,349.521h 1.47327" fill="none" stroke="#006666" stroke-width="2"/>
<g stroke="black" stroke-width="2" fill="none">
<line x1="124.094" y1="349.521" x2="125.094" y2="349.521"/>
</g>
<path d="M128.04,350.251v -3.116" fill="none" stroke="#006666" stroke-width="2"/>
<path d="M128.04,347.135v -2.94297" fill="none" stroke="#006666" stroke-width="2"/>
<path d="M126.567,347.135h 1.47327" fill="none" stroke="#006666" stroke-width="2"/>
<path d="M128.04,347.135h 1.47327" fill="none" stroke="#006666" stroke-width="2"/>
<g stroke="black" stroke-width="2" fill="none">
<line x1="127.04" y1="347.135" x2="128.04" y2="347.135"/>
</g>
<path d="M130.987,342.429v -2.89382" fill="none" stroke="#006666" stroke-width="2"/>
<path d="M130.987,339.535v -2.74399" fill="none" stroke="#006666" stroke-width="2"/>
<path d="M129.514,339.535h 1.47327" fill="none" stroke="#006666" stroke-width="2"/>
<path d="M130.987,339.535h 1.47327" fill="none" stroke="#006666" stroke-width="2"/>
<g stroke="black" stroke-width="2" fill="none">
<line x1="129.987" y1="339.535" x2="130.987" y2="339.535"/>
</g>
<path d="M133.933,341.84v -2.87232" fill="none" stroke="#006666" stroke-width="2"/>
<path d="M133.933,338.968v -2.72465" fill="none" stroke="#006666" stroke-width="2"/>
<path d="M132.46,338.968h 1.47327" fill="none" stroke="#006666" stroke-width="2"/>
<path d="M133.933,338.968h 1.47327" fill="none" stroke="#006666" stroke-width="2"/>
<g stroke="black" stroke-width="2" fill="none">
<line x1="132.933" y1="338.968" x2="133.933" y2="338.968"/>
</g>
<path d="M136.88,337.666v -2.77287" fill="none" stroke="#006666" stroke-width="2"/>
<path d="M136.88,334.893v -2.63501" fill="none" stroke="#006666" stroke-width="2"/>
<path d="M135.407,334.893h 1.47327" fill="none" stroke="#006666" stroke-width="2"/>
<path d="M136.88,334.893h 1.47327" fill="none" stroke="#006666" stroke-width="2"/>
<g stroke="black" stroke-width="2" fill="none">
<line x1="135.88" y1="334.893" x2="136.88" y2="334.893"/>
</g>
<path d="M139.827,335.891v -2.72834" fill="none" stroke="#006666" stroke-width="2"/>
<path d="M139.827,333.162v -2.59477" fill="none" stroke="#006666" stroke-width="2"/>
<path d="M138.353,333.162h 1.47327" fill="none" stroke="#006666" stroke-width="2"/>
<path d="M139.827,333.162h 1.47327" fill="none" stroke="#006666" stroke-width="2"/>
<g stroke="black" stroke-width="2" fill="none">
<line x1="138.827" y1="333.162" x2="139.827" y2="333.162"/>
</g>
<path d="M142.773,334.627v -2.68799" fill="none" stroke="#006666" stroke-width="2"/>
<path d="M142.773,331.939v -2.55824" fill="none" stroke="#006666" stroke-width="2"/>
<path d="M141.3,331.939h 1.47327" fill="none" stroke="#006666" stroke-width="2"/>
<path d="M142.773,331.939h 1.47327" fill="none" stroke="#006666" stroke-width="2"/>
<g stroke="black" stroke-width="2" fill="none">
<line x1="141.773" y1="331.939" x2="142.773" y2="331.939"/>
</g>
<path d="M145.72,332.595v -2.6439" fill="none" stroke="#006666" stroke-width="2"/>
<path d="M145.72,329.951v -2.51827" fill="none" stroke="#006666" stroke-width="2"/>
<path d="M144.246,329.951h 1.47327" fill="none" stroke="#006666" stroke-width="2"/>
<path d="M145.72,329.951h 1.47327" fill="none" stroke="#006666" stroke-width="2"/>
<g stroke="black" stroke-width="2" fill="none">
<line x1="144.72" y1="329.951" x2="145.72" y2="329.951"/>
</g>
<path d="M148.666,326.915v -2.50824" fill="none" stroke="#006666" stroke-width="2"/>
<path d="M148.666,324.407v -2.39491" fill="none" stroke="#006666" stroke-width="2"/>
<path d="M147.193,324.407h 1.47327" fill="none" stroke="#006666" stroke-width="2"/>
<path d="M148.666,324.407h 1.47327" fill="none" stroke="#006666" stroke-width="2"/>
<g stroke="black" stroke-width="2" fill="none">
<line x1="147.666" y1="324.407" x2="148.666" y2="324.407"/>
</g>
<path d="M151.613,321.612v -2.37184" fill="none" stroke="#006666" stroke-width="2"/>
<path d="M151.613,319.24v -2.27025" fill="none" stroke="#006666" stroke-width="2"/>
<path d="M150.139,319.24h 1.47327" fill="none" stroke="#006666" stroke-width="2"/>
<path d="M151.613,319.24h 1.47327" fill="none" stroke="#006666" stroke-width="2"/>
<g stroke="black" stroke-width="2" fill="none">
<line x1="150.613" y1="319.24" x2="151.613" y2="319.24"/>
</g>
<path d="M154.559,319.514v -2.32697" fill="none" stroke="#006666" stroke-width="2"/>
<path d="M154.559,317.187v -2.22911" fill="none" stroke="#006666" stroke-width="2"/>
<path d="M153.086,317.187h 1.47327" fill="none" stroke="#006666" stroke-width="2"/>
<path d="M154.559,317.187h 1.47327" fill="none" stroke="#006666" stroke-width="2"/>
<g stroke="black" stroke-width="2" fill="none">
<line x1="153.559" y1="317.187" x2="154.559" y2="317.187"/>
</g>
<path d="M157.506,316.749v -2.27437" fill="none" stroke="#006666" stroke-width="2"/>
<path d="M157.506,314.475v -2.18079" fill="none" stroke="#006666" stroke-width="2"/>
<path d="M156.033,314.475h 1.47327" fill="none" stroke="#006666" stroke-width="2"/>
<path d="M157.506,314.475h 1.47327" fill="none" stroke="#006666" stroke-width="2"/>
<g stroke="black" stroke-width="2" fill="none">
<line x1="156.506" y1="314.475" x2="157.506" y2="314.475"/>
</g>
<path d="M160.452,311.834v -2.1681" fill="none" stroke="#006666" stroke-width="2"/>
<path d="M160.452,309.666v -2.0829" fill="none" stroke="#006666" stroke-width="2"/>
<path d="M158.979,309.666h 1.47327" fill="none" stroke="#006666" stroke-width="2"/>
<path d="M160.452,309.666h 1.47327" fill="none" stroke="#006666" stroke-width="2"/>
<g stroke="black" stroke-width="2" fill="none">
<line x1="159.452" y1="309.666" x2="160.452" y2="309.666"/>
</g>
<path d="M163.399,311.892v -2.17331" fill="none" stroke="#006666" stroke-width="2"/>
<path d="M163.399,309.719v -2.08771" fill="none" stroke="#006666" stroke-width="2"/>
<path d="M161.926,309.719h 1.47327" fill="none" stroke="#006666" stroke-width="2"/>
<path d="M163.399,309.719h 1.47327" fill="none" stroke="#006666" stroke-width="2"/>
<g stroke="black" stroke-width="2" fill="none">
<line x1="162.399" y1="309.719" x2="163.399" y2="309.719"/>
</g>
<path d="M166.345,306.589v -2.06186" fill="none" stroke="#006666" stroke-width="2"/>
<path d="M166.345,304.527v -1.98466" fill="none" stroke="#006666" stroke-width="2"/>
<path d="M164.872,304.527h 1.47327" fill="none" stroke="#006666" stroke-width="2"/>
<path d="M166.345,304.527h 1.47327" fill="none" stroke="#006666" stroke-width="2"/>
<g stroke="black" stroke-width="2" fill="none">
<line x1="165.345" y1="304.527" x2="166.345" y2="304.527"/>
</g>
<path d="M169.292,303.351v -2.00214" fill="none" stroke="#006666" stroke-width="2"/>
<path d="M169.292,301.349v -1.92927" fill="none" stroke="#006666" stroke-width="2"/>
<path d="M167.819,301.349h 1.47327" fill="none" stroke="#006666" stroke-width="2"/>
<path d="M169.292,301.349h 1.47327" fill="none" stroke="#006666" stroke-width="2"/>
<g stroke="black" stroke-width="2" fill="none">
<line x1="168.292" y1="301.349" x2="169.292" y2="301.349"/>
</g>
<path d="M172.238,302.87v -1.99138" fill="none" stroke="#006666" stroke-width="2"/>
<path d="M172.238,300.878v -1.91927" fill="none" stroke="#006666" stroke-width="2"/>
<path d="M170.765,300.878h 1.47327" fill="none" stroke="#006666" stroke-width="2"/>
<path d="M172.238,300.878h 1.47327" fill="none" stroke="#006666" stroke-width="2"/>
<g stroke="black" stroke-width="2" fill="none">
<line x1="171.238" y1="300.878" x2="172.238" y2="300.878"/>
</g>
<path d="M175.185,299.732v -1.93906" fill="none" stroke="#006666" stroke-width="2"/>
<path d="M175.185,297.793v -1.87063" fill="none" stroke="#006666" stroke-width="2"/>
<path d="M173.712,297.793h 1.47327" fill="none" stroke="#006666" stroke-width="2"/>
<path d="M175.185,297.793h 1.47327" fill="none" stroke="#006666" stroke-width="2"/>
<g stroke="black" stroke-width="2" fill="none">
<line x1="174.185" y1="297.793" x2="175.185" y2="297.793"/>
</g>
<path d="M178.132,296.29v -1.8691" fill="none" stroke="#006666" stroke-width="2"/>
<path d="M178.132,294.421v -1.80543" fill="none" stroke="#006666" stroke-width="2"/>
<path d="M176.658,294.421h 1.47327" fill="none" stroke="#006666" stroke-width="2"/>
<path d="M178.132,294.421h 1.47327" fill="none" stroke="#006666" stroke-width="2"/>
<g stroke="black" stroke-width="2" fill="none">
<line x1="177.132" y1="294.421" x2="178.132" y2="294.421"/>
</g>
<path d="M181.078,295.846v -1.86085" fill="none" stroke="#006666" stroke-width="2"/>
<path d="M181.078,293.985v -1.79773" fill="none" stroke="#006666" stroke-width="2"/>
<path d="M179.605,293.985h 1.47327" fill="none" stroke="#006666" stroke-width="2"/>
<path d="M181.078,293.985h 1.47327" fill="none" stroke="#006666" stroke-width="2"/>
<g stroke="black" stroke-width="2" fill="none">
<line x1="180.078" y1="293.985" x2="181.078" y2="293.985"/>
</g>
<path d="M184.025,291.298v -1.78649" fill="none" stroke="#006666" stroke-width="2"/>
<path d="M184.025,289.512v -1.72824" fill="none" stroke="#006666" stroke-width="2"/>
<path d="M182.551,289.512h 1.47327" fill="none" stroke="#006666" stroke-width="2"/>
<path d="M184.025,289.512h 1.47327" fill="none" stroke="#006666" stroke-width="2"/>
<g stroke="black" stroke-width="2" fill="none">
<line x1="183.025" y1="289.512" x2="184.025" y2="289.512"/>
</g>
<path d="M186.971,284.867v -1.68346" fill="none" stroke="#006666" stroke-width="2"/>
<path d="M186.971,283.184v -1.63164" fill="none" stroke="#006666" stroke-width="2"/>
<path d="M185.498,283.184h 1.47327" fill="none" stroke="#006666" stroke-width="2"/>
<path d="M186.971,283.184h 1.47327" fill="none" stroke="#006666" stroke-width="2"/>
<g stroke="black" stroke-width="2" fill="none">
<line x1="185.971" y1="283.184" x2="186.971" y2="283.184"/>
</g>
<path d="M189.918,286.628v -1.71362" fill="none" stroke="#006666" stroke-width="2"/>
<path d="M189.918,284.914v -1.65996" fill="none" stroke="#006666" stroke-width="2"/>
<path d="M188.444,284.914h 1.47327" fill="none" stroke="#006666" stroke-width="2"/>
<path d="M189.918,284.914h 1.47327" fill="none" stroke="#006666" stroke-width="2"/>
<g stroke="black" stroke-width="2" fill="none">
<line x1="188.918" y1="284.914" x2="189.918" y2="284.914"/>
</g>
<path d="M192.864,279.253v -1.59765" fill="none" stroke="#006666" stroke-width="2"/>
<path d="M192.864,277.656v -1.55091" fill="none" stroke="#006666" stroke-width="2"/>
<path d="M191.391,277.656h 1.47327" fill="none" stroke="#006666" stroke-width="2"/>
<path d="M192.864,277.656h 1.47327" fill="none" stroke="#006666" stroke-width="2"/>
<g stroke="black" stroke-width="2" fill="none">
<line x1="191.864" y1="277.656" x2="192.864" y2="277.656"/>
</g>
<path d="M195.811,272.224v -1.49719" fill="none" stroke="#006666" stroke-width="2"/>
<path d="M195.811,270.726v -1.45607" fill="none" stroke="#006666" stroke-width="2"/>
<path d="M194.338,270.726h 1.47327" fill="none" stroke="#006666" stroke-width="2"/>
<path d="M195.811,270.726h 1.47327" fill="none" stroke="#006666" stroke-width="2"/>
<g stroke="black" stroke-width="2" fill="none">
<line x1="194.811" y1="270.726" x2="195.811" y2="270.726"/>
</g>
<path d="M198.757,272.709v -1.49804" fill="none" stroke="#006666" stroke-width="2"/>
<path d="M198.757,271.211v -1.45687" fill="none" stroke="#006666" stroke-width="2"/>
<path d="M197.284,271.211h 1.47327" fill="none" stroke="#006666" stroke-width="2"/>
<path d="M198.757,271.211h 1.47327" fill="none" stroke="#006666" stroke-width="2"/>
<g stroke="black" stroke-width="2" fill="none">
<line x1="197.757" y1="271.211" x2="198.757" y2="271.211"/>
</g>
<path d="M201.704,266.485v -1.41513" fill="none" stroke="#006666" stroke-width="2"/>
<path d="M201.704,265.07v -1.37834" fill="none" stroke="#006666" stroke-width="2"/>
<path d="M200.231,265.07h 1.47327" fill="none" stroke="#006666" stroke-width="2"/>
<path d="M201.704,265.07h 1.47327" fill="none" stroke="#006666" stroke-width="2"/>
<g stroke="black" stroke-width="2" fill="none">
<line x1="200.704" y1="265.07" x2="201.704" y2="265.07"/>
</g>
<path d="M204.65,261.38v -1.35155" fill="none" stroke="#006666" stroke-width="2"/>
<path d="M204.65,260.029v -1.31795" fill="none" stroke="#006666" stroke-width="2"/>
<path d="M203.177,260.029h 1.47327" fill="none" stroke="#006666" stroke-width="2"/>
<path d="M204.65,260.029h 1.47327" fill="none" stroke="#006666" stroke-width="2"/>
<g stroke="black" stroke-width="2" fill="none">
<line x1="203.65" y1="260.029" x2="204.65" y2="260.029"/>
</g>
<path d="M207.597,258.317v -1.31287" fill="none" stroke="#006666" stroke-width="2"/>
<path d="M207.597,257.004v -1.28114" fill="none" stroke="#006666" stroke-width="2"/>
<path d="M206.124,257.004h 1.47327" fill="none" stroke="#006666" stroke-width="2"/>
<path d="M207.597,257.004h 1.47327" fill="none" stroke="#006666" stroke-width="2"/>
<g stroke="black" stroke-width="2" fill="none">
<line x1="206.597" y1="257.004" x2="207.597" y2="257.004"/>
</g>
<path d="M210.544,252.937v -1.24504" fill="none" stroke="#006666" stroke-width="2"/>
<path d="M210.544,251.692v -1.21647" fill="none" stroke="#006666" stroke-width="2"/>
<path d="M209.07,251.692h 1.47327" fill="none" stroke="#006666" stroke-width="2"/>
<path d="M210.544,251.692h 1.47327" fill="none" stroke="#006666" stroke-width="2"/>
<g stroke="black" stroke-width="2" fill="none">
<line x1="209.544" y1="251.692" x2="210.544" y2="251.692"/>
</g>
<path d="M213.49,246.931v -1.17811" fill="none" stroke="#006666" stroke-width="2"/>
<path d="M213.49,245.752v -1.1525" fill="none" stroke="#006666" stroke-width="2"/>
<path d="M212.017,245.752h 1.47327" fill="none" stroke="#006666" stroke-width="2"/>
<path d="M213.49,245.752h 1.47327" fill="none" stroke="#006666" stroke-width="2"/>
<g stroke="black" stroke-width="2" fill="none">
<line x1="212.49" y1="245.752" x2="213.49" y2="245.752"/>
</g>
<path d="M216.437,241.137v -1.11557" fill="none" stroke="#006666" stroke-width="2"/>
<path d="M216.437,240.021v -1.09258" fill="none" stroke="#006666" stroke-width="2"/>
<path d="M214.963,240.021h 1.47327" fill="none" stroke="#006666" stroke-width="2"/>
<path d="M216.437,240.021h 1.47327" fill="none" stroke="#006666" stroke-width="2"/>
<g stroke="black" stroke-width="2" fill="none">
<line x1="215.437" y1="240.021" x2="216.437" y2="240.021"/>
</g>
<path d="M219.383,238.688v -1.08905" fill="none" stroke="#006666" stroke-width="2"/>
<path d="M219.383,237.599v -1.06712" fill="none" stroke="#006666" stroke-width="2"/>
<path d="M217.91,237.599h 1.47327" fill="none" stroke="#006666" stroke-width="2"/>
<path d="M219.383,237.599h 1.47327" fill="none" stroke="#006666" stroke-width="2"/>
<g stroke="black" stroke-width="2" fill="none">
<line x1="218.383" y1="237.599" x2="219.383" y2="237.599"/>
</g>
<path d="M222.33,231.391v -1.01784" fill="none" stroke="#006666" stroke-width="2"/>
<path d="M222.33,230.373v -0.998666" fill="none" stroke="#006666" stroke-width="2"/>
<path d="M220.856,230.373h 1.47327" fill="none" stroke="#006666" stroke-width="2"/>
<path d="M222.33,230.373h 1.47327" fill="none" stroke="#006666" stroke-width="2"/>
<g stroke="black" stroke-width="2" fill="none">
<line x1="221.33" y1="230.373" x2="222.33" y2="230.373"/>
</g>
<path d="M225.276,226.006v -0.965916" fill="none" stroke="#006666" stroke-width="2"/>
<path d="M225.276,225.04v -0.94863" fill="none" stroke="#006666" stroke-width="2"/>
<path d="M223.803,225.04h 1.47327" fill="none" stroke="#006666" stroke-width="2"/>
<path d="M225.276,225.04h 1.47327" fill="none" stroke="#006666" stroke-width="2"/>
<g stroke="black" stroke-width="2" fill="none">
<line x1="224.276" y1="225.04" x2="225.276" y2="225.04"/>
</g>
<path d="M228.223,218.826v -0.904203" fill="none" stroke="#006666" stroke-width="2"/>
<path d="M228.223,217.922v -0.889038" fill="none" stroke="#006666" stroke-width="2"/>
<path d="M226.749,217.922h 1.47327" fill="none" stroke="#006666" stroke-width="2"/>
<path d="M228.223,217.922h 1.47327" fill="none" stroke="#006666" stroke-width="2"/>
<g stroke="black" stroke-width="2" fill="none">
<line x1="227.223" y1="217.922" x2="228.223" y2="217.922"/>
</g>
<path d="M231.169,212.577v -0.851954" fill="none" stroke="#006666" stroke-width="2"/>
<path d="M231.169,211.725v -0.838478" fill="none" stroke="#006666" stroke-width="2"/>
<path d="M229.696,211.725h 1.47327" fill="none" stroke="#006666" stroke-width="2"/>
<path d="M231.169,211.725h 1.47327" fill="none" stroke="#006666" stroke-width="2"/>
<g stroke="black" stroke-width="2" fill="none">
<line x1="230.169" y1="211.725" x2="231.169" y2="211.725"/>
</g>
<path d="M234.116,206.834v -0.806705" fill="none" stroke="#006666" stroke-width="2"/>
<path d="M234.116,206.028v -0.794613" fill="none" stroke="#006666" stroke-width="2"/>
<path d="M232.643,206.028h 1.47327" fill="none" stroke="#006666" stroke-width="2"/>
<path d="M234.116,206.028h 1.47327" fill="none" stroke="#006666" stroke-width="2"/>
<g stroke="black" stroke-width="2" fill="none">
<line x1="233.116" y1="206.028" x2="234.116" y2="206.028"/>
</g>
<path d="M237.062,200.348v -0.75909" fill="none" stroke="#006666" stroke-width="2"/>
<path d="M237.062,199.589v -0.748373" fill="none" stroke="#006666" stroke-width="2"/>
<path d="M235.589,199.589h 1.47327" fill="none" stroke="#006666" stroke-width="2"/>
<path d="M237.062,199.589h 1.47327" fill="none" stroke="#006666" stroke-width="2"/>
<g stroke="black" stroke-width="2" fill="none">
<line x1="236.062" y1="199.589" x2="237.062" y2="199.589"/>
</g>
<path d="M240.009,194.926v -0.721318" fill="none" stroke="#006666" stroke-width="2"/>
<path d="M240.009,194.204v -0.711635" fill="none" stroke="#006666" stroke-width="2"/>
<path d="M238.536,194.204h 1.47327" fill="none" stroke="#006666" stroke-width="2"/>
<path d="M240.009,194.204h 1.47327" fill="none" stroke="#006666" stroke-width="2"/>
<g stroke="black" stroke-width="2" fill="none">
<line x1="239.009" y1="194.204" x2="240.009" y2="194.204"/>
</g>
<path d="M242.955,186.389v -0.665986" fill="none" stroke="#006666" stroke-width="2"/>
<path d="M242.955,185.723v -0.657723" fill="none" stroke="#006666" stroke-width="2"/>
<path d="M241.482,185.723h 1.47327" fill="none" stroke="#006666" stroke-width="2"/>
<path d="M242.955,185.723h 1.47327" fill="none" stroke="#006666" stroke-width="2"/>
<g stroke="black" stroke-width="2" fill="none">
<line x1="241.955" y1="185.723" x2="242.955" y2="185.723"/>
</g>
<path d="M245.902,179.484v -0.623589" fill="none" stroke="#006666" stroke-width="2"/>
<path d="M245.902,178.86v -0.616339" fill="none" stroke="#006666" stroke-width="2"/>
<path d="M244.429,178.86h 1.47327" fill="none" stroke="#006666" stroke-width="2"/>
<path d="M245.902,178.86h 1.47327" fill="none" stroke="#006666" stroke-width="2"/>
<g stroke="black" stroke-width="2" fill="none">
<line x1="244.902" y1="178.86" x2="245.902" y2="178.86"/>
</g>
<path d="M248.849,172.644v -0.584522" fill="none" stroke="#006666" stroke-width="2"/>
<path d="M248.849,172.059v -0.578147" fill="none" stroke="#006666" stroke-width="2"/>
<path d="M247.375,172.059h 1.47327" fill="none" stroke="#006666" stroke-width="2"/>
<path d="M248.849,172.059h 1.47327" fill="none" stroke="#006666" stroke-width="2"/>
<g stroke="black" stroke-width="2" fill="none">
<line x1="247.849" y1="172.059" x2="248.849" y2="172.059"/>
</g>
<path d="M251.795,164.667v -0.542359" fill="none" stroke="#006666" stroke-width="2"/>
<path d="M251.795,164.124v -0.536866" fill="none" stroke="#006666" stroke-width="2"/>
<path d="M250.322,164.124h 1.47327" fill="none" stroke="#006666" stroke-width="2"/>
<path d="M251.795,164.124h 1.47327" fill="none" stroke="#006666" stroke-width="2"/>
<g stroke="black" stroke-width="2" fill="none">
<line x1="250.795" y1="164.124" x2="251.795" y2="164.124"/>
</g>
<path d="M254.742,157.773v -0.508443" fill="none" stroke="#006666" stroke-width="2"/>
<path d="M254.742,157.265v -0.503613" fill="none" stroke="#006666" stroke-width="2"/>
<path d="M253.268,157.265h 1.47327" fill="none" stroke="#006666" stroke-width="2"/>
<path d="M254.742,157.265h 1.47327" fill="none" stroke="#006666" stroke-width="2"/>
<g stroke="black" stroke-width="2" fill="none">
<line x1="253.742" y1="157.265" x2="254.742" y2="157.265"/>
</g>
<path d="M257.688,150.109v -0.472932" fill="none" stroke="#006666" stroke-width="2"/>
<path d="M257.688,149.636v -0.46875" fill="none" stroke="#006666" stroke-width="2"/>
<path d="M256.215,149.636h 1.47327" fill="none" stroke="#006666" stroke-width="2"/>
<path d="M257.688,149.636h 1.47327" fill="none" stroke="#006666" stroke-width="2"/>
<g stroke="black" stroke-width="2" fill="none">
<line x1="256.688" y1="149.636" x2="257.688" y2="149.636"/>
</g>
<path d="M260.635,143.394v -0.443988" fill="none" stroke="#006666" stroke-width="2"/>
<path d="M260.635,142.95v -0.4403" fill="none" stroke="#006666" stroke-width="2"/>
<path d="M259.161,142.95h 1.47327" fill="none" stroke="#006666" stroke-width="2"/>
<path d="M260.635,142.95h 1.47327" fill="none" stroke="#006666" stroke-width="2"/>
<g stroke="black" stroke-width="2" fill="none">
<line x1="259.635" y1="142.95" x2="260.635" y2="142.95"/>
</g>
<path d="M263.581,135.902v -0.41365" fill="none" stroke="#006666" stroke-width="2"/>
<path d="M263.581,135.488v -0.410447" fill="none" stroke="#006666" stroke-width="2"/>
<path d="M262.108,135.488h 1.47327" fill="none" stroke="#006666" stroke-width="2"/>
<path d="M263.581,135.488h 1.47327" fill="none" stroke="#006666" stroke-width="2"/>
<g stroke="black" stroke-width="2" fill="none">
<line x1="262.581" y1="135.488" x2="263.581" y2="135.488"/>
</g>
<path d="M266.528,128.218v -0.384755" fill="none" stroke="#006666" stroke-width="2"/>
<path d="M266.528,127.833v -0.381983" fill="none" stroke="#006666" stroke-width="2"/>
<path d="M265.055,127.833h 1.47327" fill="none" stroke="#006666" stroke-width="2"/>
<path d="M266.528,127.833h 1.47327" fill="none" stroke="#006666" stroke-width="2"/>
<g stroke="black" stroke-width="2" fill="none">
<line x1="265.528" y1="127.833" x2="266.528" y2="127.833"/>
</g>
<path d="M269.474,121.409v -0.360968" fill="none" stroke="#006666" stroke-width="2"/>
<path d="M269.474,121.048v -0.358527" fill="none" stroke="#006666" stroke-width="2"/>
<path d="M268.001,121.048h 1.47327" fill="none" stroke="#006666" stroke-width="2"/>
<path d="M269.474,121.048h 1.47327" fill="none" stroke="#006666" stroke-width="2"/>
<g stroke="black" stroke-width="2" fill="none">
<line x1="268.474" y1="121.048" x2="269.474" y2="121.048"/>
</g>
<path d="M272.421,114.685v -0.338493" fill="none" stroke="#006666" stroke-width="2"/>
<path d="M272.421,114.346v -0.336345" fill="none" stroke="#006666" stroke-width="2"/>
<path d="M270.948,114.346h 1.47327" fill="none" stroke="#006666" stroke-width="2"/>
<path d="M272.421,114.346h 1.47327" fill="none" stroke="#006666" stroke-width="2"/>
<g stroke="black" stroke-width="2" fill="none">
<line x1="271.421" y1="114.346" x2="272.421" y2="114.346"/>
</g>
<path d="M275.367,108.563v -0.319664" fill="none" stroke="#006666" stroke-width="2"/>
<path d="M275.367,108.243v -0.317748" fill="none" stroke="#006666" stroke-width="2"/>
<path d="M273.894,108.243h 1.47327" fill="none" stroke="#006666" stroke-width="2"/>
<path d="M275.367,108.243h 1.47327" fill="none" stroke="#006666" stroke-width="2"/>
<g stroke="black" stroke-width="2" fill="none">
<line x1="274.367" y1="108.243" x2="275.367" y2="108.243"/>
</g>
<path d="M278.314,102.22v -0.301182" fill="none" stroke="#006666" stroke-width="2"/>
<path d="M278.314,101.919v -0.299481" fill="none" stroke="#006666" stroke-width="2"/>
<path d="M276.841,101.919h 1.47327" fill="none" stroke="#006666" stroke-width="2"/>
<path d="M278.314,101.919h 1.47327" fill="none" stroke="#006666" stroke-width="2"/>
<g stroke="black" stroke-width="2" fill="none">
<line x1="277.314" y1="101.919" x2="278.314" y2="101.919"/>
</g>
<path d="M281.26,96.7239v -0.285947" fill="none" stroke="#006666" stroke-width="2"/>
<path d="M281.26,96.438v -0.284413" fill="none" stroke="#006666" stroke-width="2"/>
<path d="M279.787,96.438h 1.47327" fill="none" stroke="#006666" stroke-width="2"/>
<path d="M281.26,96.438h 1.47327" fill="none" stroke="#006666" stroke-width="2"/>
<g stroke="black" stroke-width="2" fill="none">
<line x1="280.26" y1="96.438" x2="281.26" y2="96.438"/>
</g>
<path d="M284.207,91.1036v -0.271056" fill="none" stroke="#006666" stroke-width="2"/>
<path d="M284.207,90.8326v -0.269677" fill="none" stroke="#006666" stroke-width="2"/>
<path d="M282.734,90.8326h 1.47327" fill="none" stroke="#006666" stroke-width="2"/>
<path d="M284.207,90.8326h 1.47327" fill="none" stroke="#006666" stroke-width="2"/>
<g stroke="black" stroke-width="2" fill="none">
<line x1="283.207" y1="90.8326" x2="284.207" y2="90.8326"/>
</g>
<path d="M287.154,86.0672v -0.258626" fill="none" stroke="#006666" stroke-width="2"/>
<path d="M287.154,85.8085v -0.25737" fill="none" stroke="#006666" stroke-width="2"/>
<path d="M285.68,85.8085h 1.47327" fill="none" stroke="#006666" stroke-width="2"/>
<path d="M287.154,85.8085h 1.47327" fill="none" stroke="#006666" stroke-width="2"/>
<g stroke="black" stroke-width="2" fill="none">
<line x1="286.154" y1="85.8085" x2="287.154" y2="85.8085"/>
</g>
<path d="M290.1,81.1292v -0.246764" fill="none" stroke="#006666" stroke-width="2"/>
<path d="M290.1,80.8824v -0.245621" fill="none" stroke="#006666" stroke-width="2"/>
<path d="M288.627,80.8824h 1.47327" fill="none" stroke="#006666" stroke-width="2"/>
<path d="M290.1,80.8824h 1.47327" fill="none" stroke="#006666" stroke-width="2"/>
<g stroke="black" stroke-width="2" fill="none">
<line x1="289.1" y1="80.8824" x2="290.1" y2="80.8824"/>
</g>
<path d="M293.047,76.4687v -0.236183" fill="none" stroke="#006666" stroke-width="2"/>
<path d="M293.047,76.2325v -0.235136" fill="none" stroke="#006666" stroke-width="2"/>
<path d="M291.573,76.2325h 1.47327" fill="none" stroke="#006666" stroke-width="2"/>
<path d="M293.047,76.2325h 1.47327" fill="none" stroke="#006666" stroke-width="2"/>
<g stroke="black" stroke-width="2" fill="none">
<line x1="292.047" y1="76.2325" x2="293.047" y2="76.2325"/>
</g>
<path d="M295.993,73.1135v -0.228732" fill="none" stroke="#006666" stroke-width="2"/>
<path d="M295.993,72.8847v -0.22775" fill="none" stroke="#006666" stroke-width="2"/>
<path d="M294.52,72.8847h 1.47327" fill="none" stroke="#006666" stroke-width="2"/>
<path d="M295.993,72.8847h 1.47327" fill="none" stroke="#006666" stroke-width="2"/>
<g stroke="black" stroke-width="2" fill="none">
<line x1="294.993" y1="72.8847" x2="295.993" y2="72.8847"/>
</g>
<path d="M298.94,69.548v -0.221216" fill="none" stroke="#006666" stroke-width="2"/>
<path d="M298.94,69.3268v -0.220296" fill="none" stroke="#006666" stroke-width="2"/>
<path d="M297.466,69.3268h 1.47327" fill="none" stroke="#006666" stroke-width="2"/>
<path d="M298.94,69.3268h 1.47327" fill="none" stroke="#006666" stroke-width="2"/>
<g stroke="black" stroke-width="2" fill="none">
<line x1="297.94" y1="69.3268" x2="298.94" y2="69.3268"/>
</g>
<path d="M301.886,66.649v -0.215272" fill="none" stroke="#006666" stroke-width="2"/>
<path d="M301.886,66.4337v -0.214401" fill="none" stroke="#006666" stroke-width="2"/>
<path d="M300.413,66.4337h 1.47327" fill="none" stroke="#006666" stroke-width="2"/>
<path d="M301.886,66.4337h 1.47327" fill="none" stroke="#006666" stroke-width="2"/>
<g stroke="black" stroke-width="2" fill="none">
<line x1="300.886" y1="66.4337" x2="301.886" y2="66.4337"/>
</g>
<path d="M304.833,64.3951v -0.210704" fill="none" stroke="#006666" stroke-width="2"/>
<path d="M304.833,64.1843v -0.20987" fill="none" stroke="#006666" stroke-width="2"/>
<path d="M303.359,64.1843h 1.47327" fill="none" stroke="#006666" stroke-width="2"/>
<path d="M304.833,64.1843h 1.47327" fill="none" stroke="#006666" stroke-width="2"/>
<g stroke="black" stroke-width="2" fill="none">
<line x1="303.833" y1="64.1843" x2="304.833" y2="64.1843"/>
</g>
<path d="M307.779,62.9183v -0.207826" fill="none" stroke="#006666" stroke-width="2"/>
<path d="M307.779,62.7105v -0.207015" fill="none" stroke="#006666" stroke-width="2"/>
<path d="M306.306,62.7105h 1.47327" fill="none" stroke="#006666" stroke-width="2"/>
<path d="M307.779,62.7105h 1.47327" fill="none" stroke="#006666" stroke-width="2"/>
<g stroke="black" stroke-width="2" fill="none">
<line x1="306.779" y1="62.7105" x2="307.779" y2="62.7105"/>
</g>
<path d="M310.726,61.4572v -0.204961" fill="none" stroke="#006666" stroke-width="2"/>
<path d="M310.726,61.2523v -0.204171" fill="none" stroke="#006666" stroke-width="2"/>
<path d="M309.253,61.2523h 1.47327" fill="none" stroke="#006666" stroke-width="2"/>
<path d="M310.726,61.2523h 1.47327" fill="none" stroke="#006666" stroke-width="2"/>
<g stroke="black" stroke-width="2" fill="none">
<line x1="309.726" y1="61.2523" x2="310.726" y2="61.2523"/>
</g>
<path d="M313.672,60.9964v -0.204103" fill="none" stroke="#006666" stroke-width="2"/>
<path d="M313.672,60.7923v -0.203321" fill="none" stroke="#006666" stroke-width="2"/>
<path d="M312.199,60.7923h 1.47327" fill="none" stroke="#006666" stroke-width="2"/>
<path d="M313.672,60.7923h 1.47327" fill="none" stroke="#006666" stroke-width="2"/>
<g stroke="black" stroke-width="2" fill="none">
<line x1="312.672" y1="60.7923" x2="313.672" y2="60.7923"/>
</g>
<path d="M316.619,60.2671v -0.202699" fill="none" stroke="#006666" stroke-width="2"/>
<path d="M316.619,60.0644v -0.201927" fill="none" stroke="#006666" stroke-width="2"/>
<path d="M315.146,60.0644h 1.47327" fill="none" stroke="#006666" stroke-width="2"/>
<path d="M316.619,60.0644h 1.47327" fill="none" stroke="#006666" stroke-width="2"/>
<g stroke="black" stroke-width="2" fill="none">
<line x1="315.619" y1="60.0644" x2="316.619" y2="60.0644"/>
</g>
<path d="M319.565,61.0985v -0.204308" fill="none" stroke="#006666" stroke-width="2"/>
<path d="M319.565,60.8942v -0.203524" fill="none" stroke="#006666" stroke-width="2"/>
<path d="M318.092,60.8942h 1.47327" fill="none" stroke="#006666" stroke-width="2"/>
<path d="M319.565,60.8942h 1.47327" fill="none" stroke="#006666" stroke-width="2"/>
<g stroke="black" stroke-width="2" fill="none">
<line x1="318.565" y1="60.8942" x2="319.565" y2="60.8942"/>
</g>
<path d="M322.512,62.2957v -0.206574" fill="none" stroke="#006666" stroke-width="2"/>
<path d="M322.512,62.0892v -0.205772" fill="none" stroke="#006666" stroke-width="2"/>
<path d="M321.039,62.0892h 1.47327" fill="none" stroke="#006666" stroke-width="2"/>
<path d="M322.512,62.0892h 1.47327" fill="none" stroke="#006666" stroke-width="2"/>
<g stroke="black" stroke-width="2" fill="none">
<line x1="321.512" y1="62.0892" x2="322.512" y2="62.0892"/>
</g>
<path d="M325.459,63.6207v -0.209145" fill="none" stroke="#006666" stroke-width="2"/>
<path d="M325.459,63.4115v -0.208324" fill="none" stroke="#006666" stroke-width="2"/>
<path d="M323.985,63.4115h 1.47327" fill="none" stroke="#006666" stroke-width="2"/>
<path d="M325.459,63.4115h 1.47327" fill="none" stroke="#006666" stroke-width="2"/>
<g stroke="black" stroke-width="2" fill="none">
<line x1="324.459" y1="63.4115" x2="325.459" y2="63.4115"/>
</g>
<path d="M328.405,65.7077v -0.213369" fill="none" stroke="#006666" stroke-width="2"/>
<path d="M328.405,65.4943v -0.212514" fill="none" stroke="#006666" stroke-width="2"/>
<path d="M326.932,65.4943h 1.47327" fill="none" stroke="#006666" stroke-width="2"/>
<path d="M328.405,65.4943h 1.47327" fill="none" stroke="#006666" stroke-width="2"/>
<g stroke="black" stroke-width="2" fill="none">
<line x1="327.405" y1="65.4943" x2="328.405" y2="65.4943"/>
</g>
<path d="M331.352,68.3581v -0.218778" fill="none" stroke="#006666" stroke-width="2"/>
<path d="M331.352,68.1393v -0.217878" fill="none" stroke="#006666" stroke-width="2"/>
<path d="M329.878,68.1393h 1.47327" fill="none" stroke="#006666" stroke-width="2"/>
<path d="M331.352,68.1393h 1.47327" fill="none" stroke="#006666" stroke-width="2"/>
<g stroke="black" stroke-width="2" fill="none">
<line x1="330.352" y1="68.1393" x2="331.352" y2="68.1393"/>
</g>
<path d="M334.298,71.4641v -0.225202" fill="none" stroke="#006666" stroke-width="2"/>
<path d="M334.298,71.2389v -0.224249" fill="none" stroke="#006666" stroke-width="2"/>
<path d="M332.825,71.2389h 1.47327" fill="none" stroke="#006666" stroke-width="2"/>
<path d="M334.298,71.2389h 1.47327" fill="none" stroke="#006666" stroke-width="2"/>
<g stroke="black" stroke-width="2" fill="none">
<line x1="333.298" y1="71.2389" x2="334.298" y2="71.2389"/>
</g>
<path d="M337.245,74.8215v -0.232468" fill="none" stroke="#006666" stroke-width="2"/>
<path d="M337.245,74.5891v -0.231453" fill="none" stroke="#006666" stroke-width="2"/>
<path d="M335.771,74.5891h 1.47327" fill="none" stroke="#006666" stroke-width="2"/>
<path d="M337.245,74.5891h 1.47327" fill="none" stroke="#006666" stroke-width="2"/>
<g stroke="black" stroke-width="2" fill="none">
<line x1="336.245" y1="74.5891" x2="337.245" y2="74.5891"/>
</g>
<path d="M340.191,78.9764v -0.241788" fill="none" stroke="#006666" stroke-width="2"/>
<path d="M340.191,78.7346v -0.24069" fill="none" stroke="#006666" stroke-width="2"/>
<path d="M338.718,78.7346h 1.47327" fill="none" stroke="#006666" stroke-width="2"/>
<path d="M340.191,78.7346h 1.47327" fill="none" stroke="#006666" stroke-width="2"/>
<g stroke="black" stroke-width="2" fill="none">
<line x1="339.191" y1="78.7346" x2="340.191" y2="78.7346"/>
</g>
<path d="M343.138,83.5005v -0.252254" fill="none" stroke="#006666" stroke-width="2"/>
<path d="M343.138,83.2483v -0.25106" fill="none" stroke="#006666" stroke-width="2"/>
<path d="M341.665,83.2483h 1.47327" fill="none" stroke="#006666" stroke-width="2"/>
<path d="M343.138,83.2483h 1.47327" fill="none" stroke="#006666" stroke-width="2"/>
<g stroke="black" stroke-width="2" fill="none">
<line x1="342.138" y1="83.2483" x2="343.138" y2="83.2483"/>
</g>
<path d="M346.084,88.2938v -0.263998" fill="none" stroke="#006666" stroke-width="2"/>
<path d="M346.084,88.0298v -0.26269" fill="none" stroke="#006666" stroke-width="2"/>
<path d="M344.611,88.0298h 1.47327" fill="none" stroke="#006666" stroke-width="2"/>
<path d="M346.084,88.0298h 1.47327" fill="none" stroke="#006666" stroke-width="2"/>
<g stroke="black" stroke-width="2" fill="none">
<line x1="345.084" y1="88.0298" x2="346.084" y2="88.0298"/>
</g>
<path d="M349.031,93.6017v -0.277497" fill="none" stroke="#006666" stroke-width="2"/>
<path d="M349.031,93.3242v -0.276051" fill="none" stroke="#006666" stroke-width="2"/>
<path d="M347.558,93.3242h 1.47327" fill="none" stroke="#006666" stroke-width="2"/>
<path d="M349.031,93.3242h 1.47327" fill="none" stroke="#006666" stroke-width="2"/>
<g stroke="black" stroke-width="2" fill="none">
<line x1="348.031" y1="93.3242" x2="349.031" y2="93.3242"/>
</g>
<path d="M351.977,99.0571v -0.292189" fill="none" stroke="#006666" stroke-width="2"/>
<path d="M351.977,98.7649v -0.290588" fill="none" stroke="#006666" stroke-width="2"/>
<path d="M350.504,98.7649h 1.47327" fill="none" stroke="#006666" stroke-width="2"/>
<path d="M351.977,98.7649h 1.47327" fill="none" stroke="#006666" stroke-width="2"/>
<g stroke="black" stroke-width="2" fill="none">
<line x1="350.977" y1="98.7649" x2="351.977" y2="98.7649"/>
</g>
<path d="M354.924,105.478v -0.310412" fill="none" stroke="#006666" stroke-width="2"/>
<path d="M354.924,105.168v -0.308605" fill="none" stroke="#006666" stroke-width="2"/>
<path d="M353.451,105.168h 1.47327" fill="none" stroke="#006666" stroke-width="2"/>
<path d="M354.924,105.168h 1.47327" fill="none" stroke="#006666" stroke-width="2"/>
<g stroke="black" stroke-width="2" fill="none">
<line x1="353.924" y1="105.168" x2="354.924" y2="105.168"/>
</g>
<path d="M357.87,111.6v -0.328752" fill="none" stroke="#006666" stroke-width="2"/>
<path d="M357.87,111.271v -0.326726" fill="none" stroke="#006666" stroke-width="2"/>
<path d="M356.397,111.271h 1.47327" fill="none" stroke="#006666" stroke-width="2"/>
<path d="M357.87,111.271h 1.47327" fill="none" stroke="#006666" stroke-width="2"/>
<g stroke="black" stroke-width="2" fill="none">
<line x1="356.87" y1="111.271" x2="357.87" y2="111.271"/>
</g>
<path d="M360.817,117.693v -0.348296" fill="none" stroke="#006666" stroke-width="2"/>
<path d="M360.817,117.345v -0.346022" fill="none" stroke="#006666" stroke-width="2"/>
<path d="M359.344,117.345h 1.47327" fill="none" stroke="#006666" stroke-width="2"/>
<path d="M360.817,117.345h 1.47327" fill="none" stroke="#006666" stroke-width="2"/>
<g stroke="black" stroke-width="2" fill="none">
<line x1="359.817" y1="117.345" x2="360.817" y2="117.345"/>
</g>
<path d="M363.764,124.625v -0.371811" fill="none" stroke="#006666" stroke-width="2"/>
<path d="M363.764,124.254v -0.369221" fill="none" stroke="#006666" stroke-width="2"/>
<path d="M362.29,124.254h 1.47327" fill="none" stroke="#006666" stroke-width="2"/>
<path d="M363.764,124.254h 1.47327" fill="none" stroke="#006666" stroke-width="2"/>
<g stroke="black" stroke-width="2" fill="none">
<line x1="362.764" y1="124.254" x2="363.764" y2="124.254"/>
</g>
<path d="M366.71,131.205v -0.395511" fill="none" stroke="#006666" stroke-width="2"/>
<path d="M366.71,130.809v -0.392582" fill="none" stroke="#006666" stroke-width="2"/>
<path d="M365.237,130.809h 1.47327" fill="none" stroke="#006666" stroke-width="2"/>
<path d="M366.71,130.809h 1.47327" fill="none" stroke="#006666" stroke-width="2"/>
<g stroke="black" stroke-width="2" fill="none">
<line x1="365.71" y1="130.809" x2="366.71" y2="130.809"/>
</g>
<path d="M369.657,138.475v -0.423524" fill="none" stroke="#006666" stroke-width="2"/>
<path d="M369.657,138.051v -0.420167" fill="none" stroke="#006666" stroke-width="2"/>
<path d="M368.183,138.051h 1.47327" fill="none" stroke="#006666" stroke-width="2"/>
<path d="M369.657,138.051h 1.47327" fill="none" stroke="#006666" stroke-width="2"/>
<g stroke="black" stroke-width="2" fill="none">
<line x1="368.657" y1="138.051" x2="369.657" y2="138.051"/>
</g>
<path d="M372.603,144.619v -0.448987" fill="none" stroke="#006666" stroke-width="2"/>
<path d="M372.603,144.17v -0.445216" fill="none" stroke="#006666" stroke-width="2"/>
<path d="M371.13,144.17h 1.47327" fill="none" stroke="#006666" stroke-width="2"/>
<path d="M372.603,144.17h 1.47327" fill="none" stroke="#006666" stroke-width="2"/>
<g stroke="black" stroke-width="2" fill="none">
<line x1="371.603" y1="144.17" x2="372.603" y2="144.17"/>
</g>
<path d="M375.55,152.748v -0.484757" fill="none" stroke="#006666" stroke-width="2"/>
<path d="M375.55,152.263v -0.480364" fill="none" stroke="#006666" stroke-width="2"/>
<path d="M374.076,152.263h 1.47327" fill="none" stroke="#006666" stroke-width="2"/>
<path d="M375.55,152.263h 1.47327" fill="none" stroke="#006666" stroke-width="2"/>
<g stroke="black" stroke-width="2" fill="none">
<line x1="374.55" y1="152.263" x2="375.55" y2="152.263"/>
</g>
<path d="M378.496,160.537v -0.5218" fill="none" stroke="#006666" stroke-width="2"/>
<path d="M378.496,160.016v -0.516713" fill="none" stroke="#006666" stroke-width="2"/>
<path d="M377.023,160.016h 1.47327" fill="none" stroke="#006666" stroke-width="2"/>
<path d="M378.496,160.016h 1.47327" fill="none" stroke="#006666" stroke-width="2"/>
<g stroke="black" stroke-width="2" fill="none">
<line x1="377.496" y1="160.016" x2="378.496" y2="160.016"/>
</g>
<path d="M381.443,167.358v -0.556278" fill="none" stroke="#006666" stroke-width="2"/>
<path d="M381.443,166.802v -0.550501" fill="none" stroke="#006666" stroke-width="2"/>
<path d="M379.97,166.802h 1.47327" fill="none" stroke="#006666" stroke-width="2"/>
<path d="M381.443,166.802h 1.47327" fill="none" stroke="#006666" stroke-width="2"/>
<g stroke="black" stroke-width="2" fill="none">
<line x1="380.443" y1="166.802" x2="381.443" y2="166.802"/>
</g>
<path d="M384.389,173.921v -0.59246" fill="none" stroke="#006666" stroke-width="2"/>
<path d="M384.389,173.328v -0.585912" fill="none" stroke="#006666" stroke-width="2"/>
<path d="M382.916,173.328h 1.47327" fill="none" stroke="#006666" stroke-width="2"/>
<path d="M384.389,173.328h 1.47327" fill="none" stroke="#006666" stroke-width="2"/>
<g stroke="black" stroke-width="2" fill="none">
<line x1="383.389" y1="173.328" x2="384.389" y2="173.328"/>
</g>
<path d="M387.336,180.988v -0.631906" fill="none" stroke="#006666" stroke-width="2"/>
<path d="M387.336,180.356v -0.624462" fill="none" stroke="#006666" stroke-width="2"/>
<path d="M385.863,180.356h 1.47327" fill="none" stroke="#006666" stroke-width="2"/>
<path d="M387.336,180.356h 1.47327" fill="none" stroke="#006666" stroke-width="2"/>
<g stroke="black" stroke-width="2" fill="none">
<line x1="386.336" y1="180.356" x2="387.336" y2="180.356"/>
</g>
<path d="M390.282,187.97v -0.676311" fill="none" stroke="#006666" stroke-width="2"/>
<path d="M390.282,187.294v -0.667791" fill="none" stroke="#006666" stroke-width="2"/>
<path d="M388.809,187.294h 1.47327" fill="none" stroke="#006666" stroke-width="2"/>
<path d="M390.282,187.294h 1.47327" fill="none" stroke="#006666" stroke-width="2"/>
<g stroke="black" stroke-width="2" fill="none">
<line x1="389.282" y1="187.294" x2="390.282" y2="187.294"/>
</g>
<path d="M393.229,195.211v -0.722687" fill="none" stroke="#006666" stroke-width="2"/>
<path d="M393.229,194.489v -0.712967" fill="none" stroke="#006666" stroke-width="2"/>
<path d="M391.756,194.489h 1.47327" fill="none" stroke="#006666" stroke-width="2"/>
<path d="M393.229,194.489h 1.47327" fill="none" stroke="#006666" stroke-width="2"/>
<g stroke="black" stroke-width="2" fill="none">
<line x1="392.229" y1="194.489" x2="393.229" y2="194.489"/>
</g>
<path d="M396.176,203.496v -0.781907" fill="none" stroke="#006666" stroke-width="2"/>
<path d="M396.176,202.715v -0.770542" fill="none" stroke="#006666" stroke-width="2"/>
<path d="M394.702,202.715h 1.47327" fill="none" stroke="#006666" stroke-width="2"/>
<path d="M396.176,202.715h 1.47327" fill="none" stroke="#006666" stroke-width="2"/>
<g stroke="black" stroke-width="2" fill="none">
<line x1="395.176" y1="202.715" x2="396.176" y2="202.715"/>
</g>
<path d="M399.122,209.702v -0.828863" fill="none" stroke="#006666" stroke-width="2"/>
<path d="M399.122,208.874v -0.816103" fill="none" stroke="#006666" stroke-width="2"/>
<path d="M397.649,208.874h 1.47327" fill="none" stroke="#006666" stroke-width="2"/>
<path d="M399.122,208.874h 1.47327" fill="none" stroke="#006666" stroke-width="2"/>
<g stroke="black" stroke-width="2" fill="none">
<line x1="398.122" y1="208.874" x2="399.122" y2="208.874"/>
</g>
<path d="M402.069,215.699v -0.877374" fill="none" stroke="#006666" stroke-width="2"/>
<path d="M402.069,214.822v -0.863089" fill="none" stroke="#006666" stroke-width="2"/>
<path d="M400.595,214.822h 1.47327" fill="none" stroke="#006666" stroke-width="2"/>
<path d="M402.069,214.822h 1.47327" fill="none" stroke="#006666" stroke-width="2"/>
<g stroke="black" stroke-width="2" fill="none">
<line x1="401.069" y1="214.822" x2="402.069" y2="214.822"/>
</g>
<path d="M405.015,222.763v -0.936664" fill="none" stroke="#006666" stroke-width="2"/>
<path d="M405.015,221.826v -0.920401" fill="none" stroke="#006666" stroke-width="2"/>
<path d="M403.542,221.826h 1.47327" fill="none" stroke="#006666" stroke-width="2"/>
<path d="M405.015,221.826h 1.47327" fill="none" stroke="#006666" stroke-width="2"/>
<g stroke="black" stroke-width="2" fill="none">
<line x1="404.015" y1="221.826" x2="405.015" y2="221.826"/>
</g>
<path d="M407.962,226.665v -0.971682" fill="none" stroke="#006666" stroke-width="2"/>
<path d="M407.962,225.693v -0.954192" fill="none" stroke="#006666" stroke-width="2"/>
<path d="M406.488,225.693h 1.47327" fill="none" stroke="#006666" stroke-width="2"/>
<path d="M407.962,225.693h 1.47327" fill="none" stroke="#006666" stroke-width="2"/>
<g stroke="black" stroke-width="2" fill="none">
<line x1="406.962" y1="225.693" x2="407.962" y2="225.693"/>
</g>
<path d="M410.908,233.938v -1.04189" fill="none" stroke="#006666" stroke-width="2"/>
<path d="M410.908,232.896v -1.0218" fill="none" stroke="#006666" stroke-width="2"/>
<path d="M409.435,232.896h 1.47327" fill="none" stroke="#006666" stroke-width="2"/>
<path d="M410.908,232.896h 1.47327" fill="none" stroke="#006666" stroke-width="2"/>
<g stroke="black" stroke-width="2" fill="none">
<line x1="409.908" y1="232.896" x2="410.908" y2="232.896"/>
</g>
<path d="M413.855,242.188v -1.12474" fill="none" stroke="#006666" stroke-width="2"/>
<path d="M413.855,241.063v -1.10137" fill="none" stroke="#006666" stroke-width="2"/>
<path d="M412.381,241.063h 1.47327" fill="none" stroke="#006666" stroke-width="2"/>
<path d="M413.855,241.063h 1.47327" fill="none" stroke="#006666" stroke-width="2"/>
<g stroke="black" stroke-width="2" fill="none">
<line x1="412.855" y1="241.063" x2="413.855" y2="241.063"/>
</g>
<path d="M416.801,244.866v -1.15551" fill="none" stroke="#006666" stroke-width="2"/>
<path d="M416.801,243.711v -1.13086" fill="none" stroke="#006666" stroke-width="2"/>
<path d="M415.328,243.711h 1.47327" fill="none" stroke="#006666" stroke-width="2"/>
<path d="M416.801,243.711h 1.47327" fill="none" stroke="#006666" stroke-width="2"/>
<g stroke="black" stroke-width="2" fill="none">
<line x1="415.801" y1="243.711" x2="416.801" y2="243.711"/>
</g>
<path d="M419.748,248.567v -1.19747" fill="none" stroke="#006666" stroke-width="2"/>
<path d="M419.748,247.369v -1.17102" fill="none" stroke="#006666" stroke-width="2"/>
<path d="M418.275,247.369h 1.47327" fill="none" stroke="#006666" stroke-width="2"/>
<path d="M419.748,247.369h 1.47327" fill="none" stroke="#006666" stroke-width="2"/>
<g stroke="black" stroke-width="2" fill="none">
<line x1="418.748" y1="247.369" x2="419.748" y2="247.369"/>
</g>
<path d="M422.694,254.718v -1.26779" fill="none" stroke="#006666" stroke-width="2"/>
<path d="M422.694,253.45v -1.23818" fill="none" stroke="#006666" stroke-width="2"/>
<path d="M421.221,253.45h 1.47327" fill="none" stroke="#006666" stroke-width="2"/>
<path d="M422.694,253.45h 1.47327" fill="none" stroke="#006666" stroke-width="2"/>
<g stroke="black" stroke-width="2" fill="none">
<line x1="421.694" y1="253.45" x2="422.694" y2="253.45"/>
</g>
<path d="M425.641,259.591v -1.32675" fill="none" stroke="#006666" stroke-width="2"/>
<path d="M425.641,258.265v -1.29436" fill="none" stroke="#006666" stroke-width="2"/>
<path d="M424.168,258.265h 1.47327" fill="none" stroke="#006666" stroke-width="2"/>
<path d="M425.641,258.265h 1.47327" fill="none" stroke="#006666" stroke-width="2"/>
<g stroke="black" stroke-width="2" fill="none">
<line x1="424.641" y1="258.265" x2="425.641" y2="258.265"/>
</g>
<path d="M428.587,264.62v -1.39309" fill="none" stroke="#006666" stroke-width="2"/>
<path d="M428.587,263.227v -1.35742" fill="none" stroke="#006666" stroke-width="2"/>
<path d="M427.114,263.227h 1.47327" fill="none" stroke="#006666" stroke-width="2"/>
<path d="M428.587,263.227h 1.47327" fill="none" stroke="#006666" stroke-width="2"/>
<g stroke="black" stroke-width="2" fill="none">
<line x1="427.587" y1="263.227" x2="428.587" y2="263.227"/>
</g>
<path d="M431.534,268.375v -1.43821" fill="none" stroke="#006666" stroke-width="2"/>
<path d="M431.534,266.937v -1.40022" fill="none" stroke="#006666" stroke-width="2"/>
<path d="M430.061,266.937h 1.47327" fill="none" stroke="#006666" stroke-width="2"/>
<path d="M431.534,266.937h 1.47327" fill="none" stroke="#006666" stroke-width="2"/>
<g stroke="black" stroke-width="2" fill="none">
<line x1="430.534" y1="266.937" x2="431.534" y2="266.937"/>
</g>
<path d="M434.481,274.686v -1.52667" fill="none" stroke="#006666" stroke-width="2"/>
<path d="M434.481,273.159v -1.48393" fill="none" stroke="#006666" stroke-width="2"/>
<path d="M433.007,273.159h 1.47327" fill="none" stroke="#006666" stroke-width="2"/>
<path d="M434.481,273.159h 1.47327" fill="none" stroke="#006666" stroke-width="2"/>
<g stroke="black" stroke-width="2" fill="none">
<line x1="433.481" y1="273.159" x2="434.481" y2="273.159"/>
</g>
<path d="M437.427,277.607v -1.57308" fill="none" stroke="#006666" stroke-width="2"/>
<path d="M437.427,276.034v -1.52774" fill="none" stroke="#006666" stroke-width="2"/>
<path d="M435.954,276.034h 1.47327" fill="none" stroke="#006666" stroke-width="2"/>
<path d="M437.427,276.034h 1.47327" fill="none" stroke="#006666" stroke-width="2"/>
<g stroke="black" stroke-width="2" fill="none">
<line x1="436.427" y1="276.034" x2="437.427" y2="276.034"/>
</g>
<path d="M440.374,282.012v -1.63795" fill="none" stroke="#006666" stroke-width="2"/>
<path d="M440.374,280.374v -1.58885" fill="none" stroke="#006666" stroke-width="2"/>
<path d="M438.9,280.374h 1.47327" fill="none" stroke="#006666" stroke-width="2"/>
<path d="M440.374,280.374h 1.47327" fill="none" stroke="#006666" stroke-width="2"/>
<g stroke="black" stroke-width="2" fill="none">
<line x1="439.374" y1="280.374" x2="440.374" y2="280.374"/>
</g>
<path d="M443.32,281.475v -1.63154" fill="none" stroke="#006666" stroke-width="2"/>
<path d="M443.32,279.844v -1.58282" fill="none" stroke="#006666" stroke-width="2"/>
<path d="M441.847,279.844h 1.47327" fill="none" stroke="#006666" stroke-width="2"/>
<path d="M443.32,279.844h 1.47327" fill="none" stroke="#006666" stroke-width="2"/>
<g stroke="black" stroke-width="2" fill="none">
<line x1="442.32" y1="279.844" x2="443.32" y2="279.844"/>
</g>
<path d="M446.267,289.041v -1.74838" fill="none" stroke="#006666" stroke-width="2"/>
<path d="M446.267,287.292v -1.69255" fill="none" stroke="#006666" stroke-width="2"/>
<path d="M444.793,287.292h 1.47327" fill="none" stroke="#006666" stroke-width="2"/>
<path d="M446.267,287.292h 1.47327" fill="none" stroke="#006666" stroke-width="2"/>
<g stroke="black" stroke-width="2" fill="none">
<line x1="445.267" y1="287.292" x2="446.267" y2="287.292"/>
</g>
<path d="M449.213,292.612v -1.80914" fill="none" stroke="#006666" stroke-width="2"/>
<path d="M449.213,290.803v -1.74943" fill="none" stroke="#006666" stroke-width="2"/>
<path d="M447.74,290.803h 1.47327" fill="none" stroke="#006666" stroke-width="2"/>
<path d="M449.213,290.803h 1.47327" fill="none" stroke="#006666" stroke-width="2"/>
<g stroke="black" stroke-width="2" fill="none">
<line x1="448.213" y1="290.803" x2="449.213" y2="290.803"/>
</g>
<path d="M452.16,293.593v -1.82715" fill="none" stroke="#006666" stroke-width="2"/>
<path d="M452.16,291.765v -1.76626" fill="none" stroke="#006666" stroke-width="2"/>
<path d="M450.686,291.765h 1.47327" fill="none" stroke="#006666" stroke-width="2"/>
<path d="M452.16,291.765h 1.47327" fill="none" stroke="#006666" stroke-width="2"/>
<g stroke="black" stroke-width="2" fill="none">
<line x1="451.16" y1="291.765" x2="452.16" y2="291.765"/>
</g>
<path d="M455.106,299.477v -1.92888" fill="none" stroke="#006666" stroke-width="2"/>
<path d="M455.106,297.548v -1.86115" fill="none" stroke="#006666" stroke-width="2"/>
<path d="M453.633,297.548h 1.47327" fill="none" stroke="#006666" stroke-width="2"/>
<path d="M455.106,297.548h 1.47327" fill="none" stroke="#006666" stroke-width="2"/>
<g stroke="black" stroke-width="2" fill="none">
<line x1="454.106" y1="297.548" x2="455.106" y2="297.548"/>
</g>
<path d="M458.053,300.501v -1.94803" fill="none" stroke="#006666" stroke-width="2"/>
<path d="M458.053,298.553v -1.87898" fill="none" stroke="#006666" stroke-width="2"/>
<path d="M456.58,298.553h 1.47327" fill="none" stroke="#006666" stroke-width="2"/>
<path d="M458.053,298.553h 1.47327" fill="none" stroke="#006666" stroke-width="2"/>
<g stroke="black" stroke-width="2" fill="none">
<line x1="457.053" y1="298.553" x2="458.053" y2="298.553"/>
</g>
<path d="M460.999,301.888v -1.96819" fill="none" stroke="#006666" stroke-width="2"/>
<path d="M460.999,299.92v -1.89773" fill="none" stroke="#006666" stroke-width="2"/>
<path d="M459.526,299.92h 1.47327" fill="none" stroke="#006666" stroke-width="2"/>
<path d="M460.999,299.92h 1.47327" fill="none" stroke="#006666" stroke-width="2"/>
<g stroke="black" stroke-width="2" fill="none">
<line x1="459.999" y1="299.92" x2="460.999" y2="299.92"/>
</g>
<path d="M463.946,304.46v -2.03043" fill="none" stroke="#006666" stroke-width="2"/>
<path d="M463.946,302.43v -1.95552" fill="none" stroke="#006666" stroke-width="2"/>
<path d="M462.473,302.43h 1.47327" fill="none" stroke="#006666" stroke-width="2"/>
<path d="M463.946,302.43h 1.47327" fill="none" stroke="#006666" stroke-width="2"/>
<g stroke="black" stroke-width="2" fill="none">
<line x1="462.946" y1="302.43" x2="463.946" y2="302.43"/>
</g>
<path d="M466.892,308.383v -2.10569" fill="none" stroke="#006666" stroke-width="2"/>
<path d="M466.892,306.278v -2.02524" fill="none" stroke="#006666" stroke-width="2"/>
<path d="M465.419,306.278h 1.47327" fill="none" stroke="#006666" stroke-width="2"/>
<path d="M466.892,306.278h 1.47327" fill="none" stroke="#006666" stroke-width="2"/>
<g stroke="black" stroke-width="2" fill="none">
<line x1="465.892" y1="306.278" x2="466.892" y2="306.278"/>
</g>
<path d="M469.839,314.854v -2.23626" fill="none" stroke="#006666" stroke-width="2"/>
<path d="M469.839,312.618v -2.14573" fill="none" stroke="#006666" stroke-width="2"/>
<path d="M468.366,312.618h 1.47327" fill="none" stroke="#006666" stroke-width="2"/>
<path d="M469.839,312.618h 1.47327" fill="none" stroke="#006666" stroke-width="2"/>
<g stroke="black" stroke-width="2" fill="none">
<line x1="468.839" y1="312.618" x2="469.839" y2="312.618"/>
</g>
<path d="M472.786,316.546v -2.26776" fill="none" stroke="#006666" stroke-width="2"/>
<path d="M472.786,314.278v -2.17472" fill="none" stroke="#006666" stroke-width="2"/>
<path d="M471.312,314.278h 1.47327" fill="none" stroke="#006666" stroke-width="2"/>
<path d="M472.786,314.278h 1.47327" fill="none" stroke="#006666" stroke-width="2"/>
<g stroke="black" stroke-width="2" fill="none">
<line x1="471.786" y1="314.278" x2="472.786" y2="314.278"/>
</g>
<path d="M475.732,321.647v -2.38055" fill="none" stroke="#006666" stroke-width="2"/>
<path d="M475.732,319.266v -2.27823" fill="none" stroke="#006666" stroke-width="2"/>
<path d="M474.259,319.266h 1.47327" fill="none" stroke="#006666" stroke-width="2"/>
<path d="M475.732,319.266h 1.47327" fill="none" stroke="#006666" stroke-width="2"/>
<g stroke="black" stroke-width="2" fill="none">
<line x1="474.732" y1="319.266" x2="475.732" y2="319.266"/>
</g>
<path d="M478.679,327.43v -2.50523" fill="none" stroke="#006666" stroke-width="2"/>
<path d="M478.679,324.925v -2.39216" fill="none" stroke="#006666" stroke-width="2"/>
<path d="M477.205,324.925h 1.47327" fill="none" stroke="#006666" stroke-width="2"/>
<path d="M478.679,324.925h 1.47327" fill="none" stroke="#006666" stroke-width="2"/>
<g stroke="black" stroke-width="2" fill="none">
<line x1="477.679" y1="324.925" x2="478.679" y2="324.925"/>
</g>
<path d="M481.625,329.752v -2.56661" fill="none" stroke="#006666" stroke-width="2"/>
<path d="M481.625,327.186v -2.44806" fill="none" stroke="#006666" stroke-width="2"/>
<path d="M480.152,327.186h 1.47327" fill="none" stroke="#006666" stroke-width="2"/>
<path d="M481.625,327.186h 1.47327" fill="none" stroke="#006666" stroke-width="2"/>
<g stroke="black" stroke-width="2" fill="none">
<line x1="480.625" y1="327.186" x2="481.625" y2="327.186"/>
</g>
<path d="M484.572,331.371v -2.60334" fill="none" stroke="#006666" stroke-width="2"/>
<path d="M484.572,328.767v -2.48145" fill="none" stroke="#006666" stroke-width="2"/>
<path d="M483.098,328.767h 1.47327" fill="none" stroke="#006666" stroke-width="2"/>
<path d="M484.572,328.767h 1.47327" fill="none" stroke="#006666" stroke-width="2"/>
<g stroke="black" stroke-width="2" fill="none">
<line x1="483.572" y1="328.767" x2="484.572" y2="328.767"/>
</g>
<path d="M487.518,330.643v -2.5946" fill="none" stroke="#006666" stroke-width="2"/>
<path d="M487.518,328.048v -2.47352" fill="none" stroke="#006666" stroke-width="2"/>
<path d="M486.045,328.048h 1.47327" fill="none" stroke="#006666" stroke-width="2"/>
<path d="M487.518,328.048h 1.47327" fill="none" stroke="#006666" stroke-width="2"/>
<g stroke="black" stroke-width="2" fill="none">
<line x1="486.518" y1="328.048" x2="487.518" y2="328.048"/>
</g>
<path d="M490.465,333.548v -2.66178" fill="none" stroke="#006666" stroke-width="2"/>
<path d="M490.465,330.886v -2.53449" fill="none" stroke="#006666" stroke-width="2"/>
<path d="M488.992,330.886h 1.47327" fill="none" stroke="#006666" stroke-width="2"/>
<path d="M490.465,330.886h 1.47327" fill="none" stroke="#006666" stroke-width="2"/>
<g stroke="black" stroke-width="2" fill="none">
<line x1="489.465" y1="330.886" x2="490.465" y2="330.886"/>
</g>
<path d="M493.411,336.607v -2.74267" fill="none" stroke="#006666" stroke-width="2"/>
<path d="M493.411,333.864v -2.60773" fill="none" stroke="#006666" stroke-width="2"/>
<path d="M491.938,333.864h 1.47327" fill="none" stroke="#006666" stroke-width="2"/>
<path d="M493.411,333.864h 1.47327" fill="none" stroke="#006666" stroke-width="2"/>
<g stroke="black" stroke-width="2" fill="none">
<line x1="492.411" y1="333.864" x2="493.411" y2="333.864"/>
</g>
<path d="M496.358,344.489v -2.95773" fill="none" stroke="#006666" stroke-width="2"/>
<path d="M496.358,341.531v -2.80139" fill="none" stroke="#006666" stroke-width="2"/>
<path d="M494.885,341.531h 1.47327" fill="none" stroke="#006666" stroke-width="2"/>
<path d="M496.358,341.531h 1.47327" fill="none" stroke="#006666" stroke-width="2"/>
<g stroke="black" stroke-width="2" fill="none">
<line x1="495.358" y1="341.531" x2="496.358" y2="341.531"/>
</g>
<path d="M499.304,342.594v -2.88854" fill="none" stroke="#006666" stroke-width="2"/>
<path d="M499.304,339.705v -2.73924" fill="none" stroke="#006666" stroke-width="2"/>
<path d="M497.831,339.705h 1.47327" fill="none" stroke="#006666" stroke-width="2"/>
<path d="M499.304,339.705h 1.47327" fill="none" stroke="#006666" stroke-width="2"/>
<g stroke="black" stroke-width="2" fill="none">
<line x1="498.304" y1="339.705" x2="499.304" y2="339.705"/>
</g>
<path d="M502.251,346.069v -2.99316" fill="none" stroke="#006666" stroke-width="2"/>
<path d="M502.251,343.075v -2.83315" fill="none" stroke="#006666" stroke-width="2"/>
<path d="M500.778,343.075h 1.47327" fill="none" stroke="#006666" stroke-width="2"/>
<path d="M502.251,343.075h 1.47327" fill="none" stroke="#006666" stroke-width="2"/>
<g stroke="black" stroke-width="2" fill="none">
<line x1="501.251" y1="343.075" x2="502.251" y2="343.075"/>
</g>
<path d="M505.197,353.546v -3.20952" fill="none" stroke="#006666" stroke-width="2"/>
<path d="M505.197,350.337v -3.02624" fill="none" stroke="#006666" stroke-width="2"/>
<path d="M503.724,350.337h 1.47327" fill="none" stroke="#006666" stroke-width="2"/>
<path d="M505.197,350.337h 1.47327" fill="none" stroke="#006666" stroke-width="2"/>
<g stroke="black" stroke-width="2" fill="none">
<line x1="504.197" y1="350.337" x2="505.197" y2="350.337"/>
</g>
<path d="M508.144,355.58v -3.27795" fill="none" stroke="#006666" stroke-width="2"/>
<path d="M508.144,352.302v -3.087" fill="none" stroke="#006666" stroke-width="2"/>
<path d="M506.671,352.302h 1.47327" fill="none" stroke="#006666" stroke-width="2"/>
<path d="M508.144,352.302h 1.47327" fill="none" stroke="#006666" stroke-width="2"/>
<g stroke="black" stroke-width="2" fill="none">
<line x1="507.144" y1="352.302" x2="508.144" y2="352.302"/>
</g>
<path d="M511.091,361.19v -3.43545" fill="none" stroke="#006666" stroke-width="2"/>
<path d="M511.091,357.754v -3.2263" fill="none" stroke="#006666" stroke-width="2"/>
<path d="M509.617,357.754h 1.47327" fill="none" stroke="#006666" stroke-width="2"/>
<path d="M511.091,357.754h 1.47327" fill="none" stroke="#006666" stroke-width="2"/>
<g stroke="black" stroke-width="2" fill="none">
<line x1="510.091" y1="357.754" x2="511.091" y2="357.754"/>
</g>
<path d="M514.037,362.685v -3.4975" fill="none" stroke="#006666" stroke-width="2"/>
<path d="M514.037,359.188v -3.28096" fill="none" stroke="#006666" stroke-width="2"/>
<path d="M512.564,359.188h 1.47327" fill="none" stroke="#006666" stroke-width="2"/>
<path d="M514.037,359.188h 1.47327" fill="none" stroke="#006666" stroke-width="2"/>
<g stroke="black" stroke-width="2" fill="none">
<line x1="513.037" y1="359.188" x2="514.037" y2="359.188"/>
</g>
<path d="M516.984,368.194v -3.68589" fill="none" stroke="#006666" stroke-width="2"/>
<path d="M516.984,364.508v -3.44618" fill="none" stroke="#006666" stroke-width="2"/>
<path d="M515.51,364.508h 1.47327" fill="none" stroke="#006666" stroke-width="2"/>
<path d="M516.984,364.508h 1.47327" fill="none" stroke="#006666" stroke-width="2"/>
<g stroke="black" stroke-width="2" fill="none">
<line x1="515.984" y1="364.508" x2="516.984" y2="364.508"/>
</g>
<path d="M519.93,367.724v -3.68341" fill="none" stroke="#006666" stroke-width="2"/>
<path d="M519.93,364.04v -3.44402" fill="none" stroke="#006666" stroke-width="2"/>
<path d="M518.457,364.04h 1.47327" fill="none" stroke="#006666" stroke-width="2"/>
<path d="M519.93,364.04h 1.47327" fill="none" stroke="#006666" stroke-width="2"/>
<g stroke="black" stroke-width="2" fill="none">
<line x1="518.93" y1="364.04" x2="519.93" y2="364.04"/>
</g>
<path d="M522.877,378.847v -4.05048" fill="none" stroke="#006666" stroke-width="2"/>
<path d="M522.877,374.797v -3.76284" fill="none" stroke="#006666" stroke-width="2"/>
<path d="M521.403,374.797h 1.47327" fill="none" stroke="#006666" stroke-width="2"/>
<path d="M522.877,374.797h 1.47327" fill="none" stroke="#006666" stroke-width="2"/>
<g stroke="black" stroke-width="2" fill="none">
<line x1="521.877" y1="374.797" x2="522.877" y2="374.797"/>
</g>
<path d="M525.823,377.556v -4.01964" fill="none" stroke="#006666" stroke-width="2"/>
<path d="M525.823,373.537v -3.73621" fill="none" stroke="#006666" stroke-width="2"/>
<path d="M524.35,373.537h 1.47327" fill="none" stroke="#006666" stroke-width="2"/>
<path d="M525.823,373.537h 1.47327" fill="none" stroke="#006666" stroke-width="2"/>
<g stroke="black" stroke-width="2" fill="none">
<line x1="524.823" y1="373.537" x2="525.823" y2="373.537"/>
</g>
<path d="M528.77,375.885v -3.96395" fill="none" stroke="#006666" stroke-width="2"/>
<path d="M528.77,371.921v -3.68805" fill="none" stroke="#006666" stroke-width="2"/>
<path d="M527.297,371.921h 1.47327" fill="none" stroke="#006666" stroke-width="2"/>
<path d="M528.77,371.921h 1.47327" fill="none" stroke="#006666" stroke-width="2"/>
<g stroke="black" stroke-width="2" fill="none">
<line x1="527.77" y1="371.921" x2="528.77" y2="371.921"/>
</g>
<path d="M531.716,388.709v -4.46346" fill="none" stroke="#006666" stroke-width="2"/>
<path d="M531.716,384.246v -4.11665" fill="none" stroke="#006666" stroke-width="2"/>
<path d="M530.243,384.246h 1.47327" fill="none" stroke="#006666" stroke-width="2"/>
<path d="M531.716,384.246h 1.47327" fill="none" stroke="#006666" stroke-width="2"/>
<g stroke="black" stroke-width="2" fill="none">
<line x1="530.716" y1="384.246" x2="531.716" y2="384.246"/>
</g>
<path d="M534.663,382.901v -4.24741" fill="none" stroke="#006666" stroke-width="2"/>
<path d="M534.663,378.654v -3.93219" fill="none" stroke="#006666" stroke-width="2"/>
<path d="M533.19,378.654h 1.47327" fill="none" stroke="#006666" stroke-width="2"/>
<path d="M534.663,378.654h 1.47327" fill="none" stroke="#006666" stroke-width="2"/>
<g stroke="black" stroke-width="2" fill="none">
<line x1="533.663" y1="378.654" x2="534.663" y2="378.654"/>
</g>
<path d="M537.609,399.791v -4.94317" fill="none" stroke="#006666" stroke-width="2"/>
<path d="M537.609,394.848v -4.52129" fill="none" stroke="#006666" stroke-width="2"/>
<path d="M536.136,394.848h 1.47327" fill="none" stroke="#006666" stroke-width="2"/>
<path d="M537.609,394.848h 1.47327" fill="none" stroke="#006666" stroke-width="2"/>
<g stroke="black" stroke-width="2" fill="none">
<line x1="536.609" y1="394.848" x2="537.609" y2="394.848"/>
</g>
<rect x="444.915" y="33.6314" width="110.503" height="70.4658" fill="white"/>
<path d="M444.915,104.097h 110.503" fill="none" stroke="black"/>
<path d="M555.418,104.097v -70.4658" fill="none" stroke="black"/>
<path d="M555.418,33.6314h -110.503" fill="none" stroke="black"/>
<path d="M444.915,33.6314v 70.4658" fill="none" stroke="black"/>
<text xml:space="preserve" x="442.513" y="44.0411" fill="black" font-size="4.11148" font-family="Helvetica">default__class14_d0_vs_pTas_EtaSlice1_projection_14_pT(8,9)</text>
<path d="M444.915,51.2478h 110.503" fill="none" stroke="black"/>
<text xml:space="preserve" x="449.719" y="64.8605" fill="black" font-size="11.7465" font-family="Helvetica">Entries </text>
<text xml:space="preserve" x="503.369" y="64.8605" fill="black" font-size="11.7465" font-family="Helvetica"> 1883169</text>
<text xml:space="preserve" x="449.719" y="82.477" fill="black" font-size="11.7465" font-family="Helvetica">Mean  </text>
<text xml:space="preserve" x="515.381" y="82.477" fill="black" font-size="11.7465" font-family="Helvetica">  2.554</text>
<text xml:space="preserve" x="449.719" y="100.093" fill="black" font-size="11.7465" font-family="Helvetica">Std Dev   </text>
<text xml:space="preserve" x="515.381" y="100.093" fill="black" font-size="11.7465" font-family="Helvetica">  27.98</text>
<path d="M91.2087,436.535h 447.874" fill="none" stroke="black"/>
<path d="M91.2087,424.219v 12.3165" fill="none" stroke="black"/>
<path d="M105.941,430.377v 6.15827" fill="none" stroke="black"/>
<path d="M120.674,430.377v 6.15827" fill="none" stroke="black"/>
<path d="M135.407,430.377v 6.15827" fill="none" stroke="black"/>
<path d="M150.139,430.377v 6.15827" fill="none" stroke="black"/>
<path d="M164.872,424.219v 12.3165" fill="none" stroke="black"/>
<path d="M179.605,430.377v 6.15827" fill="none" stroke="black"/>
<path d="M194.338,430.377v 6.15827" fill="none" stroke="black"/>
<path d="M209.07,430.377v 6.15827" fill="none" stroke="black"/>
<path d="M223.803,430.377v 6.15827" fill="none" stroke="black"/>
<path d="M238.536,424.219v 12.3165" fill="none" stroke="black"/>
<path d="M253.268,430.377v 6.15827" fill="none" stroke="black"/>
<path d="M268.001,430.377v 6.15827" fill="none" stroke="black"/>
<path d="M282.734,430.377v 6.15827" fill="none" stroke="black"/>
<path d="M297.466,430.377v 6.15827" fill="none" stroke="black"/>
<path d="M312.199,424.219v 12.3165" fill="none" stroke="black"/>
<path d="M326.932,430.377v 6.15827" fill="none" stroke="black"/>
<path d="M341.665,430.377v 6.15827" fill="none" stroke="black"/>
<path d="M356.397,430.377v 6.15827" fill="none" stroke="black"/>
<path d="M371.13,430.377v 6.15827" fill="none" stroke="black"/>
<path d="M385.863,424.219v 12.3165" fill="none" stroke="black"/>
<path d="M400.595,430.377v 6.15827" fill="none" stroke="black"/>
<path d="M415.328,430.377v 6.15827" fill="none" stroke="black"/>
<path d="M430.061,430.377v 6.15827" fill="none" stroke="black"/>
<path d="M444.793,430.377v 6.15827" fill="none" stroke="black"/>
<path d="M459.526,424.219v 12.3165" fill="none" stroke="black"/>
<path d="M474.259,430.377v 6.15827" fill="none" stroke="black"/>
<path d="M488.992,430.377v 6.15827" fill="none" stroke="black"/>
<path d="M503.724,430.377v 6.15827" fill="none" stroke="black"/>
<path d="M518.457,430.377v 6.15827" fill="none" stroke="black"/>
<path d="M533.19,424.219v 12.3165" fill="none" stroke="black"/>
<path d="M533.19,424.219v 12.3165" fill="none" stroke="black"/>
<text xml:space="preserve" x="81.3755" y="453.223" fill="black" font-size="17.1871" font-family="Helvetica">150</text>
<text xml:space="preserve" x="71.7665" y="453.223" fill="black" font-size="17.1871" font-family="Times">&#8722;</text>
<text xml:space="preserve" x="155.044" y="453.223" fill="black" font-size="17.1871" font-family="Helvetica">100</text>
<text xml:space="preserve" x="145.435" y="453.223" fill="black" font-size="17.1871" font-family="Times">&#8722;</text>
<text xml:space="preserve" x="233.517" y="453.223" fill="black" font-size="17.1871" font-family="Helvetica">50</text>
<text xml:space="preserve" x="223.909" y="453.223" fill="black" font-size="17.1871" font-family="Times">&#8722;</text>
<text xml:space="preserve" x="307.186" y="453.223" fill="black" font-size="17.1871" font-family="Helvetica">0</text>
<text xml:space="preserve" x="376.051" y="453.223" fill="black" font-size="17.1871" font-family="Helvetica">50</text>
<text xml:space="preserve" x="444.915" y="453.223" fill="black" font-size="17.1871" font-family="Helvetica">100</text>
<text xml:space="preserve" x="518.584" y="453.223" fill="black" font-size="17.1871" font-family="Helvetica">150</text>
<text xml:space="preserve" x="520.986" y="468.437" fill="black" font-size="17.1871" font-family="Helvetica">m]</text>
<text xml:space="preserve" x="511.377" y="468.437" fill="black" font-size="17.1871" font-family="Times">&#0956;</text>
<text xml:space="preserve" x="501.768" y="468.437" fill="black" font-size="17.1871" font-family="Helvetica"> [</text>
<text xml:space="preserve" x="495.362" y="474.843" fill="black" font-size="11.6248" font-family="Helvetica">0</text>
<text xml:space="preserve" x="486.554" y="468.437" fill="black" font-size="17.1871" font-family="Helvetica">d</text>
<path d="M91.2087,25.9843h 447.874" fill="none" stroke="black"/>
<path d="M91.2087,38.3008v -12.3165" fill="none" stroke="black"/>
<path d="M105.941,32.1425v -6.15827" fill="none" stroke="black"/>
<path d="M120.674,32.1425v -6.15827" fill="none" stroke="black"/>
<path d="M135.407,32.1425v -6.15827" fill="none" stroke="black"/>
<path d="M150.139,32.1425v -6.15827" fill="none" stroke="black"/>
<path d="M164.872,38.3008v -12.3165" fill="none" stroke="black"/>
<path d="M179.605,32.1425v -6.15827" fill="none" stroke="black"/>
<path d="M194.338,32.1425v -6.15827" fill="none" stroke="black"/>
<path d="M209.07,32.1425v -6.15827" fill="none" stroke="black"/>
<path d="M223.803,32.1425v -6.15827" fill="none" stroke="black"/>
<path d="M238.536,38.3008v -12.3165" fill="none" stroke="black"/>
<path d="M253.268,32.1425v -6.15827" fill="none" stroke="black"/>
<path d="M268.001,32.1425v -6.15827" fill="none" stroke="black"/>
<path d="M282.734,32.1425v -6.15827" fill="none" stroke="black"/>
<path d="M297.466,32.1425v -6.15827" fill="none" stroke="black"/>
<path d="M312.199,38.3008v -12.3165" fill="none" stroke="black"/>
<path d="M326.932,32.1425v -6.15827" fill="none" stroke="black"/>
<path d="M341.665,32.1425v -6.15827" fill="none" stroke="black"/>
<path d="M356.397,32.1425v -6.15827" fill="none" stroke="black"/>
<path d="M371.13,32.1425v -6.15827" fill="none" stroke="black"/>
<path d="M385.863,38.3008v -12.3165" fill="none" stroke="black"/>
<path d="M400.595,32.1425v -6.15827" fill="none" stroke="black"/>
<path d="M415.328,32.1425v -6.15827" fill="none" stroke="black"/>
<path d="M430.061,32.1425v -6.15827" fill="none" stroke="black"/>
<path d="M444.793,32.1425v -6.15827" fill="none" stroke="black"/>
<path d="M459.526,38.3008v -12.3165" fill="none" stroke="black"/>
<path d="M474.259,32.1425v -6.15827" fill="none" stroke="black"/>
<path d="M488.992,32.1425v -6.15827" fill="none" stroke="black"/>
<path d="M503.724,32.1425v -6.15827" fill="none" stroke="black"/>
<path d="M518.457,32.1425v -6.15827" fill="none" stroke="black"/>
<path d="M533.19,38.3008v -12.3165" fill="none" stroke="black"/>
<path d="M533.19,38.3008v -12.3165" fill="none" stroke="black"/>
<path d="M91.2087,436.535v -410.551" fill="none" stroke="black"/>
<path d="M97.9268,404.975h -6.71811" fill="none" stroke="black"/>
<path d="M97.9268,383.481h -6.71811" fill="none" stroke="black"/>
<path d="M97.9268,368.231h -6.71811" fill="none" stroke="black"/>
<path d="M97.9268,356.401h -6.71811" fill="none" stroke="black"/>
<path d="M97.9268,346.736h -6.71811" fill="none" stroke="black"/>
<path d="M97.9268,338.565h -6.71811" fill="none" stroke="black"/>
<path d="M97.9268,331.486h -6.71811" fill="none" stroke="black"/>
<path d="M97.9268,325.242h -6.71811" fill="none" stroke="black"/>
<path d="M104.645,319.657h -13.4362" fill="none" stroke="black"/>
<text xml:space="preserve" x="76.571" y="320.299" fill="black" font-size="16.3925" font-family="Helvetica">4</text>
<text xml:space="preserve" x="50.9471" y="330.709" fill="black" font-size="24.3388" font-family="Helvetica">10</text>
<path d="M97.9268,282.913h -6.71811" fill="none" stroke="black"/>
<path d="M97.9268,261.419h -6.71811" fill="none" stroke="black"/>
<path d="M97.9268,246.168h -6.71811" fill="none" stroke="black"/>
<path d="M97.9268,234.339h -6.71811" fill="none" stroke="black"/>
<path d="M97.9268,224.674h -6.71811" fill="none" stroke="black"/>
<path d="M97.9268,216.503h -6.71811" fill="none" stroke="black"/>
<path d="M97.9268,209.424h -6.71811" fill="none" stroke="black"/>
<path d="M97.9268,203.18h -6.71811" fill="none" stroke="black"/>
<path d="M104.645,197.595h -13.4362" fill="none" stroke="black"/>
<text xml:space="preserve" x="76.571" y="196.984" fill="black" font-size="16.3925" font-family="Helvetica">5</text>
<text xml:space="preserve" x="50.9471" y="208.194" fill="black" font-size="24.3388" font-family="Helvetica">10</text>
<path d="M97.9268,160.851h -6.71811" fill="none" stroke="black"/>
<path d="M97.9268,139.357h -6.71811" fill="none" stroke="black"/>
<path d="M97.9268,124.106h -6.71811" fill="none" stroke="black"/>
<path d="M97.9268,112.277h -6.71811" fill="none" stroke="black"/>
<path d="M97.9268,102.612h -6.71811" fill="none" stroke="black"/>
<path d="M97.9268,94.4405h -6.71811" fill="none" stroke="black"/>
<path d="M97.9268,87.3619h -6.71811" fill="none" stroke="black"/>
<path d="M97.9268,81.1181h -6.71811" fill="none" stroke="black"/>
<path d="M104.645,75.5328h -13.4362" fill="none" stroke="black"/>
<text xml:space="preserve" x="76.571" y="75.2703" fill="black" font-size="16.3925" font-family="Helvetica">6</text>
<text xml:space="preserve" x="50.9471" y="86.4807" fill="black" font-size="24.3388" font-family="Helvetica">10</text>
<path d="M97.9268,38.7884h -6.71811" fill="none" stroke="black"/>
<g transform="rotate(-90,35.7329,98.4919)">
<text xml:space="preserve" x="35.7329" y="98.4919" fill="black" font-size="24.3388" font-family="Helvetica">Events</text>
</g>
<path d="M539.083,436.535v -410.551" fill="none" stroke="black"/>
<path d="M532.365,404.975h 6.71811" fill="none" stroke="black"/>
<path d="M532.365,383.481h 6.71811" fill="none" stroke="black"/>
<path d="M532.365,368.231h 6.71811" fill="none" stroke="black"/>
<path d="M532.365,356.401h 6.71811" fill="none" stroke="black"/>
<path d="M532.365,346.736h 6.71811" fill="none" stroke="black"/>
<path d="M532.365,338.565h 6.71811" fill="none" stroke="black"/>
<path d="M532.365,331.486h 6.71811" fill="none" stroke="black"/>
<path d="M532.365,325.242h 6.71811" fill="none" stroke="black"/>
<path d="M525.646,319.657h 13.4362" fill="none" stroke="black"/>
<path d="M532.365,282.913h 6.71811" fill="none" stroke="black"/>
<path d="M532.365,261.419h 6.71811" fill="none" stroke="black"/>
<path d="M532.365,246.168h 6.71811" fill="none" stroke="black"/>
<path d="M532.365,234.339h 6.71811" fill="none" stroke="black"/>
<path d="M532.365,224.674h 6.71811" fill="none" stroke="black"/>
<path d="M532.365,216.503h 6.71811" fill="none" stroke="black"/>
<path d="M532.365,209.424h 6.71811" fill="none" stroke="black"/>
<path d="M532.365,203.18h 6.71811" fill="none" stroke="black"/>
<path d="M525.646,197.595h 13.4362" fill="none" stroke="black"/>
<path d="M532.365,160.851h 6.71811" fill="none" stroke="black"/>
<path d="M532.365,139.357h 6.71811" fill="none" stroke="black"/>
<path d="M532.365,124.106h 6.71811" fill="none" stroke="black"/>
<path d="M532.365,112.277h 6.71811" fill="none" stroke="black"/>
<path d="M532.365,102.612h 6.71811" fill="none" stroke="black"/>
<path d="M532.365,94.4405h 6.71811" fill="none" stroke="black"/>
<path d="M532.365,87.3619h 6.71811" fill="none" stroke="black"/>
<path d="M532.365,81.1181h 6.71811" fill="none" stroke="black"/>
<path d="M525.646,75.5328h 13.4362" fill="none" stroke="black"/>
<path d="M532.365,38.7884h 6.71811" fill="none" stroke="black"/>
<rect x="444.915" y="33.6314" width="110.503" height="70.4658" fill="white"/>
<path d="M444.915,104.097h 110.503" fill="none" stroke="black"/>
<path d="M555.418,104.097v -70.4658" fill="none" stroke="black"/>
<path d="M555.418,33.6314h -110.503" fill="none" stroke="black"/>
<path d="M444.915,33.6314v 70.4658" fill="none" stroke="black"/>
<text xml:space="preserve" x="442.513" y="44.0411" fill="black" font-size="4.11148" font-family="Helvetica">default__class14_d0_vs_pTas_EtaSlice1_projection_14_pT(8,9)</text>
<path d="M444.915,51.2478h 110.503" fill="none" stroke="black"/>
<text xml:space="preserve" x="449.719" y="64.8605" fill="black" font-size="11.7465" font-family="Helvetica">Entries </text>
<text xml:space="preserve" x="503.369" y="64.8605" fill="black" font-size="11.7465" font-family="Helvetica"> 1883169</text>
<text xml:space="preserve" x="449.719" y="82.477" fill="black" font-size="11.7465" font-family="Helvetica">Mean  </text>
<text xml:space="preserve" x="515.381" y="82.477" fill="black" font-size="11.7465" font-family="Helvetica">  2.554</text>
<text xml:space="preserve" x="449.719" y="100.093" fill="black" font-size="11.7465" font-family="Helvetica">Std Dev   </text>
<text xml:space="preserve" x="515.381" y="100.093" fill="black" font-size="11.7465" font-family="Helvetica">  27.98</text>
<path d="M93.448,389.033l 4.47874, -5.27632l 4.47874, -5.34815l 4.47874, -4.85769l 4.47874, -5.59664l 4.47874, -5.13549l 4.47874, -5.12764l 4.47874, -5.44702l 4.47874, -4.93911l 4.47874, -5.45941l 4.47874, -5.22661l 4.47874, -4.97359l 4.47874,
 -5.54996l 4.47874, -5.02358l 4.47874, -5.31883l 4.47874, -5.3231l 4.47874, -4.83702l 4.47874, -5.64779l 4.47874, -5.12144l 4.47874, -5.20239l 4.47874, -5.47705l 4.47874, -4.96378l 4.47874, -5.71226l 4.47874, -5.41205l 4.47874, -5.35035l 4.47874,
 -6.30553l 4.47874, -5.6346l 4.47874, -7.0113l 4.47874, -7.19029l 4.47874, -6.51114l 4.47874, -10.1341l 4.47874, -8.50418l 4.47874, -10.1084l 4.47874, -11.2942l 4.47874, -9.30545l 4.47874, -13.1994l 4.47874, -11.255l 4.47874, -10.7967l 4.47874,
 -12.3601l 4.47874, -10.0161l 4.47874, -10.5614l 4.47874, -9.6512l 4.47874, -8.24458l 4.47874, -7.90415l 4.47874, -6.87709l 4.47874, -5.5605l 4.47874, -4.54009l 4.47874, -4.18174l 4.47874, -1.76689l 4.47874, -1.49189" fill="none" stroke="#ff0000"
 stroke-width="3"/>
<path d="M312.906,62.2993l 4.47874, -0.539865l 4.47874, 1.47656l 4.47874, 1.51887l 4.47874, 3.40383l 4.47874, 4.40098l 4.47874, 4.95356l 4.47874, 6.56264l 4.47874, 7.49141l 4.47874, 8.14029l 4.47874, 9.04239l 4.47874, 10.9086l 4.47874, 9.51822l
 4.47874, 11.3775l 4.47874, 12.0831l 4.47874, 10.4349l 4.47874, 13.0053l 4.47874, 10.3087l 4.47874, 10.4686l 4.47874, 11.7375l 4.47874, 8.02817l 4.47874, 9.46478l 4.47874, 8.05424l 4.47874, 6.84722l 4.47874, 7.84235l 4.47874, 5.42184l 4.47874,
 6.04022l 4.47874, 5.89979l 4.47874, 5.21548l 4.47874, 5.78516l 4.47874, 5.06656l 4.47874, 5.27581l 4.47874, 5.51829l 4.47874, 4.94508l 4.47874, 5.45429l 4.47874, 5.14172l 4.47874, 5.13283l 4.47874, 5.60599l 4.47874, 4.8538l 4.47874, 5.34343l
 4.47874, 5.28415l 4.47874, 5.04306l 4.47874, 5.57375l 4.47874, 4.9373l 4.47874, 5.24795l 4.47874, 5.42718l 4.47874, 4.95818l 4.47874, 5.47023l 4.47874, 5.09273l 4.47874, 5.15612" fill="none" stroke="#ff0000" stroke-width="3"/>
<path d="M532.365,381.72l 4.47874, 5.56554" fill="none" stroke="#ff0000" stroke-width="3"/>
<text xml:space="preserve" x="183.07" y="56.8531" fill="black" font-size="19.571" font-family="Helvetica" font-style="oblique"> Work in Progress</text>
<text xml:space="preserve" x="117.409" y="56.8531" fill="black" font-size="19.571" font-family="Helvetica" font-weight="bold" font-style="oblique">ATLAS</text>
<text xml:space="preserve" x="135.826" y="83.2777" fill="black" font-size="19.571" font-family="Helvetica" font-weight="bold">=13 TeV</text>
<text xml:space="preserve" x="125.417" y="83.2777" fill="black" font-size="19.571" font-family="Helvetica" font-weight="bold">s</text>
<path d="M119.811,72.0673l 1.60149, 12.0112" fill="none" stroke="black" stroke-width="2"/>
<path d="M121.413,84.0785l 2.40224, -16.8157" fill="none" stroke="black"/>
<path d="M123.815,67.2628h 12.0112" fill="none" stroke="black"/>
<text xml:space="preserve" x="220.706" y="313.893" fill="black" font-size="16.2336" font-family="Helvetica">Mean: 2.56066 +/- 0.0174245</text>
<text xml:space="preserve" x="231.115" y="336.314" fill="black" font-size="16.2336" font-family="Helvetica">: 19.6818 +/- 0.0317568</text>
<text xml:space="preserve" x="221.506" y="336.314" fill="black" font-size="16.2336" font-family="Times">&#0963;</text>
<text xml:space="preserve" x="716.368" y="449.219" fill="black" font-size="16.2336" font-family="Helvetica">: 2025.28</text>
<text xml:space="preserve" x="710.763" y="444.415" fill="black" font-size="10.9891" font-family="Helvetica">2</text>
<text xml:space="preserve" x="701.955" y="449.219" fill="black" font-size="16.2336" font-family="Times">&#0967;</text>
<text xml:space="preserve" x="236.72" y="359.536" fill="black" font-size="16.2336" font-family="Helvetica">/NDF: 5.2198</text>
<text xml:space="preserve" x="231.115" y="354.731" fill="black" font-size="10.9891" font-family="Helvetica">2</text>
<text xml:space="preserve" x="222.307" y="359.536" fill="black" font-size="16.2336" font-family="Times">&#0967;</text></svg>
