\relax 
\providecommand\hyper@newdestlabel[2]{}
\@writefile{toc}{\contentsline {section}{\numberline {6}Impact Parameter with respect to beamspot}{26}{section.6}}
\newlabel{sec:beamspot}{{6}{26}{Impact Parameter with respect to beamspot}{section.6}{}}
\@writefile{lof}{\contentsline {figure}{\numberline {17}{\ignorespaces $d_0$ resolution for $|\eta |<0.8$ (2018 data) with respect to beamspot (in black); with respect to beamspot with average beamspot width subtracted (in red); with respect to primary vertex (unfolded iteration 0- in blue; unfolded iteration 1- in green). The bottom panel shows the ratio of resolution compared to the resolution with respect to beamspot.\relax }}{26}{figure.caption.21}}
\newlabel{fig:bs_validation}{{17}{26}{$d_0$ resolution for $|\eta |<0.8$ (2018 data) with respect to beamspot (in black); with respect to beamspot with average beamspot width subtracted (in red); with respect to primary vertex (unfolded iteration 0- in blue; unfolded iteration 1- in green). The bottom panel shows the ratio of resolution compared to the resolution with respect to beamspot.\relax }{figure.caption.21}{}}
\@writefile{toc}{\contentsline {subsection}{\numberline {6.1}$d_0$ resolution of tracks}{26}{subsection.6.1}}
\newlabel{fig:alltrks_pT}{{18(a)}{27}{Subfigure 18(a)}{subfigure.18.1}{}}
\newlabel{sub@fig:alltrks_pT}{{(a)}{}{Subfigure 18(a)\relax }{subfigure.18.1}{}}
\newlabel{fig:alltrks_eta}{{18(b)}{27}{Subfigure 18(b)}{subfigure.18.2}{}}
\newlabel{sub@fig:alltrks_eta}{{(b)}{}{Subfigure 18(b)\relax }{subfigure.18.2}{}}
\@writefile{lof}{\contentsline {figure}{\numberline {18}{\ignorespaces Impact parameter resolution of tracks with respect to beamspot, plotted against \subref {fig:alltrks_pT} the transverse momentum of tracks ($p_T$), and \subref {fig:alltrks_eta} the pseudorapidity of tracks ($\eta $). The bottom panels show the ratio between 2016 data and Monte Carlo.\relax }}{27}{figure.caption.22}}
\newlabel{fig:alltrks}{{18}{27}{Impact parameter resolution of tracks with respect to beamspot, plotted against \protect \subref {fig:alltrks_pT} the transverse momentum of tracks ($p_T$), and \protect \subref {fig:alltrks_eta} the pseudorapidity of tracks ($\eta $). The bottom panels show the ratio between 2016 data and Monte Carlo.\relax }{figure.caption.22}{}}
\@writefile{lof}{\contentsline {subfigure}{\numberline{(a)}{\ignorespaces {}}}{27}{subfigure.18.1}}
\@writefile{lof}{\contentsline {subfigure}{\numberline{(b)}{\ignorespaces {}}}{27}{subfigure.18.2}}
\@writefile{toc}{\contentsline {subsection}{\numberline {6.2}IP resolution for different track selections}{27}{subsection.6.2}}
\@writefile{toc}{\contentsline {subsubsection}{\numberline {6.2.1}$b$-tagging recommendation for track classification}{27}{subsubsection.6.2.1}}
\newlabel{fig:class1}{{19(a)}{28}{Subfigure 19(a)}{subfigure.19.1}{}}
\newlabel{sub@fig:class1}{{(a)}{}{Subfigure 19(a)\relax }{subfigure.19.1}{}}
\newlabel{fig:class2}{{19(b)}{28}{Subfigure 19(b)}{subfigure.19.2}{}}
\newlabel{sub@fig:class2}{{(b)}{}{Subfigure 19(b)\relax }{subfigure.19.2}{}}
\newlabel{fig:class3}{{19(c)}{28}{Subfigure 19(c)}{subfigure.19.3}{}}
\newlabel{sub@fig:class3}{{(c)}{}{Subfigure 19(c)\relax }{subfigure.19.3}{}}
\newlabel{fig:class4}{{19(d)}{28}{Subfigure 19(d)}{subfigure.19.4}{}}
\newlabel{sub@fig:class4}{{(d)}{}{Subfigure 19(d)\relax }{subfigure.19.4}{}}
\newlabel{fig:class5}{{19(e)}{28}{Subfigure 19(e)}{subfigure.19.5}{}}
\newlabel{sub@fig:class5}{{(e)}{}{Subfigure 19(e)\relax }{subfigure.19.5}{}}
\newlabel{fig:class6}{{19(f)}{28}{Subfigure 19(f)}{subfigure.19.6}{}}
\newlabel{sub@fig:class6}{{(f)}{}{Subfigure 19(f)\relax }{subfigure.19.6}{}}
\@writefile{lof}{\contentsline {figure}{\numberline {19}{\ignorespaces Impact parameter resolution of tracks with respect to beamspot, plotted against track $p_T$ for 2016 data and Monte Carlo for different quality of tracks defined for $b$-tagging. \relax }}{28}{figure.caption.23}}
\newlabel{fig:classes}{{19}{28}{Impact parameter resolution of tracks with respect to beamspot, plotted against track $p_T$ for 2016 data and Monte Carlo for different quality of tracks defined for $b$-tagging. \relax }{figure.caption.23}{}}
\@writefile{lof}{\contentsline {subfigure}{\numberline{(a)}{\ignorespaces {}}}{28}{subfigure.19.1}}
\@writefile{lof}{\contentsline {subfigure}{\numberline{(b)}{\ignorespaces {}}}{28}{subfigure.19.2}}
\@writefile{lof}{\contentsline {subfigure}{\numberline{(c)}{\ignorespaces {}}}{28}{subfigure.19.3}}
\@writefile{lof}{\contentsline {subfigure}{\numberline{(d)}{\ignorespaces {}}}{28}{subfigure.19.4}}
\@writefile{lof}{\contentsline {subfigure}{\numberline{(e)}{\ignorespaces {}}}{28}{subfigure.19.5}}
\@writefile{lof}{\contentsline {subfigure}{\numberline{(f)}{\ignorespaces {}}}{28}{subfigure.19.6}}
\newlabel{fig:class7}{{19(g)}{29}{Subfigure 19(g)}{subfigure.19.7}{}}
\newlabel{sub@fig:class7}{{(g)}{}{Subfigure 19(g)\relax }{subfigure.19.7}{}}
\newlabel{fig:class9}{{19(h)}{29}{Subfigure 19(h)}{subfigure.19.8}{}}
\newlabel{sub@fig:class9}{{(h)}{}{Subfigure 19(h)\relax }{subfigure.19.8}{}}
\newlabel{fig:class10}{{19(i)}{29}{Subfigure 19(i)}{subfigure.19.9}{}}
\newlabel{sub@fig:class10}{{(i)}{}{Subfigure 19(i)\relax }{subfigure.19.9}{}}
\newlabel{fig:class11}{{19(j)}{29}{Subfigure 19(j)}{subfigure.19.10}{}}
\newlabel{sub@fig:class11}{{(j)}{}{Subfigure 19(j)\relax }{subfigure.19.10}{}}
\newlabel{fig:class12}{{19(k)}{29}{Subfigure 19(k)}{subfigure.19.11}{}}
\newlabel{sub@fig:class12}{{(k)}{}{Subfigure 19(k)\relax }{subfigure.19.11}{}}
\newlabel{fig:class13}{{19(l)}{29}{Subfigure 19(l)}{subfigure.19.12}{}}
\newlabel{sub@fig:class13}{{(l)}{}{Subfigure 19(l)\relax }{subfigure.19.12}{}}
\@writefile{lof}{\contentsline {figure}{\numberline {19}{\ignorespaces Impact parameter resolution of tracks with respect to beamspot, plotted against track $p_T$ for 2016 data and Monte Carlo for different quality of tracks defined for $b$-tagging. \relax }}{29}{figure.caption.24}}
\newlabel{fig:classes}{{19}{29}{Impact parameter resolution of tracks with respect to beamspot, plotted against track $p_T$ for 2016 data and Monte Carlo for different quality of tracks defined for $b$-tagging. \relax }{figure.caption.24}{}}
\@writefile{lof}{\contentsline {subfigure}{\numberline{(g)}{\ignorespaces {}}}{29}{subfigure.19.7}}
\@writefile{lof}{\contentsline {subfigure}{\numberline{(h)}{\ignorespaces {}}}{29}{subfigure.19.8}}
\@writefile{lof}{\contentsline {subfigure}{\numberline{(i)}{\ignorespaces {}}}{29}{subfigure.19.9}}
\@writefile{lof}{\contentsline {subfigure}{\numberline{(j)}{\ignorespaces {}}}{29}{subfigure.19.10}}
\@writefile{lof}{\contentsline {subfigure}{\numberline{(k)}{\ignorespaces {}}}{29}{subfigure.19.11}}
\@writefile{lof}{\contentsline {subfigure}{\numberline{(l)}{\ignorespaces {}}}{29}{subfigure.19.12}}
\newlabel{fig:d0_c1}{{20(a)}{30}{Subfigure 20(a)}{subfigure.20.1}{}}
\newlabel{sub@fig:d0_c1}{{(a)}{}{Subfigure 20(a)\relax }{subfigure.20.1}{}}
\newlabel{fig:d0_c2}{{20(b)}{30}{Subfigure 20(b)}{subfigure.20.2}{}}
\newlabel{sub@fig:d0_c2}{{(b)}{}{Subfigure 20(b)\relax }{subfigure.20.2}{}}
\@writefile{lof}{\contentsline {figure}{\numberline {20}{\ignorespaces $d_0$ distribution for MC at a low $p_T$ range ($1<p_{T}<1.25$ GeV), where the Gaussian fit does not work well. The distributions are shown for \subref {fig:d0_c1} Category \#1, and \subref {fig:d0_c2} Category \#11. Both the plots show inherently different distributions, not described by a simple Gaussian.\relax }}{30}{figure.caption.25}}
\newlabel{fig:d0}{{20}{30}{$d_0$ distribution for MC at a low $p_T$ range ($1<p_{T}<1.25$ GeV), where the Gaussian fit does not work well. The distributions are shown for \protect \subref {fig:d0_c1} Category \#1, and \protect \subref {fig:d0_c2} Category \#11. Both the plots show inherently different distributions, not described by a simple Gaussian.\relax }{figure.caption.25}{}}
\@writefile{lof}{\contentsline {subfigure}{\numberline{(a)}{\ignorespaces {}}}{30}{subfigure.20.1}}
\@writefile{lof}{\contentsline {subfigure}{\numberline{(b)}{\ignorespaces {}}}{30}{subfigure.20.2}}
\@writefile{toc}{\contentsline {subsubsection}{\numberline {6.2.2}Loose/Tight selection}{30}{subsubsection.6.2.2}}
\newlabel{fig:class1_eta}{{21(a)}{31}{Subfigure 21(a)}{subfigure.21.1}{}}
\newlabel{sub@fig:class1_eta}{{(a)}{}{Subfigure 21(a)\relax }{subfigure.21.1}{}}
\newlabel{fig:class2_eta}{{21(b)}{31}{Subfigure 21(b)}{subfigure.21.2}{}}
\newlabel{sub@fig:class2_eta}{{(b)}{}{Subfigure 21(b)\relax }{subfigure.21.2}{}}
\newlabel{fig:class3_eta}{{21(c)}{31}{Subfigure 21(c)}{subfigure.21.3}{}}
\newlabel{sub@fig:class3_eta}{{(c)}{}{Subfigure 21(c)\relax }{subfigure.21.3}{}}
\newlabel{fig:class4_eta}{{21(d)}{31}{Subfigure 21(d)}{subfigure.21.4}{}}
\newlabel{sub@fig:class4_eta}{{(d)}{}{Subfigure 21(d)\relax }{subfigure.21.4}{}}
\newlabel{fig:class5_eta}{{21(e)}{31}{Subfigure 21(e)}{subfigure.21.5}{}}
\newlabel{sub@fig:class5_eta}{{(e)}{}{Subfigure 21(e)\relax }{subfigure.21.5}{}}
\newlabel{fig:class6_eta}{{21(f)}{31}{Subfigure 21(f)}{subfigure.21.6}{}}
\newlabel{sub@fig:class6_eta}{{(f)}{}{Subfigure 21(f)\relax }{subfigure.21.6}{}}
\@writefile{lof}{\contentsline {figure}{\numberline {21}{\ignorespaces Impact parameter resolution of tracks with respect to beamspot, plotted against track $\eta $ for 2016 data and Monte Carlo for different quality of tracks defined for $b$-tagging. \relax }}{31}{figure.caption.26}}
\newlabel{fig:classes_eta}{{21}{31}{Impact parameter resolution of tracks with respect to beamspot, plotted against track $\eta $ for 2016 data and Monte Carlo for different quality of tracks defined for $b$-tagging. \relax }{figure.caption.26}{}}
\@writefile{lof}{\contentsline {subfigure}{\numberline{(a)}{\ignorespaces {}}}{31}{subfigure.21.1}}
\@writefile{lof}{\contentsline {subfigure}{\numberline{(b)}{\ignorespaces {}}}{31}{subfigure.21.2}}
\@writefile{lof}{\contentsline {subfigure}{\numberline{(c)}{\ignorespaces {}}}{31}{subfigure.21.3}}
\@writefile{lof}{\contentsline {subfigure}{\numberline{(d)}{\ignorespaces {}}}{31}{subfigure.21.4}}
\@writefile{lof}{\contentsline {subfigure}{\numberline{(e)}{\ignorespaces {}}}{31}{subfigure.21.5}}
\@writefile{lof}{\contentsline {subfigure}{\numberline{(f)}{\ignorespaces {}}}{31}{subfigure.21.6}}
\newlabel{fig:class7_eta}{{21(g)}{32}{Subfigure 21(g)}{subfigure.21.7}{}}
\newlabel{sub@fig:class7_eta}{{(g)}{}{Subfigure 21(g)\relax }{subfigure.21.7}{}}
\newlabel{fig:class9_eta}{{21(h)}{32}{Subfigure 21(h)}{subfigure.21.8}{}}
\newlabel{sub@fig:class9_eta}{{(h)}{}{Subfigure 21(h)\relax }{subfigure.21.8}{}}
\newlabel{fig:class10_eta}{{21(i)}{32}{Subfigure 21(i)}{subfigure.21.9}{}}
\newlabel{sub@fig:class10_eta}{{(i)}{}{Subfigure 21(i)\relax }{subfigure.21.9}{}}
\newlabel{fig:class11_eta}{{21(j)}{32}{Subfigure 21(j)}{subfigure.21.10}{}}
\newlabel{sub@fig:class11_eta}{{(j)}{}{Subfigure 21(j)\relax }{subfigure.21.10}{}}
\newlabel{fig:class12_eta}{{21(k)}{32}{Subfigure 21(k)}{subfigure.21.11}{}}
\newlabel{sub@fig:class12_eta}{{(k)}{}{Subfigure 21(k)\relax }{subfigure.21.11}{}}
\newlabel{fig:class13_eta}{{21(l)}{32}{Subfigure 21(l)}{subfigure.21.12}{}}
\newlabel{sub@fig:class13_eta}{{(l)}{}{Subfigure 21(l)\relax }{subfigure.21.12}{}}
\@writefile{lof}{\contentsline {figure}{\numberline {21}{\ignorespaces Impact parameter resolution of tracks with respect to beamspot, plotted against track $\eta $ for 2016 data and Monte Carlo for different quality of tracks defined for $b$-tagging. \relax }}{32}{figure.caption.27}}
\newlabel{fig:classes_eta}{{21}{32}{Impact parameter resolution of tracks with respect to beamspot, plotted against track $\eta $ for 2016 data and Monte Carlo for different quality of tracks defined for $b$-tagging. \relax }{figure.caption.27}{}}
\@writefile{lof}{\contentsline {subfigure}{\numberline{(g)}{\ignorespaces {}}}{32}{subfigure.21.7}}
\@writefile{lof}{\contentsline {subfigure}{\numberline{(h)}{\ignorespaces {}}}{32}{subfigure.21.8}}
\@writefile{lof}{\contentsline {subfigure}{\numberline{(i)}{\ignorespaces {}}}{32}{subfigure.21.9}}
\@writefile{lof}{\contentsline {subfigure}{\numberline{(j)}{\ignorespaces {}}}{32}{subfigure.21.10}}
\@writefile{lof}{\contentsline {subfigure}{\numberline{(k)}{\ignorespaces {}}}{32}{subfigure.21.11}}
\@writefile{lof}{\contentsline {subfigure}{\numberline{(l)}{\ignorespaces {}}}{32}{subfigure.21.12}}
\newlabel{fig:data}{{22(a)}{33}{Subfigure 22(a)}{subfigure.22.1}{}}
\newlabel{sub@fig:data}{{(a)}{}{Subfigure 22(a)\relax }{subfigure.22.1}{}}
\newlabel{fig:MC}{{22(b)}{33}{Subfigure 22(b)}{subfigure.22.2}{}}
\newlabel{sub@fig:MC}{{(b)}{}{Subfigure 22(b)\relax }{subfigure.22.2}{}}
\@writefile{lof}{\contentsline {figure}{\numberline {22}{\ignorespaces Comparison of impact parameter resolution (with respect to beamspot) against $p_T$, for tracks categorized as "good" versus all tracks, for \subref {fig:data} 2016 data sample, as well as for \subref {fig:MC} Monte Carlo simulation. The bottom pad gives the ratio of resolution for the case without any track selection to the "good" tracks case. \relax }}{33}{figure.caption.28}}
\newlabel{fig:goodVsall}{{22}{33}{Comparison of impact parameter resolution (with respect to beamspot) against $p_T$, for tracks categorized as "good" versus all tracks, for \protect \subref {fig:data} 2016 data sample, as well as for \protect \subref {fig:MC} Monte Carlo simulation. The bottom pad gives the ratio of resolution for the case without any track selection to the "good" tracks case. \relax }{figure.caption.28}{}}
\@writefile{lof}{\contentsline {subfigure}{\numberline{(a)}{\ignorespaces {}}}{33}{subfigure.22.1}}
\@writefile{lof}{\contentsline {subfigure}{\numberline{(b)}{\ignorespaces {}}}{33}{subfigure.22.2}}
\newlabel{fig:data_eta}{{23(a)}{33}{Subfigure 23(a)}{subfigure.23.1}{}}
\newlabel{sub@fig:data_eta}{{(a)}{}{Subfigure 23(a)\relax }{subfigure.23.1}{}}
\newlabel{fig:MC_eta}{{23(b)}{33}{Subfigure 23(b)}{subfigure.23.2}{}}
\newlabel{sub@fig:MC_eta}{{(b)}{}{Subfigure 23(b)\relax }{subfigure.23.2}{}}
\@writefile{lof}{\contentsline {figure}{\numberline {23}{\ignorespaces Comparison of impact parameter resolution (with respect to beamspot) against $\eta $, for tracks categorized as "good" versus all tracks, for \subref {fig:data_eta} 2016 data sample, as well as for \subref {fig:MC_eta} Monte Carlo simulation. The bottom pad gives the ratio of resolution for the case without any track selection to the "good" tracks case. \relax }}{33}{figure.caption.29}}
\newlabel{fig:goodVsall_eta}{{23}{33}{Comparison of impact parameter resolution (with respect to beamspot) against $\eta $, for tracks categorized as "good" versus all tracks, for \protect \subref {fig:data_eta} 2016 data sample, as well as for \protect \subref {fig:MC_eta} Monte Carlo simulation. The bottom pad gives the ratio of resolution for the case without any track selection to the "good" tracks case. \relax }{figure.caption.29}{}}
\@writefile{lof}{\contentsline {subfigure}{\numberline{(a)}{\ignorespaces {}}}{33}{subfigure.23.1}}
\@writefile{lof}{\contentsline {subfigure}{\numberline{(b)}{\ignorespaces {}}}{33}{subfigure.23.2}}
\newlabel{fig:Loose}{{24(a)}{34}{Subfigure 24(a)}{subfigure.24.1}{}}
\newlabel{sub@fig:Loose}{{(a)}{}{Subfigure 24(a)\relax }{subfigure.24.1}{}}
\newlabel{fig:Tight}{{24(b)}{34}{Subfigure 24(b)}{subfigure.24.2}{}}
\newlabel{sub@fig:Tight}{{(b)}{}{Subfigure 24(b)\relax }{subfigure.24.2}{}}
\@writefile{lof}{\contentsline {figure}{\numberline {24}{\ignorespaces Resolution plots for data and MC for \subref {fig:Loose} loose selection, as well as for, \subref {fig:Tight} tight selection criteria. \relax }}{34}{figure.caption.30}}
\newlabel{fig:LooseTight}{{24}{34}{Resolution plots for data and MC for \protect \subref {fig:Loose} loose selection, as well as for, \protect \subref {fig:Tight} tight selection criteria. \relax }{figure.caption.30}{}}
\@writefile{lof}{\contentsline {subfigure}{\numberline{(a)}{\ignorespaces {}}}{34}{subfigure.24.1}}
\@writefile{lof}{\contentsline {subfigure}{\numberline{(b)}{\ignorespaces {}}}{34}{subfigure.24.2}}
\@writefile{toc}{\contentsline {subsubsection}{\numberline {6.2.3}Truth selection of tracks}{34}{subsubsection.6.2.3}}
\newlabel{fig:loose}{{25(a)}{35}{Subfigure 25(a)}{subfigure.25.1}{}}
\newlabel{sub@fig:loose}{{(a)}{}{Subfigure 25(a)\relax }{subfigure.25.1}{}}
\newlabel{fig:tight}{{25(b)}{35}{Subfigure 25(b)}{subfigure.25.2}{}}
\newlabel{sub@fig:tight}{{(b)}{}{Subfigure 25(b)\relax }{subfigure.25.2}{}}
\@writefile{lof}{\contentsline {figure}{\numberline {25}{\ignorespaces Smearing map for \subref {fig:data_eta} Loose selection, as well as for \subref {fig:MC_eta} Tight selection. \relax }}{35}{figure.caption.31}}
\newlabel{fig:smear}{{25}{35}{Smearing map for \protect \subref {fig:data_eta} Loose selection, as well as for \protect \subref {fig:MC_eta} Tight selection. \relax }{figure.caption.31}{}}
\@writefile{lof}{\contentsline {subfigure}{\numberline{(a)}{\ignorespaces {}}}{35}{subfigure.25.1}}
\@writefile{lof}{\contentsline {subfigure}{\numberline{(b)}{\ignorespaces {}}}{35}{subfigure.25.2}}
\newlabel{fig:bar_pT}{{26(a)}{35}{Subfigure 26(a)}{subfigure.26.1}{}}
\newlabel{sub@fig:bar_pT}{{(a)}{}{Subfigure 26(a)\relax }{subfigure.26.1}{}}
\newlabel{fig:bar_eta}{{26(b)}{35}{Subfigure 26(b)}{subfigure.26.2}{}}
\newlabel{sub@fig:bar_eta}{{(b)}{}{Subfigure 26(b)\relax }{subfigure.26.2}{}}
\@writefile{lof}{\contentsline {figure}{\numberline {26}{\ignorespaces Resolution plots for MC tracks classified in different barcode categories. Plot \subref {fig:bar_pT} shows the variation with track $p_T$, while, \subref {fig:bar_eta} shows its variation with track $\eta $. \relax }}{35}{figure.caption.32}}
\newlabel{fig:barcode}{{26}{35}{Resolution plots for MC tracks classified in different barcode categories. Plot \protect \subref {fig:bar_pT} shows the variation with track $p_T$, while, \protect \subref {fig:bar_eta} shows its variation with track $\eta $. \relax }{figure.caption.32}{}}
\@writefile{lof}{\contentsline {subfigure}{\numberline{(a)}{\ignorespaces {}}}{35}{subfigure.26.1}}
\@writefile{lof}{\contentsline {subfigure}{\numberline{(b)}{\ignorespaces {}}}{35}{subfigure.26.2}}
\newlabel{fig:3to3p5}{{27(a)}{36}{Subfigure 27(a)}{subfigure.27.1}{}}
\newlabel{sub@fig:3to3p5}{{(a)}{}{Subfigure 27(a)\relax }{subfigure.27.1}{}}
\newlabel{fig:6to7}{{27(b)}{36}{Subfigure 27(b)}{subfigure.27.2}{}}
\newlabel{sub@fig:6to7}{{(b)}{}{Subfigure 27(b)\relax }{subfigure.27.2}{}}
\@writefile{lof}{\contentsline {figure}{\numberline {27}{\ignorespaces $d_0$ distributions for MC tracks classified in different barcode categories. Plot \subref {fig:3to3p5} corresponds to $3<p_{T}<3.5$ GeV, while, \subref {fig:6to7} describes $6<p_{T}<7$ GeV tracks. \relax }}{36}{figure.caption.33}}
\newlabel{fig:d0barcode_points}{{27}{36}{$d_0$ distributions for MC tracks classified in different barcode categories. Plot \protect \subref {fig:3to3p5} corresponds to $3<p_{T}<3.5$ GeV, while, \protect \subref {fig:6to7} describes $6<p_{T}<7$ GeV tracks. \relax }{figure.caption.33}{}}
\@writefile{lof}{\contentsline {subfigure}{\numberline{(a)}{\ignorespaces {}}}{36}{subfigure.27.1}}
\@writefile{lof}{\contentsline {subfigure}{\numberline{(b)}{\ignorespaces {}}}{36}{subfigure.27.2}}
\@writefile{toc}{\contentsline {subsection}{\numberline {6.3}Parameterization of tails}{36}{subsection.6.3}}
\newlabel{subsection:tailfit}{{6.3}{36}{Parameterization of tails}{subsection.6.3}{}}
\newlabel{fig:class1_}{{28(a)}{37}{Subfigure 28(a)}{subfigure.28.1}{}}
\newlabel{sub@fig:class1_}{{(a)}{}{Subfigure 28(a)\relax }{subfigure.28.1}{}}
\newlabel{fig:class2_}{{28(b)}{37}{Subfigure 28(b)}{subfigure.28.2}{}}
\newlabel{sub@fig:class2_}{{(b)}{}{Subfigure 28(b)\relax }{subfigure.28.2}{}}
\newlabel{fig:class3_}{{28(c)}{37}{Subfigure 28(c)}{subfigure.28.3}{}}
\newlabel{sub@fig:class3_}{{(c)}{}{Subfigure 28(c)\relax }{subfigure.28.3}{}}
\newlabel{fig:class4_}{{28(d)}{37}{Subfigure 28(d)}{subfigure.28.4}{}}
\newlabel{sub@fig:class4_}{{(d)}{}{Subfigure 28(d)\relax }{subfigure.28.4}{}}
\newlabel{fig:class5_}{{28(e)}{37}{Subfigure 28(e)}{subfigure.28.5}{}}
\newlabel{sub@fig:class5_}{{(e)}{}{Subfigure 28(e)\relax }{subfigure.28.5}{}}
\newlabel{fig:class6_}{{28(f)}{37}{Subfigure 28(f)}{subfigure.28.6}{}}
\newlabel{sub@fig:class6_}{{(f)}{}{Subfigure 28(f)\relax }{subfigure.28.6}{}}
\@writefile{lof}{\contentsline {figure}{\numberline {28}{\ignorespaces Width of Gaussian distributions for the core as well as the tails, varying with track $p_T$ for different selection of tracks, within $|\eta |<0.8$. \relax }}{37}{figure.caption.34}}
\newlabel{fig:classes_}{{28}{37}{Width of Gaussian distributions for the core as well as the tails, varying with track $p_T$ for different selection of tracks, within $|\eta |<0.8$. \relax }{figure.caption.34}{}}
\@writefile{lof}{\contentsline {subfigure}{\numberline{(a)}{\ignorespaces {}}}{37}{subfigure.28.1}}
\@writefile{lof}{\contentsline {subfigure}{\numberline{(b)}{\ignorespaces {}}}{37}{subfigure.28.2}}
\@writefile{lof}{\contentsline {subfigure}{\numberline{(c)}{\ignorespaces {}}}{37}{subfigure.28.3}}
\@writefile{lof}{\contentsline {subfigure}{\numberline{(d)}{\ignorespaces {}}}{37}{subfigure.28.4}}
\@writefile{lof}{\contentsline {subfigure}{\numberline{(e)}{\ignorespaces {}}}{37}{subfigure.28.5}}
\@writefile{lof}{\contentsline {subfigure}{\numberline{(f)}{\ignorespaces {}}}{37}{subfigure.28.6}}
\newlabel{fig:class7_}{{28(g)}{38}{Subfigure 28(g)}{subfigure.28.7}{}}
\newlabel{sub@fig:class7_}{{(g)}{}{Subfigure 28(g)\relax }{subfigure.28.7}{}}
\newlabel{fig:class9_}{{28(h)}{38}{Subfigure 28(h)}{subfigure.28.8}{}}
\newlabel{sub@fig:class9_}{{(h)}{}{Subfigure 28(h)\relax }{subfigure.28.8}{}}
\newlabel{fig:class10_}{{28(i)}{38}{Subfigure 28(i)}{subfigure.28.9}{}}
\newlabel{sub@fig:class10_}{{(i)}{}{Subfigure 28(i)\relax }{subfigure.28.9}{}}
\newlabel{fig:class11_}{{28(j)}{38}{Subfigure 28(j)}{subfigure.28.10}{}}
\newlabel{sub@fig:class11_}{{(j)}{}{Subfigure 28(j)\relax }{subfigure.28.10}{}}
\newlabel{fig:class12_}{{28(k)}{38}{Subfigure 28(k)}{subfigure.28.11}{}}
\newlabel{sub@fig:class12_}{{(k)}{}{Subfigure 28(k)\relax }{subfigure.28.11}{}}
\newlabel{fig:class13_}{{28(l)}{38}{Subfigure 28(l)}{subfigure.28.12}{}}
\newlabel{sub@fig:class13_}{{(l)}{}{Subfigure 28(l)\relax }{subfigure.28.12}{}}
\@writefile{lof}{\contentsline {figure}{\numberline {28}{\ignorespaces Width of Gaussian distributions for the core as well as the tails, varying with track $p_T$ for different selection of tracks, within $|\eta |<0.8$. \relax }}{38}{figure.caption.35}}
\newlabel{fig:classes_}{{28}{38}{Width of Gaussian distributions for the core as well as the tails, varying with track $p_T$ for different selection of tracks, within $|\eta |<0.8$. \relax }{figure.caption.35}{}}
\@writefile{lof}{\contentsline {subfigure}{\numberline{(g)}{\ignorespaces {}}}{38}{subfigure.28.7}}
\@writefile{lof}{\contentsline {subfigure}{\numberline{(h)}{\ignorespaces {}}}{38}{subfigure.28.8}}
\@writefile{lof}{\contentsline {subfigure}{\numberline{(i)}{\ignorespaces {}}}{38}{subfigure.28.9}}
\@writefile{lof}{\contentsline {subfigure}{\numberline{(j)}{\ignorespaces {}}}{38}{subfigure.28.10}}
\@writefile{lof}{\contentsline {subfigure}{\numberline{(k)}{\ignorespaces {}}}{38}{subfigure.28.11}}
\@writefile{lof}{\contentsline {subfigure}{\numberline{(l)}{\ignorespaces {}}}{38}{subfigure.28.12}}
\@writefile{lof}{\contentsline {figure}{\numberline {29}{\ignorespaces Width of Gaussian distributions for the core as well as the tails, varying with track $p_T$ for all tracks within $|\eta |<0.8$.\relax }}{39}{figure.caption.36}}
\newlabel{fig:class14}{{29}{39}{Width of Gaussian distributions for the core as well as the tails, varying with track $p_T$ for all tracks within $|\eta |<0.8$.\relax }{figure.caption.36}{}}
\@writefile{toc}{\contentsline {subsection}{\numberline {6.4}Resolution dependence on track density}{39}{subsection.6.4}}
\@writefile{lof}{\contentsline {figure}{\numberline {30}{\ignorespaces Impact parameter resolution of tracks with respect to beamspot, plotted against track $p_T$ and $\Delta R$ to the closest track (for 2016 data). The resolution is in the units of $\mu $m.\relax }}{39}{figure.caption.37}}
\newlabel{fig:class14_dR}{{30}{39}{Impact parameter resolution of tracks with respect to beamspot, plotted against track $p_T$ and $\Delta R$ to the closest track (for 2016 data). The resolution is in the units of $\mu $m.\relax }{figure.caption.37}{}}
\newlabel{fig:all}{{31(a)}{40}{Subfigure 31(a)}{subfigure.31.1}{}}
\newlabel{sub@fig:all}{{(a)}{}{Subfigure 31(a)\relax }{subfigure.31.1}{}}
\newlabel{fig:all_zoom}{{31(b)}{40}{Subfigure 31(b)}{subfigure.31.2}{}}
\newlabel{sub@fig:all_zoom}{{(b)}{}{Subfigure 31(b)\relax }{subfigure.31.2}{}}
\@writefile{lof}{\contentsline {figure}{\numberline {31}{\ignorespaces Impact parameter resolution of tracks with respect to beamspot, plotted against track $\Delta R$ for 2016 data for different momentum ranges. Plot \ref  {fig:all_zoom} shows the zoomed-in version of plot \ref  {fig:all}. \relax }}{40}{figure.caption.38}}
\newlabel{fig:d0res_all}{{31}{40}{Impact parameter resolution of tracks with respect to beamspot, plotted against track $\Delta R$ for 2016 data for different momentum ranges. Plot \ref {fig:all_zoom} shows the zoomed-in version of plot \ref {fig:all}. \relax }{figure.caption.38}{}}
\@writefile{lof}{\contentsline {subfigure}{\numberline{(a)}{\ignorespaces {}}}{40}{subfigure.31.1}}
\@writefile{lof}{\contentsline {subfigure}{\numberline{(b)}{\ignorespaces {}}}{40}{subfigure.31.2}}
\@writefile{toc}{\contentsline {subsection}{\numberline {6.5}Resolution with time}{40}{subsection.6.5}}
\newlabel{fig:class1__}{{32(a)}{41}{Subfigure 32(a)}{subfigure.32.1}{}}
\newlabel{sub@fig:class1__}{{(a)}{}{Subfigure 32(a)\relax }{subfigure.32.1}{}}
\newlabel{fig:class2__}{{32(b)}{41}{Subfigure 32(b)}{subfigure.32.2}{}}
\newlabel{sub@fig:class2__}{{(b)}{}{Subfigure 32(b)\relax }{subfigure.32.2}{}}
\newlabel{fig:class4__}{{32(c)}{41}{Subfigure 32(c)}{subfigure.32.3}{}}
\newlabel{sub@fig:class4__}{{(c)}{}{Subfigure 32(c)\relax }{subfigure.32.3}{}}
\newlabel{fig:class5__}{{32(d)}{41}{Subfigure 32(d)}{subfigure.32.4}{}}
\newlabel{sub@fig:class5__}{{(d)}{}{Subfigure 32(d)\relax }{subfigure.32.4}{}}
\newlabel{fig:class6__}{{32(e)}{41}{Subfigure 32(e)}{subfigure.32.5}{}}
\newlabel{sub@fig:class6__}{{(e)}{}{Subfigure 32(e)\relax }{subfigure.32.5}{}}
\newlabel{fig:class7__}{{32(f)}{41}{Subfigure 32(f)}{subfigure.32.6}{}}
\newlabel{sub@fig:class7__}{{(f)}{}{Subfigure 32(f)\relax }{subfigure.32.6}{}}
\@writefile{lof}{\contentsline {figure}{\numberline {32}{\ignorespaces Impact parameter resolution of tracks with respect to beamspot, plotted against track $\Delta R$ for 2016 data for different momentum ranges of tracks. \relax }}{41}{figure.caption.39}}
\newlabel{fig:dR}{{32}{41}{Impact parameter resolution of tracks with respect to beamspot, plotted against track $\Delta R$ for 2016 data for different momentum ranges of tracks. \relax }{figure.caption.39}{}}
\@writefile{lof}{\contentsline {subfigure}{\numberline{(a)}{\ignorespaces {}}}{41}{subfigure.32.1}}
\@writefile{lof}{\contentsline {subfigure}{\numberline{(b)}{\ignorespaces {}}}{41}{subfigure.32.2}}
\@writefile{lof}{\contentsline {subfigure}{\numberline{(c)}{\ignorespaces {}}}{41}{subfigure.32.3}}
\@writefile{lof}{\contentsline {subfigure}{\numberline{(d)}{\ignorespaces {}}}{41}{subfigure.32.4}}
\@writefile{lof}{\contentsline {subfigure}{\numberline{(e)}{\ignorespaces {}}}{41}{subfigure.32.5}}
\@writefile{lof}{\contentsline {subfigure}{\numberline{(f)}{\ignorespaces {}}}{41}{subfigure.32.6}}
\newlabel{fig:1_}{{33(a)}{42}{Subfigure 33(a)}{subfigure.33.1}{}}
\newlabel{sub@fig:1_}{{(a)}{}{Subfigure 33(a)\relax }{subfigure.33.1}{}}
\newlabel{fig:2_}{{33(b)}{42}{Subfigure 33(b)}{subfigure.33.2}{}}
\newlabel{sub@fig:2_}{{(b)}{}{Subfigure 33(b)\relax }{subfigure.33.2}{}}
\newlabel{fig:3_}{{33(c)}{42}{Subfigure 33(c)}{subfigure.33.3}{}}
\newlabel{sub@fig:3_}{{(c)}{}{Subfigure 33(c)\relax }{subfigure.33.3}{}}
\newlabel{fig:4_}{{33(d)}{42}{Subfigure 33(d)}{subfigure.33.4}{}}
\newlabel{sub@fig:4_}{{(d)}{}{Subfigure 33(d)\relax }{subfigure.33.4}{}}
\newlabel{fig:5_}{{33(e)}{42}{Subfigure 33(e)}{subfigure.33.5}{}}
\newlabel{sub@fig:5_}{{(e)}{}{Subfigure 33(e)\relax }{subfigure.33.5}{}}
\newlabel{fig:6_}{{33(f)}{42}{Subfigure 33(f)}{subfigure.33.6}{}}
\newlabel{sub@fig:6_}{{(f)}{}{Subfigure 33(f)\relax }{subfigure.33.6}{}}
\@writefile{lof}{\contentsline {figure}{\numberline {33}{\ignorespaces Impact parameter resolution of tracks with respect to beamspot, plotted against track $\Delta R$ for 2016 data for different momentum ranges of tracks (Zoomed in). \relax }}{42}{figure.caption.40}}
\newlabel{fig:dR_}{{33}{42}{Impact parameter resolution of tracks with respect to beamspot, plotted against track $\Delta R$ for 2016 data for different momentum ranges of tracks (Zoomed in). \relax }{figure.caption.40}{}}
\@writefile{lof}{\contentsline {subfigure}{\numberline{(a)}{\ignorespaces {}}}{42}{subfigure.33.1}}
\@writefile{lof}{\contentsline {subfigure}{\numberline{(b)}{\ignorespaces {}}}{42}{subfigure.33.2}}
\@writefile{lof}{\contentsline {subfigure}{\numberline{(c)}{\ignorespaces {}}}{42}{subfigure.33.3}}
\@writefile{lof}{\contentsline {subfigure}{\numberline{(d)}{\ignorespaces {}}}{42}{subfigure.33.4}}
\@writefile{lof}{\contentsline {subfigure}{\numberline{(e)}{\ignorespaces {}}}{42}{subfigure.33.5}}
\@writefile{lof}{\contentsline {subfigure}{\numberline{(f)}{\ignorespaces {}}}{42}{subfigure.33.6}}
\@writefile{lof}{\contentsline {figure}{\numberline {34}{\ignorespaces Variation of transverse IP resolution of tracks with run number.\relax }}{43}{figure.caption.41}}
\newlabel{fig:RUNN}{{34}{43}{Variation of transverse IP resolution of tracks with run number.\relax }{figure.caption.41}{}}
\@writefile{lof}{\contentsline {figure}{\numberline {35}{\ignorespaces Transverse IP resolution variation with average number of interactions per bunch crossing, $\mu $, for different years.\relax }}{43}{figure.caption.42}}
\newlabel{fig:MU}{{35}{43}{Transverse IP resolution variation with average number of interactions per bunch crossing, $\mu $, for different years.\relax }{figure.caption.42}{}}
\@setckpt{sections/ip_bs}{
\setcounter{page}{44}
\setcounter{equation}{17}
\setcounter{enumi}{0}
\setcounter{enumii}{0}
\setcounter{enumiii}{0}
\setcounter{enumiv}{0}
\setcounter{footnote}{2}
\setcounter{mpfootnote}{0}
\setcounter{part}{0}
\setcounter{section}{6}
\setcounter{subsection}{5}
\setcounter{subsubsection}{0}
\setcounter{paragraph}{0}
\setcounter{subparagraph}{0}
\setcounter{figure}{35}
\setcounter{table}{4}
\setcounter{Item}{0}
\setcounter{Hfootnote}{2}
\setcounter{bookmark@seq@number}{29}
\setcounter{parentequation}{0}
\setcounter{linenumber}{1}
\setcounter{LN@truepage}{43}
\setcounter{ContinuedFloat}{0}
\setcounter{KVtest}{1}
\setcounter{subfigure}{0}
\setcounter{subfigure@save}{6}
\setcounter{lofdepth}{1}
\setcounter{subtable}{0}
\setcounter{subtable@save}{0}
\setcounter{lotdepth}{1}
\setcounter{tabx@nest}{0}
\setcounter{listtotal}{0}
\setcounter{listcount}{0}
\setcounter{liststart}{0}
\setcounter{liststop}{0}
\setcounter{citecount}{0}
\setcounter{citetotal}{0}
\setcounter{multicitecount}{0}
\setcounter{multicitetotal}{0}
\setcounter{instcount}{24}
\setcounter{maxnames}{3}
\setcounter{minnames}{1}
\setcounter{maxitems}{3}
\setcounter{minitems}{1}
\setcounter{citecounter}{0}
\setcounter{savedcitecounter}{0}
\setcounter{uniquelist}{0}
\setcounter{uniquename}{0}
\setcounter{refsection}{0}
\setcounter{refsegment}{0}
\setcounter{maxextratitle}{0}
\setcounter{maxextratitleyear}{0}
\setcounter{maxextrayear}{0}
\setcounter{maxextraalpha}{0}
\setcounter{abbrvpenalty}{50}
\setcounter{highnamepenalty}{50}
\setcounter{lownamepenalty}{25}
\setcounter{maxparens}{3}
\setcounter{parenlevel}{0}
\setcounter{mincomprange}{10}
\setcounter{maxcomprange}{100000}
\setcounter{mincompwidth}{1}
\setcounter{afterword}{0}
\setcounter{savedafterword}{0}
\setcounter{annotator}{0}
\setcounter{savedannotator}{0}
\setcounter{author}{0}
\setcounter{savedauthor}{0}
\setcounter{bookauthor}{0}
\setcounter{savedbookauthor}{0}
\setcounter{commentator}{0}
\setcounter{savedcommentator}{0}
\setcounter{editor}{0}
\setcounter{savededitor}{0}
\setcounter{editora}{0}
\setcounter{savededitora}{0}
\setcounter{editorb}{0}
\setcounter{savededitorb}{0}
\setcounter{editorc}{0}
\setcounter{savededitorc}{0}
\setcounter{foreword}{0}
\setcounter{savedforeword}{0}
\setcounter{holder}{0}
\setcounter{savedholder}{0}
\setcounter{introduction}{0}
\setcounter{savedintroduction}{0}
\setcounter{namea}{0}
\setcounter{savednamea}{0}
\setcounter{nameb}{0}
\setcounter{savednameb}{0}
\setcounter{namec}{0}
\setcounter{savednamec}{0}
\setcounter{translator}{0}
\setcounter{savedtranslator}{0}
\setcounter{shortauthor}{0}
\setcounter{savedshortauthor}{0}
\setcounter{shorteditor}{0}
\setcounter{savedshorteditor}{0}
\setcounter{labelname}{0}
\setcounter{savedlabelname}{0}
\setcounter{institution}{0}
\setcounter{savedinstitution}{0}
\setcounter{lista}{0}
\setcounter{savedlista}{0}
\setcounter{listb}{0}
\setcounter{savedlistb}{0}
\setcounter{listc}{0}
\setcounter{savedlistc}{0}
\setcounter{listd}{0}
\setcounter{savedlistd}{0}
\setcounter{liste}{0}
\setcounter{savedliste}{0}
\setcounter{listf}{0}
\setcounter{savedlistf}{0}
\setcounter{location}{0}
\setcounter{savedlocation}{0}
\setcounter{organization}{0}
\setcounter{savedorganization}{0}
\setcounter{origlocation}{0}
\setcounter{savedoriglocation}{0}
\setcounter{origpublisher}{0}
\setcounter{savedorigpublisher}{0}
\setcounter{publisher}{0}
\setcounter{savedpublisher}{0}
\setcounter{language}{0}
\setcounter{savedlanguage}{0}
\setcounter{pageref}{0}
\setcounter{savedpageref}{0}
\setcounter{textcitecount}{0}
\setcounter{textcitetotal}{0}
\setcounter{textcitemaxnames}{0}
\setcounter{biburlnumpenalty}{0}
\setcounter{biburlucpenalty}{0}
\setcounter{biburllcpenalty}{0}
\setcounter{smartand}{1}
\setcounter{bbx:relatedcount}{0}
\setcounter{bbx:relatedtotal}{0}
\setcounter{cbx@tempcnta}{0}
\setcounter{cbx@tempcntb}{21}
\setcounter{r@tfl@t}{1}
\setcounter{Maxaffil}{2}
\setcounter{authors}{1}
\setcounter{affil}{1}
\setcounter{section@level}{2}
}
