\relax 
\providecommand\hyper@newdestlabel[2]{}
\@writefile{toc}{\contentsline {section}{\numberline {5}Impact Parameter with respect to Primary Vertex}{18}{section.5}}
\newlabel{sec:pv}{{5}{18}{Impact Parameter with respect to Primary Vertex}{section.5}{}}
\@writefile{toc}{\contentsline {subsection}{\numberline {5.1}Track IP resolution}{18}{subsection.5.1}}
\newlabel{subsubsection:TrackIPRes}{{5.1}{18}{Track IP resolution}{subsection.5.1}{}}
\newlabel{fig:SubfigureExample1}{{7(a)}{18}{Subfigure 7(a)}{subfigure.7.1}{}}
\newlabel{sub@fig:SubfigureExample1}{{(a)}{}{Subfigure 7(a)\relax }{subfigure.7.1}{}}
\newlabel{fig:SubfigureExample2}{{7(b)}{18}{Subfigure 7(b)}{subfigure.7.2}{}}
\newlabel{sub@fig:SubfigureExample2}{{(b)}{}{Subfigure 7(b)\relax }{subfigure.7.2}{}}
\@writefile{lof}{\contentsline {figure}{\numberline {7}{\ignorespaces Track impact parameter resolution for tracks with |$\eta $|<0.8 after unfolding the contribution of the primary vertex \subref {fig:SubfigureExample1} in transverse plane ($\sigma _{d_0}$), and \subref {fig:SubfigureExample2} along the longitudinal direction ($\sigma _{z_0}$). The bottom panel shows the ratio between data of different years with respect to 2016 data. It should be noted that the momentum axis is in logarithmic scale.\relax }}{18}{figure.caption.11}}
\newlabel{fig:subfigexample}{{7}{18}{Track impact parameter resolution for tracks with |$\eta $|<0.8 after unfolding the contribution of the primary vertex \protect \subref {fig:SubfigureExample1} in transverse plane ($\sigma _{d_0}$), and \protect \subref {fig:SubfigureExample2} along the longitudinal direction ($\sigma _{z_0}$). The bottom panel shows the ratio between data of different years with respect to 2016 data. It should be noted that the momentum axis is in logarithmic scale.\relax }{figure.caption.11}{}}
\@writefile{lof}{\contentsline {subfigure}{\numberline{(a)}{\ignorespaces {}}}{18}{subfigure.7.1}}
\@writefile{lof}{\contentsline {subfigure}{\numberline{(b)}{\ignorespaces {}}}{18}{subfigure.7.2}}
\newlabel{fig:d0etaslice2}{{8(a)}{19}{Subfigure 8(a)}{subfigure.8.1}{}}
\newlabel{sub@fig:d0etaslice2}{{(a)}{}{Subfigure 8(a)\relax }{subfigure.8.1}{}}
\newlabel{fig:z0etaslice2}{{8(b)}{19}{Subfigure 8(b)}{subfigure.8.2}{}}
\newlabel{sub@fig:z0etaslice2}{{(b)}{}{Subfigure 8(b)\relax }{subfigure.8.2}{}}
\@writefile{lof}{\contentsline {figure}{\numberline {8}{\ignorespaces Track impact parameter resolution for tracks with 2.1<|$\eta $|<2.5 after unfolding the contribution of the primary vertex \subref {fig:d0etaslice2} in transverse plane ($\sigma _{d_0}$), and \subref {fig:z0etaslice2} along the longitudinal direction ($\sigma _{z_0}$). The bottom panels show the ratio between data of different years with respect to 2016 data.\relax }}{19}{figure.caption.12}}
\newlabel{fig:etaslice2}{{8}{19}{Track impact parameter resolution for tracks with 2.1<|$\eta $|<2.5 after unfolding the contribution of the primary vertex \protect \subref {fig:d0etaslice2} in transverse plane ($\sigma _{d_0}$), and \protect \subref {fig:z0etaslice2} along the longitudinal direction ($\sigma _{z_0}$). The bottom panels show the ratio between data of different years with respect to 2016 data.\relax }{figure.caption.12}{}}
\@writefile{lof}{\contentsline {subfigure}{\numberline{(a)}{\ignorespaces {}}}{19}{subfigure.8.1}}
\@writefile{lof}{\contentsline {subfigure}{\numberline{(b)}{\ignorespaces {}}}{19}{subfigure.8.2}}
\@writefile{toc}{\contentsline {subsection}{\numberline {5.2}Track IP bias}{19}{subsection.5.2}}
\newlabel{fig:d0bias}{{9(a)}{20}{Subfigure 9(a)}{subfigure.9.1}{}}
\newlabel{sub@fig:d0bias}{{(a)}{}{Subfigure 9(a)\relax }{subfigure.9.1}{}}
\newlabel{fig:z0bias}{{9(b)}{20}{Subfigure 9(b)}{subfigure.9.2}{}}
\newlabel{sub@fig:z0bias}{{(b)}{}{Subfigure 9(b)\relax }{subfigure.9.2}{}}
\@writefile{lof}{\contentsline {figure}{\numberline {9}{\ignorespaces Track impact parameter bias for tracks with |$\eta $|<0.8 after unfolding the contribution of the primary vertex \subref {fig:d0bias} in transverse plane ($\mu _{d_0}$), and \subref {fig:z0bias} along the longitudinal direction ($\mu _{z_0}$). \relax }}{20}{figure.caption.13}}
\newlabel{fig:bias}{{9}{20}{Track impact parameter bias for tracks with |$\eta $|<0.8 after unfolding the contribution of the primary vertex \protect \subref {fig:d0bias} in transverse plane ($\mu _{d_0}$), and \protect \subref {fig:z0bias} along the longitudinal direction ($\mu _{z_0}$). \relax }{figure.caption.13}{}}
\@writefile{lof}{\contentsline {subfigure}{\numberline{(a)}{\ignorespaces {}}}{20}{subfigure.9.1}}
\@writefile{lof}{\contentsline {subfigure}{\numberline{(b)}{\ignorespaces {}}}{20}{subfigure.9.2}}
\newlabel{fig:d0biasetaslice2}{{10(a)}{20}{Subfigure 10(a)}{subfigure.10.1}{}}
\newlabel{sub@fig:d0biasetaslice2}{{(a)}{}{Subfigure 10(a)\relax }{subfigure.10.1}{}}
\newlabel{fig:z0biasetaslice2}{{10(b)}{20}{Subfigure 10(b)}{subfigure.10.2}{}}
\newlabel{sub@fig:z0biasetaslice2}{{(b)}{}{Subfigure 10(b)\relax }{subfigure.10.2}{}}
\@writefile{lof}{\contentsline {figure}{\numberline {10}{\ignorespaces Track impact parameter resolution for tracks with 2.1<|$\eta $|<2.5 after unfolding the contribution of the primary vertex \subref {fig:d0biasetaslice2} in transverse plane ($\mu _{d_0}$), and \subref {fig:z0biasetaslice2} along the longitudinal direction ($\mu _{z_0}$). \relax }}{20}{figure.caption.14}}
\newlabel{fig:biasetaslice2}{{10}{20}{Track impact parameter resolution for tracks with 2.1<|$\eta $|<2.5 after unfolding the contribution of the primary vertex \protect \subref {fig:d0biasetaslice2} in transverse plane ($\mu _{d_0}$), and \protect \subref {fig:z0biasetaslice2} along the longitudinal direction ($\mu _{z_0}$). \relax }{figure.caption.14}{}}
\@writefile{lof}{\contentsline {subfigure}{\numberline{(a)}{\ignorespaces {}}}{20}{subfigure.10.1}}
\@writefile{lof}{\contentsline {subfigure}{\numberline{(b)}{\ignorespaces {}}}{20}{subfigure.10.2}}
\@writefile{toc}{\contentsline {subsection}{\numberline {5.3}Comparison of tracks with versus without IBL hit}{21}{subsection.5.3}}
\newlabel{subsubsection:IBLhitplots}{{5.3}{21}{Comparison of tracks with versus without IBL hit}{subsection.5.3}{}}
\newlabel{fig:1to1p25}{{11(a)}{21}{Subfigure 11(a)}{subfigure.11.1}{}}
\newlabel{sub@fig:1to1p25}{{(a)}{}{Subfigure 11(a)\relax }{subfigure.11.1}{}}
\newlabel{fig:10to12}{{11(b)}{21}{Subfigure 11(b)}{subfigure.11.2}{}}
\newlabel{sub@fig:10to12}{{(b)}{}{Subfigure 11(b)\relax }{subfigure.11.2}{}}
\@writefile{lof}{\contentsline {figure}{\numberline {11}{\ignorespaces Impact parameter distribution in transverse plane ($d_0$) for tracks without any hits in the IBL, versus, with at least one IBL hit, for \subref {fig:1to1p25} $1<p_{T}<1.25$ GeV \subref {fig:10to12} $10<p_{T}<12$ GeV. The points in red represent the tracks with no hits in the IBL, while the black points show the distribution for tracks with at least one IBL hit. \relax }}{21}{figure.caption.15}}
\newlabel{fig:distribution}{{11}{21}{Impact parameter distribution in transverse plane ($d_0$) for tracks without any hits in the IBL, versus, with at least one IBL hit, for \protect \subref {fig:1to1p25} $1<p_{T}<1.25$ GeV \protect \subref {fig:10to12} $10<p_{T}<12$ GeV. The points in red represent the tracks with no hits in the IBL, while the black points show the distribution for tracks with at least one IBL hit. \relax }{figure.caption.15}{}}
\@writefile{lof}{\contentsline {subfigure}{\numberline{(a)}{\ignorespaces {}}}{21}{subfigure.11.1}}
\@writefile{lof}{\contentsline {subfigure}{\numberline{(b)}{\ignorespaces {}}}{21}{subfigure.11.2}}
\@writefile{toc}{\contentsline {subsubsection}{\numberline {5.3.1}Variation with transverse momentum of the tracks}{22}{subsubsection.5.3.1}}
\newlabel{fig:IBLd0_EtaSlice1}{{12(a)}{22}{Subfigure 12(a)}{subfigure.12.1}{}}
\newlabel{sub@fig:IBLd0_EtaSlice1}{{(a)}{}{Subfigure 12(a)\relax }{subfigure.12.1}{}}
\newlabel{fig:IBLz0_EtaSlice1}{{12(b)}{22}{Subfigure 12(b)}{subfigure.12.2}{}}
\newlabel{sub@fig:IBLz0_EtaSlice1}{{(b)}{}{Subfigure 12(b)\relax }{subfigure.12.2}{}}
\@writefile{lof}{\contentsline {figure}{\numberline {12}{\ignorespaces Track impact parameter resolution, for tracks with |$\eta $|<0.8, without any hits in the IBL, versus, with at least one IBL hit, \subref {fig:IBLd0_EtaSlice1} in transverse plane ($\sigma _{d_0}$), and \subref {fig:IBLz0_EtaSlice1} along the longitudinal direction ($\sigma _{z_0}$) The bottom two panels show the ratio between data of different years with respect to 2016 data for the case with no IBL hit (middle pad), and with at least one IBL hit (bottom pad). \relax }}{22}{figure.caption.16}}
\newlabel{fig:IBL_EtaSlice1}{{12}{22}{Track impact parameter resolution, for tracks with |$\eta $|<0.8, without any hits in the IBL, versus, with at least one IBL hit, \protect \subref {fig:IBLd0_EtaSlice1} in transverse plane ($\sigma _{d_0}$), and \protect \subref {fig:IBLz0_EtaSlice1} along the longitudinal direction ($\sigma _{z_0}$) The bottom two panels show the ratio between data of different years with respect to 2016 data for the case with no IBL hit (middle pad), and with at least one IBL hit (bottom pad). \relax }{figure.caption.16}{}}
\@writefile{lof}{\contentsline {subfigure}{\numberline{(a)}{\ignorespaces {}}}{22}{subfigure.12.1}}
\@writefile{lof}{\contentsline {subfigure}{\numberline{(b)}{\ignorespaces {}}}{22}{subfigure.12.2}}
\newlabel{fig:IBLd0_EtaSlice2}{{13(a)}{23}{Subfigure 13(a)}{subfigure.13.1}{}}
\newlabel{sub@fig:IBLd0_EtaSlice2}{{(a)}{}{Subfigure 13(a)\relax }{subfigure.13.1}{}}
\newlabel{fig:IBLz0_EtaSlice2}{{13(b)}{23}{Subfigure 13(b)}{subfigure.13.2}{}}
\newlabel{sub@fig:IBLz0_EtaSlice2}{{(b)}{}{Subfigure 13(b)\relax }{subfigure.13.2}{}}
\@writefile{lof}{\contentsline {figure}{\numberline {13}{\ignorespaces Track impact parameter resolution, for tracks with 2.1<|$\eta $|<2.5, without any hits in the IBL, versus, with at least one IBL hit, \subref {fig:IBLd0_EtaSlice2} in transverse plane ($\sigma _{d_0}$), and \subref {fig:IBLz0_EtaSlice2} along the longitudinal direction ($\sigma _{z_0}$) The bottom two panels show the ratio between data of different years with respect to 2016 data for the case with no IBL hit (middle pad), and with at least one IBL hit (bottom pad). \relax }}{23}{figure.caption.17}}
\newlabel{fig:IBL_EtaSlice2}{{13}{23}{Track impact parameter resolution, for tracks with 2.1<|$\eta $|<2.5, without any hits in the IBL, versus, with at least one IBL hit, \protect \subref {fig:IBLd0_EtaSlice2} in transverse plane ($\sigma _{d_0}$), and \protect \subref {fig:IBLz0_EtaSlice2} along the longitudinal direction ($\sigma _{z_0}$) The bottom two panels show the ratio between data of different years with respect to 2016 data for the case with no IBL hit (middle pad), and with at least one IBL hit (bottom pad). \relax }{figure.caption.17}{}}
\@writefile{lof}{\contentsline {subfigure}{\numberline{(a)}{\ignorespaces {}}}{23}{subfigure.13.1}}
\@writefile{lof}{\contentsline {subfigure}{\numberline{(b)}{\ignorespaces {}}}{23}{subfigure.13.2}}
\@writefile{toc}{\contentsline {subsubsection}{\numberline {5.3.2}Variation with pseudorapidity value of the tracks}{23}{subsubsection.5.3.2}}
\newlabel{fig:d0IBL_Eta}{{14(a)}{24}{Subfigure 14(a)}{subfigure.14.1}{}}
\newlabel{sub@fig:d0IBL_Eta}{{(a)}{}{Subfigure 14(a)\relax }{subfigure.14.1}{}}
\newlabel{fig:z0IBL_Eta}{{14(b)}{24}{Subfigure 14(b)}{subfigure.14.2}{}}
\newlabel{sub@fig:z0IBL_Eta}{{(b)}{}{Subfigure 14(b)\relax }{subfigure.14.2}{}}
\@writefile{lof}{\contentsline {figure}{\numberline {14}{\ignorespaces Track impact parameter resolution versus pseudorapidity for tracks with at least one IBL hit, and, for tracks without any hits in the IBL, \subref {fig:d0IBL_Eta} in transverse plane ($\sigma _{d_0}$) \subref {fig:z0IBL_Eta} along the longitudinal direction ($\sigma _{z_0}$). The bottom panels show the ratio between data of different years with respect to 2016 data. \relax }}{24}{figure.caption.18}}
\newlabel{fig:versusEta}{{14}{24}{Track impact parameter resolution versus pseudorapidity for tracks with at least one IBL hit, and, for tracks without any hits in the IBL, \protect \subref {fig:d0IBL_Eta} in transverse plane ($\sigma _{d_0}$) \protect \subref {fig:z0IBL_Eta} along the longitudinal direction ($\sigma _{z_0}$). The bottom panels show the ratio between data of different years with respect to 2016 data. \relax }{figure.caption.18}{}}
\@writefile{lof}{\contentsline {subfigure}{\numberline{(a)}{\ignorespaces {}}}{24}{subfigure.14.1}}
\@writefile{lof}{\contentsline {subfigure}{\numberline{(b)}{\ignorespaces {}}}{24}{subfigure.14.2}}
\newlabel{fig:d0biaswith}{{15(a)}{24}{Subfigure 15(a)}{subfigure.15.1}{}}
\newlabel{sub@fig:d0biaswith}{{(a)}{}{Subfigure 15(a)\relax }{subfigure.15.1}{}}
\newlabel{fig:d0biaswithout}{{15(b)}{24}{Subfigure 15(b)}{subfigure.15.2}{}}
\newlabel{sub@fig:d0biaswithout}{{(b)}{}{Subfigure 15(b)\relax }{subfigure.15.2}{}}
\@writefile{lof}{\contentsline {figure}{\numberline {15}{\ignorespaces Track impact parameter bias versus pseudorapidity in transverse plane ($\mu _{d_0}$), \subref {fig:d0biaswith} for tracks with at least one IBL hit, and \subref {fig:d0biaswithout} for tracks without any hits in the IBL. \relax }}{24}{figure.caption.19}}
\newlabel{fig:d0bias_comparison}{{15}{24}{Track impact parameter bias versus pseudorapidity in transverse plane ($\mu _{d_0}$), \protect \subref {fig:d0biaswith} for tracks with at least one IBL hit, and \protect \subref {fig:d0biaswithout} for tracks without any hits in the IBL. \relax }{figure.caption.19}{}}
\@writefile{lof}{\contentsline {subfigure}{\numberline{(a)}{\ignorespaces {}}}{24}{subfigure.15.1}}
\@writefile{lof}{\contentsline {subfigure}{\numberline{(b)}{\ignorespaces {}}}{24}{subfigure.15.2}}
\newlabel{fig:z0biaswith}{{16(a)}{25}{Subfigure 16(a)}{subfigure.16.1}{}}
\newlabel{sub@fig:z0biaswith}{{(a)}{}{Subfigure 16(a)\relax }{subfigure.16.1}{}}
\newlabel{fig:z0biaswithout}{{16(b)}{25}{Subfigure 16(b)}{subfigure.16.2}{}}
\newlabel{sub@fig:z0biaswithout}{{(b)}{}{Subfigure 16(b)\relax }{subfigure.16.2}{}}
\@writefile{lof}{\contentsline {figure}{\numberline {16}{\ignorespaces Track impact parameter bias versus pseudorapidity along the longitudinal direction ($\mu _{z_0}$), \subref {fig:z0biaswith} for tracks with at least one IBL hit, and \subref {fig:z0biaswithout} for tracks without any hits in the IBL. \relax }}{25}{figure.caption.20}}
\newlabel{fig:z0bias_comparison}{{16}{25}{Track impact parameter bias versus pseudorapidity along the longitudinal direction ($\mu _{z_0}$), \protect \subref {fig:z0biaswith} for tracks with at least one IBL hit, and \protect \subref {fig:z0biaswithout} for tracks without any hits in the IBL. \relax }{figure.caption.20}{}}
\@writefile{lof}{\contentsline {subfigure}{\numberline{(a)}{\ignorespaces {}}}{25}{subfigure.16.1}}
\@writefile{lof}{\contentsline {subfigure}{\numberline{(b)}{\ignorespaces {}}}{25}{subfigure.16.2}}
\@setckpt{sections/ip_pv}{
\setcounter{page}{26}
\setcounter{equation}{16}
\setcounter{enumi}{0}
\setcounter{enumii}{0}
\setcounter{enumiii}{0}
\setcounter{enumiv}{0}
\setcounter{footnote}{2}
\setcounter{mpfootnote}{0}
\setcounter{part}{0}
\setcounter{section}{5}
\setcounter{subsection}{3}
\setcounter{subsubsection}{2}
\setcounter{paragraph}{0}
\setcounter{subparagraph}{0}
\setcounter{figure}{16}
\setcounter{table}{4}
\setcounter{Item}{0}
\setcounter{Hfootnote}{2}
\setcounter{bookmark@seq@number}{20}
\setcounter{parentequation}{0}
\setcounter{linenumber}{1}
\setcounter{LN@truepage}{25}
\setcounter{ContinuedFloat}{0}
\setcounter{KVtest}{1}
\setcounter{subfigure}{0}
\setcounter{subfigure@save}{2}
\setcounter{lofdepth}{1}
\setcounter{subtable}{0}
\setcounter{subtable@save}{0}
\setcounter{lotdepth}{1}
\setcounter{tabx@nest}{0}
\setcounter{listtotal}{0}
\setcounter{listcount}{0}
\setcounter{liststart}{0}
\setcounter{liststop}{0}
\setcounter{citecount}{0}
\setcounter{citetotal}{0}
\setcounter{multicitecount}{0}
\setcounter{multicitetotal}{0}
\setcounter{instcount}{24}
\setcounter{maxnames}{3}
\setcounter{minnames}{1}
\setcounter{maxitems}{3}
\setcounter{minitems}{1}
\setcounter{citecounter}{0}
\setcounter{savedcitecounter}{0}
\setcounter{uniquelist}{0}
\setcounter{uniquename}{0}
\setcounter{refsection}{0}
\setcounter{refsegment}{0}
\setcounter{maxextratitle}{0}
\setcounter{maxextratitleyear}{0}
\setcounter{maxextrayear}{0}
\setcounter{maxextraalpha}{0}
\setcounter{abbrvpenalty}{50}
\setcounter{highnamepenalty}{50}
\setcounter{lownamepenalty}{25}
\setcounter{maxparens}{3}
\setcounter{parenlevel}{0}
\setcounter{mincomprange}{10}
\setcounter{maxcomprange}{100000}
\setcounter{mincompwidth}{1}
\setcounter{afterword}{0}
\setcounter{savedafterword}{0}
\setcounter{annotator}{0}
\setcounter{savedannotator}{0}
\setcounter{author}{0}
\setcounter{savedauthor}{0}
\setcounter{bookauthor}{0}
\setcounter{savedbookauthor}{0}
\setcounter{commentator}{0}
\setcounter{savedcommentator}{0}
\setcounter{editor}{0}
\setcounter{savededitor}{0}
\setcounter{editora}{0}
\setcounter{savededitora}{0}
\setcounter{editorb}{0}
\setcounter{savededitorb}{0}
\setcounter{editorc}{0}
\setcounter{savededitorc}{0}
\setcounter{foreword}{0}
\setcounter{savedforeword}{0}
\setcounter{holder}{0}
\setcounter{savedholder}{0}
\setcounter{introduction}{0}
\setcounter{savedintroduction}{0}
\setcounter{namea}{0}
\setcounter{savednamea}{0}
\setcounter{nameb}{0}
\setcounter{savednameb}{0}
\setcounter{namec}{0}
\setcounter{savednamec}{0}
\setcounter{translator}{0}
\setcounter{savedtranslator}{0}
\setcounter{shortauthor}{0}
\setcounter{savedshortauthor}{0}
\setcounter{shorteditor}{0}
\setcounter{savedshorteditor}{0}
\setcounter{labelname}{0}
\setcounter{savedlabelname}{0}
\setcounter{institution}{0}
\setcounter{savedinstitution}{0}
\setcounter{lista}{0}
\setcounter{savedlista}{0}
\setcounter{listb}{0}
\setcounter{savedlistb}{0}
\setcounter{listc}{0}
\setcounter{savedlistc}{0}
\setcounter{listd}{0}
\setcounter{savedlistd}{0}
\setcounter{liste}{0}
\setcounter{savedliste}{0}
\setcounter{listf}{0}
\setcounter{savedlistf}{0}
\setcounter{location}{0}
\setcounter{savedlocation}{0}
\setcounter{organization}{0}
\setcounter{savedorganization}{0}
\setcounter{origlocation}{0}
\setcounter{savedoriglocation}{0}
\setcounter{origpublisher}{0}
\setcounter{savedorigpublisher}{0}
\setcounter{publisher}{0}
\setcounter{savedpublisher}{0}
\setcounter{language}{0}
\setcounter{savedlanguage}{0}
\setcounter{pageref}{0}
\setcounter{savedpageref}{0}
\setcounter{textcitecount}{0}
\setcounter{textcitetotal}{0}
\setcounter{textcitemaxnames}{0}
\setcounter{biburlnumpenalty}{0}
\setcounter{biburlucpenalty}{0}
\setcounter{biburllcpenalty}{0}
\setcounter{smartand}{1}
\setcounter{bbx:relatedcount}{0}
\setcounter{bbx:relatedtotal}{0}
\setcounter{cbx@tempcnta}{0}
\setcounter{cbx@tempcntb}{21}
\setcounter{r@tfl@t}{1}
\setcounter{Maxaffil}{2}
\setcounter{authors}{1}
\setcounter{affil}{1}
\setcounter{section@level}{3}
}
