\relax 
\providecommand\hyper@newdestlabel[2]{}
\@writefile{toc}{\contentsline {section}{\numberline {3}Technical details}{11}{section.3}}
\newlabel{sec:tech}{{3}{11}{Technical details}{section.3}{}}
\@writefile{toc}{\contentsline {subsection}{\numberline {3.1}Ntuple generation}{11}{subsection.3.1}}
\@writefile{toc}{\contentsline {subsection}{\numberline {3.2}Event Selection}{11}{subsection.3.2}}
\newlabel{subsection:selection}{{3.2}{11}{Event Selection}{subsection.3.2}{}}
\@writefile{toc}{\contentsline {subsubsection}{\numberline {3.2.1}General selection}{11}{subsubsection.3.2.1}}
\@writefile{toc}{\contentsline {subsubsection}{\numberline {3.2.2}Loose/Tight selection}{12}{subsubsection.3.2.2}}
\newlabel{subsubsection:loosetight}{{3.2.2}{12}{Loose/Tight selection}{subsubsection.3.2.2}{}}
\@writefile{lot}{\contentsline {table}{\numberline {1}{\ignorespaces Selection cuts on tracks defined to be satisfying the "Loose" as well as the "Tight Primary" selection criteria\relax }}{12}{table.caption.6}}
\newlabel{tab:loosetight}{{1}{12}{Selection cuts on tracks defined to be satisfying the "Loose" as well as the "Tight Primary" selection criteria\relax }{table.caption.6}{}}
\@writefile{lot}{\contentsline {table}{\numberline {2}{\ignorespaces Definition of variables used in Table \ref  {tab:loosetight} to explain the loose and tight selection strategy\relax }}{12}{table.caption.7}}
\newlabel{tab:def_variables}{{2}{12}{Definition of variables used in Table \ref {tab:loosetight} to explain the loose and tight selection strategy\relax }{table.caption.7}{}}
\@writefile{toc}{\contentsline {subsubsection}{\numberline {3.2.3}Track classification used in $b$-tagging}{12}{subsubsection.3.2.3}}
\newlabel{subsubsection:btagclasses}{{3.2.3}{12}{Track classification used in $b$-tagging}{subsubsection.3.2.3}{}}
\@writefile{lot}{\contentsline {table}{\numberline {3}{\ignorespaces Description of the track categories used by IP2D and IP3D $b-$tagging algorithms\relax }}{13}{table.caption.8}}
\newlabel{tab:btagging_classes}{{3}{13}{Description of the track categories used by IP2D and IP3D $b-$tagging algorithms\relax }{table.caption.8}{}}
\@writefile{toc}{\contentsline {subsubsection}{\numberline {3.2.4}Track classification on truth level}{13}{subsubsection.3.2.4}}
\newlabel{subsubsection:truthselection}{{3.2.4}{13}{Track classification on truth level}{subsubsection.3.2.4}{}}
\@writefile{toc}{\contentsline {subsection}{\numberline {3.3}MC reweighting}{14}{subsection.3.3}}
\newlabel{fig:nonrew}{{6(a)}{14}{Subfigure 6(a)}{subfigure.6.1}{}}
\newlabel{sub@fig:nonrew}{{(a)}{}{Subfigure 6(a)\relax }{subfigure.6.1}{}}
\newlabel{fig:rew}{{6(b)}{14}{Subfigure 6(b)}{subfigure.6.2}{}}
\newlabel{sub@fig:rew}{{(b)}{}{Subfigure 6(b)\relax }{subfigure.6.2}{}}
\newlabel{fig:nonrewN}{{6(c)}{14}{Subfigure 6(c)}{subfigure.6.3}{}}
\newlabel{sub@fig:nonrewN}{{(c)}{}{Subfigure 6(c)\relax }{subfigure.6.3}{}}
\newlabel{fig:rewN}{{6(d)}{14}{Subfigure 6(d)}{subfigure.6.4}{}}
\newlabel{sub@fig:rewN}{{(d)}{}{Subfigure 6(d)\relax }{subfigure.6.4}{}}
\@writefile{lof}{\contentsline {figure}{\numberline {6}{\ignorespaces \subref {fig:nonrew} and \subref {fig:rew} show the transverse momentum distribution for jets before and after reweighting, correspondingly. The distribution for number of tracks in jet is shown in \subref {fig:nonrewN} before reweighting, and in \subref {fig:rewN} after reweighting. \relax }}{14}{figure.caption.9}}
\newlabel{fig:reweighting}{{6}{14}{\protect \subref {fig:nonrew} and \protect \subref {fig:rew} show the transverse momentum distribution for jets before and after reweighting, correspondingly. The distribution for number of tracks in jet is shown in \protect \subref {fig:nonrewN} before reweighting, and in \protect \subref {fig:rewN} after reweighting. \relax }{figure.caption.9}{}}
\@writefile{lof}{\contentsline {subfigure}{\numberline{(a)}{\ignorespaces {Before reweighting}}}{14}{subfigure.6.1}}
\@writefile{lof}{\contentsline {subfigure}{\numberline{(b)}{\ignorespaces {After reweighting}}}{14}{subfigure.6.2}}
\@writefile{lof}{\contentsline {subfigure}{\numberline{(c)}{\ignorespaces {Before reweighting}}}{14}{subfigure.6.3}}
\@writefile{lof}{\contentsline {subfigure}{\numberline{(d)}{\ignorespaces {After reweighting}}}{14}{subfigure.6.4}}
\@setckpt{sections/technical}{
\setcounter{page}{16}
\setcounter{equation}{16}
\setcounter{enumi}{0}
\setcounter{enumii}{0}
\setcounter{enumiii}{0}
\setcounter{enumiv}{0}
\setcounter{footnote}{2}
\setcounter{mpfootnote}{0}
\setcounter{part}{0}
\setcounter{section}{3}
\setcounter{subsection}{3}
\setcounter{subsubsection}{0}
\setcounter{paragraph}{0}
\setcounter{subparagraph}{0}
\setcounter{figure}{6}
\setcounter{table}{3}
\setcounter{Item}{0}
\setcounter{Hfootnote}{2}
\setcounter{bookmark@seq@number}{13}
\setcounter{parentequation}{0}
\setcounter{linenumber}{1}
\setcounter{LN@truepage}{15}
\setcounter{ContinuedFloat}{0}
\setcounter{KVtest}{1}
\setcounter{subfigure}{0}
\setcounter{subfigure@save}{4}
\setcounter{lofdepth}{1}
\setcounter{subtable}{0}
\setcounter{subtable@save}{0}
\setcounter{lotdepth}{1}
\setcounter{tabx@nest}{0}
\setcounter{listtotal}{0}
\setcounter{listcount}{0}
\setcounter{liststart}{0}
\setcounter{liststop}{0}
\setcounter{citecount}{0}
\setcounter{citetotal}{0}
\setcounter{multicitecount}{0}
\setcounter{multicitetotal}{0}
\setcounter{instcount}{13}
\setcounter{maxnames}{3}
\setcounter{minnames}{1}
\setcounter{maxitems}{3}
\setcounter{minitems}{1}
\setcounter{citecounter}{0}
\setcounter{savedcitecounter}{0}
\setcounter{uniquelist}{0}
\setcounter{uniquename}{0}
\setcounter{refsection}{0}
\setcounter{refsegment}{0}
\setcounter{maxextratitle}{0}
\setcounter{maxextratitleyear}{0}
\setcounter{maxextrayear}{0}
\setcounter{maxextraalpha}{0}
\setcounter{abbrvpenalty}{50}
\setcounter{highnamepenalty}{50}
\setcounter{lownamepenalty}{25}
\setcounter{maxparens}{3}
\setcounter{parenlevel}{0}
\setcounter{mincomprange}{10}
\setcounter{maxcomprange}{100000}
\setcounter{mincompwidth}{1}
\setcounter{afterword}{0}
\setcounter{savedafterword}{0}
\setcounter{annotator}{0}
\setcounter{savedannotator}{0}
\setcounter{author}{0}
\setcounter{savedauthor}{0}
\setcounter{bookauthor}{0}
\setcounter{savedbookauthor}{0}
\setcounter{commentator}{0}
\setcounter{savedcommentator}{0}
\setcounter{editor}{0}
\setcounter{savededitor}{0}
\setcounter{editora}{0}
\setcounter{savededitora}{0}
\setcounter{editorb}{0}
\setcounter{savededitorb}{0}
\setcounter{editorc}{0}
\setcounter{savededitorc}{0}
\setcounter{foreword}{0}
\setcounter{savedforeword}{0}
\setcounter{holder}{0}
\setcounter{savedholder}{0}
\setcounter{introduction}{0}
\setcounter{savedintroduction}{0}
\setcounter{namea}{0}
\setcounter{savednamea}{0}
\setcounter{nameb}{0}
\setcounter{savednameb}{0}
\setcounter{namec}{0}
\setcounter{savednamec}{0}
\setcounter{translator}{0}
\setcounter{savedtranslator}{0}
\setcounter{shortauthor}{0}
\setcounter{savedshortauthor}{0}
\setcounter{shorteditor}{0}
\setcounter{savedshorteditor}{0}
\setcounter{labelname}{0}
\setcounter{savedlabelname}{0}
\setcounter{institution}{0}
\setcounter{savedinstitution}{0}
\setcounter{lista}{0}
\setcounter{savedlista}{0}
\setcounter{listb}{0}
\setcounter{savedlistb}{0}
\setcounter{listc}{0}
\setcounter{savedlistc}{0}
\setcounter{listd}{0}
\setcounter{savedlistd}{0}
\setcounter{liste}{0}
\setcounter{savedliste}{0}
\setcounter{listf}{0}
\setcounter{savedlistf}{0}
\setcounter{location}{0}
\setcounter{savedlocation}{0}
\setcounter{organization}{0}
\setcounter{savedorganization}{0}
\setcounter{origlocation}{0}
\setcounter{savedoriglocation}{0}
\setcounter{origpublisher}{0}
\setcounter{savedorigpublisher}{0}
\setcounter{publisher}{0}
\setcounter{savedpublisher}{0}
\setcounter{language}{0}
\setcounter{savedlanguage}{0}
\setcounter{pageref}{0}
\setcounter{savedpageref}{0}
\setcounter{textcitecount}{0}
\setcounter{textcitetotal}{0}
\setcounter{textcitemaxnames}{0}
\setcounter{biburlnumpenalty}{0}
\setcounter{biburlucpenalty}{0}
\setcounter{biburllcpenalty}{0}
\setcounter{smartand}{1}
\setcounter{bbx:relatedcount}{0}
\setcounter{bbx:relatedtotal}{0}
\setcounter{cbx@tempcnta}{0}
\setcounter{cbx@tempcntb}{11}
\setcounter{r@tfl@t}{0}
\setcounter{Maxaffil}{2}
\setcounter{authors}{1}
\setcounter{affil}{1}
\setcounter{section@level}{2}
}
