\relax 
\providecommand\hyper@newdestlabel[2]{}
\@writefile{toc}{\contentsline {section}{\numberline {2}Impact Parameter of tracks}{4}{section.2}}
\newlabel{sec:theory}{{2}{4}{Impact Parameter of tracks}{section.2}{}}
\@writefile{lof}{\contentsline {figure}{\numberline {1}{\ignorespaces Positive and negative impact parameter definition\relax }}{4}{figure.caption.1}}
\providecommand*\caption@xref[2]{\@setref\relax\@undefined{#1}}
\newlabel{fig:IPar}{{1}{4}{Positive and negative impact parameter definition\relax }{figure.caption.1}{}}
\@writefile{lof}{\contentsline {figure}{\numberline {2}{\ignorespaces Example plot for transverse signed impact parameter significance of tracks in $t\bar {t}$ events associated with $b$ (solid green), $c$ (dashed blue) and light-flavour (dotted red) jets~\cite {ATL-PHYS-PUB-2015-022}\relax }}{4}{figure.caption.2}}
\newlabel{fig:d0_sig}{{2}{4}{Example plot for transverse signed impact parameter significance of tracks in $t\bar {t}$ events associated with $b$ (solid green), $c$ (dashed blue) and light-flavour (dotted red) jets~\cite {ATL-PHYS-PUB-2015-022}\relax }{figure.caption.2}{}}
\@writefile{toc}{\contentsline {subsection}{\numberline {2.1}Factors affecting the impact parameter resolution}{5}{subsection.2.1}}
\newlabel{subsection:Factors effecting IPres}{{2.1}{5}{Factors affecting the impact parameter resolution}{subsection.2.1}{}}
\@writefile{lof}{\contentsline {figure}{\numberline {3}{\ignorespaces Diagrammatic representation of the case when single hit resolution at layer 2 is zero, i.e., $\sigma _{2}=0$ (left), versus the situation when the same in layer 1 is zero, i.e., $\sigma _{1}=0$ (right)\relax }}{5}{figure.caption.3}}
\newlabel{fig:intrinsic}{{3}{5}{Diagrammatic representation of the case when single hit resolution at layer 2 is zero, i.e., $\sigma _{2}=0$ (left), versus the situation when the same in layer 1 is zero, i.e., $\sigma _{1}=0$ (right)\relax }{figure.caption.3}{}}
\newlabel{equation:intrinsic}{{2}{5}{Factors affecting the impact parameter resolution}{equation.2.2}{}}
\@writefile{lof}{\contentsline {figure}{\numberline {4}{\ignorespaces Multiple scattering inside a detector material. The particle hitting the detector layer at position $r_1$ deviates from its original path inside the detector and comes out at an angle $\omega $ with respect to the incident track. This is the depiction for the case when the particle hits the detector layer perpendicularly.\relax }}{6}{figure.caption.4}}
\newlabel{fig:m_scatt}{{4}{6}{Multiple scattering inside a detector material. The particle hitting the detector layer at position $r_1$ deviates from its original path inside the detector and comes out at an angle $\omega $ with respect to the incident track. This is the depiction for the case when the particle hits the detector layer perpendicularly.\relax }{figure.caption.4}{}}
\newlabel{equation:MS}{{3}{6}{Factors affecting the impact parameter resolution}{equation.2.3}{}}
\newlabel{equation:inversepTrelation}{{7}{7}{Factors affecting the impact parameter resolution}{equation.2.7}{}}
\@writefile{toc}{\contentsline {subsection}{\numberline {2.2}Deconvolution of primary vertex resolution from track impact parameter resolution}{7}{subsection.2.2}}
\newlabel{subsection:DECONVOLUTION}{{2.2}{7}{Deconvolution of primary vertex resolution from track impact parameter resolution}{subsection.2.2}{}}
\newlabel{equation:Integral}{{8}{7}{Deconvolution of primary vertex resolution from track impact parameter resolution}{equation.2.8}{}}
\newlabel{Equation:corr_fact}{{9}{7}{Deconvolution of primary vertex resolution from track impact parameter resolution}{equation.2.9}{}}
\@writefile{toc}{\contentsline {subsection}{\numberline {2.3}Fitting function}{8}{subsection.2.3}}
\newlabel{subsection:Fitting}{{2.3}{8}{Fitting function}{subsection.2.3}{}}
\newlabel{equation:gauss}{{14}{8}{Fitting function}{equation.2.14}{}}
\newlabel{fig:Gauss}{{5(a)}{9}{Subfigure 5(a)}{subfigure.5.1}{}}
\newlabel{sub@fig:Gauss}{{(a)}{}{Subfigure 5(a)\relax }{subfigure.5.1}{}}
\newlabel{fig:Tail}{{5(b)}{9}{Subfigure 5(b)}{subfigure.5.2}{}}
\newlabel{sub@fig:Tail}{{(b)}{}{Subfigure 5(b)\relax }{subfigure.5.2}{}}
\@writefile{lof}{\contentsline {figure}{\numberline {5}{\ignorespaces Example of a fit on $d_0$ distribution using \subref {fig:Gauss} a single Gaussian function (Equation \ref  {equation:gauss}), and \subref {fig:Tail} a double Gaussian with exponential continuation function (Equation \ref  {equation:tailfunction}). For a single Gaussian function, the fit is done within the core of the distribution, i.e., in a range of [-1.5$\sigma $, 1.5$\sigma $], whereas, for tail parameterization, the fitting is performed over the entire range of $d_0$ distribution. The fitted function is marked in red line, while the blue marks represent the data points. \relax }}{9}{figure.caption.5}}
\newlabel{fig:Fits}{{5}{9}{Example of a fit on $d_0$ distribution using \protect \subref {fig:Gauss} a single Gaussian function (Equation \ref {equation:gauss}), and \protect \subref {fig:Tail} a double Gaussian with exponential continuation function (Equation \ref {equation:tailfunction}). For a single Gaussian function, the fit is done within the core of the distribution, i.e., in a range of [-1.5$\sigma $, 1.5$\sigma $], whereas, for tail parameterization, the fitting is performed over the entire range of $d_0$ distribution. The fitted function is marked in red line, while the blue marks represent the data points. \relax }{figure.caption.5}{}}
\@writefile{lof}{\contentsline {subfigure}{\numberline{(a)}{\ignorespaces {}}}{9}{subfigure.5.1}}
\@writefile{lof}{\contentsline {subfigure}{\numberline{(b)}{\ignorespaces {}}}{9}{subfigure.5.2}}
\newlabel{equation:tailfunction}{{15}{9}{Fitting function}{equation.2.15}{}}
\@setckpt{sections/theory}{
\setcounter{page}{11}
\setcounter{equation}{16}
\setcounter{enumi}{0}
\setcounter{enumii}{0}
\setcounter{enumiii}{0}
\setcounter{enumiv}{0}
\setcounter{footnote}{2}
\setcounter{mpfootnote}{0}
\setcounter{part}{0}
\setcounter{section}{2}
\setcounter{subsection}{3}
\setcounter{subsubsection}{0}
\setcounter{paragraph}{0}
\setcounter{subparagraph}{0}
\setcounter{figure}{5}
\setcounter{table}{0}
\setcounter{Item}{0}
\setcounter{Hfootnote}{2}
\setcounter{bookmark@seq@number}{5}
\setcounter{parentequation}{0}
\setcounter{linenumber}{1}
\setcounter{LN@truepage}{10}
\setcounter{ContinuedFloat}{0}
\setcounter{KVtest}{1}
\setcounter{subfigure}{0}
\setcounter{subfigure@save}{2}
\setcounter{lofdepth}{1}
\setcounter{subtable}{0}
\setcounter{subtable@save}{0}
\setcounter{lotdepth}{1}
\setcounter{tabx@nest}{0}
\setcounter{listtotal}{0}
\setcounter{listcount}{0}
\setcounter{liststart}{0}
\setcounter{liststop}{0}
\setcounter{citecount}{0}
\setcounter{citetotal}{0}
\setcounter{multicitecount}{0}
\setcounter{multicitetotal}{0}
\setcounter{instcount}{8}
\setcounter{maxnames}{3}
\setcounter{minnames}{1}
\setcounter{maxitems}{3}
\setcounter{minitems}{1}
\setcounter{citecounter}{0}
\setcounter{savedcitecounter}{0}
\setcounter{uniquelist}{0}
\setcounter{uniquename}{0}
\setcounter{refsection}{0}
\setcounter{refsegment}{0}
\setcounter{maxextratitle}{0}
\setcounter{maxextratitleyear}{0}
\setcounter{maxextrayear}{0}
\setcounter{maxextraalpha}{0}
\setcounter{abbrvpenalty}{50}
\setcounter{highnamepenalty}{50}
\setcounter{lownamepenalty}{25}
\setcounter{maxparens}{3}
\setcounter{parenlevel}{0}
\setcounter{mincomprange}{10}
\setcounter{maxcomprange}{100000}
\setcounter{mincompwidth}{1}
\setcounter{afterword}{0}
\setcounter{savedafterword}{0}
\setcounter{annotator}{0}
\setcounter{savedannotator}{0}
\setcounter{author}{0}
\setcounter{savedauthor}{0}
\setcounter{bookauthor}{0}
\setcounter{savedbookauthor}{0}
\setcounter{commentator}{0}
\setcounter{savedcommentator}{0}
\setcounter{editor}{0}
\setcounter{savededitor}{0}
\setcounter{editora}{0}
\setcounter{savededitora}{0}
\setcounter{editorb}{0}
\setcounter{savededitorb}{0}
\setcounter{editorc}{0}
\setcounter{savededitorc}{0}
\setcounter{foreword}{0}
\setcounter{savedforeword}{0}
\setcounter{holder}{0}
\setcounter{savedholder}{0}
\setcounter{introduction}{0}
\setcounter{savedintroduction}{0}
\setcounter{namea}{0}
\setcounter{savednamea}{0}
\setcounter{nameb}{0}
\setcounter{savednameb}{0}
\setcounter{namec}{0}
\setcounter{savednamec}{0}
\setcounter{translator}{0}
\setcounter{savedtranslator}{0}
\setcounter{shortauthor}{0}
\setcounter{savedshortauthor}{0}
\setcounter{shorteditor}{0}
\setcounter{savedshorteditor}{0}
\setcounter{labelname}{0}
\setcounter{savedlabelname}{0}
\setcounter{institution}{0}
\setcounter{savedinstitution}{0}
\setcounter{lista}{0}
\setcounter{savedlista}{0}
\setcounter{listb}{0}
\setcounter{savedlistb}{0}
\setcounter{listc}{0}
\setcounter{savedlistc}{0}
\setcounter{listd}{0}
\setcounter{savedlistd}{0}
\setcounter{liste}{0}
\setcounter{savedliste}{0}
\setcounter{listf}{0}
\setcounter{savedlistf}{0}
\setcounter{location}{0}
\setcounter{savedlocation}{0}
\setcounter{organization}{0}
\setcounter{savedorganization}{0}
\setcounter{origlocation}{0}
\setcounter{savedoriglocation}{0}
\setcounter{origpublisher}{0}
\setcounter{savedorigpublisher}{0}
\setcounter{publisher}{0}
\setcounter{savedpublisher}{0}
\setcounter{language}{0}
\setcounter{savedlanguage}{0}
\setcounter{pageref}{0}
\setcounter{savedpageref}{0}
\setcounter{textcitecount}{0}
\setcounter{textcitetotal}{0}
\setcounter{textcitemaxnames}{0}
\setcounter{biburlnumpenalty}{0}
\setcounter{biburlucpenalty}{0}
\setcounter{biburllcpenalty}{0}
\setcounter{smartand}{1}
\setcounter{bbx:relatedcount}{0}
\setcounter{bbx:relatedtotal}{0}
\setcounter{cbx@tempcnta}{0}
\setcounter{cbx@tempcntb}{4}
\setcounter{r@tfl@t}{0}
\setcounter{Maxaffil}{2}
\setcounter{authors}{1}
\setcounter{affil}{1}
\setcounter{section@level}{2}
}
